%!PS-Adobe-3.0
%%Creator: PCBNEW
%%CreationDate: Sun Sep 13 09:27:19 2015
%%Title: /home/max/av/!мое/паяние/kicad/паяльная станция teatro/проба усилителя термопары/termopara_usilitel-B_Cu.ps
%%Pages: 1
%%PageOrder: Ascend
%%BoundingBox: 0 0 596 842
%%DocumentMedia: A4 595 842 0 () ()
%%Orientation: Landscape
%%EndComments
%%BeginProlog
/line { newpath moveto lineto stroke } bind def
/cir0 { newpath 0 360 arc stroke } bind def
/cir1 { newpath 0 360 arc gsave fill grestore stroke } bind def
/cir2 { newpath 0 360 arc gsave fill grestore stroke } bind def
/arc0 { newpath arc stroke } bind def
/arc1 { newpath 4 index 4 index moveto arc closepath gsave fill
    grestore stroke } bind def
/arc2 { newpath 4 index 4 index moveto arc closepath gsave fill
    grestore stroke } bind def
/poly0 { stroke } bind def
/poly1 { closepath gsave fill grestore stroke } bind def
/poly2 { closepath gsave fill grestore stroke } bind def
/rect0 { rectstroke } bind def
/rect1 { rectfill } bind def
/rect2 { rectfill } bind def
/linemode0 { 0 setlinecap 0 setlinejoin 0 setlinewidth } bind def
/linemode1 { 1 setlinecap 1 setlinejoin } bind def
/dashedline { [200] 100 setdash } bind def
/solidline { [] 0 setdash } bind def
/phantomshow { moveto
    /KicadFont findfont 0.000001 scalefont setfont
    show } bind def
/textshow { gsave
    findfont exch scalefont setfont concat 1 scale 0 0 moveto show
    } bind def
/reencodefont {
  findfont dup length dict begin
  { 1 index /FID ne
    { def }
    { pop pop } ifelse
  } forall
  /Encoding ISOLatin1Encoding def
  currentdict
  end } bind def
/KicadFont /Helvetica reencodefont definefont pop
/KicadFont-Bold /Helvetica-Bold reencodefont definefont pop
/KicadFont-Oblique /Helvetica-Oblique reencodefont definefont pop
/KicadFont-BoldOblique /Helvetica-BoldOblique reencodefont definefont pop
%%EndProlog
%%Page: 1 1
%%BeginPageSetup
gsave
0.0072 0.0072 scale
linemode1
82680 0 translate 90 rotate
59.0551 setlinewidth
%%EndPageSetup
0 0 0 setrgbcolor
0 0 0 setrgbcolor
59.0551 setlinewidth
newpath
100562 40984 moveto
100562 41476 lineto
100738 41476 lineto
100738 40984 lineto
100562 40984 lineto
poly1
0 0 0 setrgbcolor
newpath
100562 43084 moveto
100562 43576 lineto
100738 43576 lineto
100738 43084 lineto
100562 43084 lineto
poly1
0 0 0 setrgbcolor
newpath
101062 40984 moveto
101062 41476 lineto
101238 41476 lineto
101238 40984 lineto
101062 40984 lineto
poly1
0 0 0 setrgbcolor
newpath
101562 40984 moveto
101562 41476 lineto
101738 41476 lineto
101738 40984 lineto
101562 40984 lineto
poly1
0 0 0 setrgbcolor
newpath
102062 40984 moveto
102062 41476 lineto
102238 41476 lineto
102238 40984 lineto
102062 40984 lineto
poly1
0 0 0 setrgbcolor
newpath
101062 43084 moveto
101062 43576 lineto
101238 43576 lineto
101238 43084 lineto
101062 43084 lineto
poly1
0 0 0 setrgbcolor
newpath
101562 43084 moveto
101562 43576 lineto
101738 43576 lineto
101738 43084 lineto
101562 43084 lineto
poly1
0 0 0 setrgbcolor
newpath
102062 43084 moveto
102062 43576 lineto
102238 43576 lineto
102238 43084 lineto
102062 43084 lineto
poly1
0 0 0 setrgbcolor
newpath
100070 41359.5 moveto
99329.5 41359.5 lineto
99329.5 41900.5 lineto
100070 41900.5 lineto
100070 41359.5 lineto
poly1
0 0 0 setrgbcolor
newpath
100070 42659.5 moveto
99329.5 42659.5 lineto
99329.5 43200.5 lineto
100070 43200.5 lineto
100070 42659.5 lineto
poly1
0 0 0 setrgbcolor
newpath
103770 40834.5 moveto
103030 40834.5 lineto
103030 41375.5 lineto
103770 41375.5 lineto
103770 40834.5 lineto
poly1
0 0 0 setrgbcolor
newpath
103770 42134.5 moveto
103030 42134.5 lineto
103030 42675.5 lineto
103770 42675.5 lineto
103770 42134.5 lineto
poly1
0 0 0 setrgbcolor
newpath
103180 43109.5 moveto
103180 43850.5 lineto
103720 43850.5 lineto
103720 43109.5 lineto
103180 43109.5 lineto
poly1
0 0 0 setrgbcolor
newpath
104480 43109.5 moveto
104480 43850.5 lineto
105020 43850.5 lineto
105020 43109.5 lineto
104480 43109.5 lineto
poly1
0 0 0 setrgbcolor
newpath
105020 45250.5 moveto
105020 44509.5 lineto
104480 44509.5 lineto
104480 45250.5 lineto
105020 45250.5 lineto
poly1
0 0 0 setrgbcolor
newpath
103720 45250.5 moveto
103720 44509.5 lineto
103180 44509.5 lineto
103180 45250.5 lineto
103720 45250.5 lineto
poly1
0 0 0 setrgbcolor
newpath
102266 45250.5 moveto
102266 44309.5 lineto
101734 44309.5 lineto
101734 45250.5 lineto
102266 45250.5 lineto
poly1
0 0 0 setrgbcolor
newpath
101266 45250.5 moveto
101266 44309.5 lineto
100734 44309.5 lineto
100734 45250.5 lineto
101266 45250.5 lineto
poly1
0 0 0 setrgbcolor
newpath
100266 45250.5 moveto
100266 44309.5 lineto
99734.3 44309.5 lineto
99734.3 45250.5 lineto
100266 45250.5 lineto
poly1
0 0 0 setrgbcolor
newpath
105270 40914.3 moveto
104330 40914.3 lineto
104330 41445.7 lineto
105270 41445.7 lineto
105270 40914.3 lineto
poly1
0 0 0 setrgbcolor
newpath
105270 41914.3 moveto
104330 41914.3 lineto
104330 42445.7 lineto
105270 42445.7 lineto
105270 41914.3 lineto
poly1
0 0 0 setrgbcolor
newpath
98870.5 43714.3 moveto
97929.5 43714.3 lineto
97929.5 44245.7 lineto
98870.5 44245.7 lineto
98870.5 43714.3 lineto
poly1
0 0 0 setrgbcolor
newpath
98870.5 44714.3 moveto
97929.5 44714.3 lineto
97929.5 45245.7 lineto
98870.5 45245.7 lineto
98870.5 44714.3 lineto
poly1
0 0 0 setrgbcolor
newpath
98870.5 41014.3 moveto
97929.5 41014.3 lineto
97929.5 41545.7 lineto
98870.5 41545.7 lineto
98870.5 41014.3 lineto
poly1
0 0 0 setrgbcolor
newpath
98870.5 42014.3 moveto
97929.5 42014.3 lineto
97929.5 42545.7 lineto
98870.5 42545.7 lineto
98870.5 42014.3 lineto
poly1
0 0 0 setrgbcolor
200 setlinewidth
newpath
100650 41230 moveto
100450 41230 lineto
stroke
0 0 0 setrgbcolor
newpath
98700 40980 moveto
98400 41280 lineto
stroke
0 0 0 setrgbcolor
newpath
100200 40980 moveto
98700 40980 lineto
stroke
0 0 0 setrgbcolor
newpath
100450 41230 moveto
100200 40980 lineto
stroke
0 0 0 setrgbcolor
newpath
97500 42780 moveto
97500 40680 lineto
stroke
0 0 0 setrgbcolor
newpath
105500 45680 moveto
104500 45680 lineto
stroke
0 0 0 setrgbcolor
newpath
105700 45480 moveto
105500 45680 lineto
stroke
0 0 0 setrgbcolor
newpath
105700 40680 moveto
105700 45480 lineto
stroke
0 0 0 setrgbcolor
newpath
105500 40480 moveto
105700 40680 lineto
stroke
0 0 0 setrgbcolor
newpath
97700 40480 moveto
105500 40480 lineto
stroke
0 0 0 setrgbcolor
newpath
97500 40680 moveto
97700 40480 lineto
stroke
0 0 0 setrgbcolor
newpath
98600 45680 moveto
97500 45680 lineto
stroke
0 0 0 setrgbcolor
newpath
98400 44980 moveto
97500 44980 lineto
stroke
0 0 0 setrgbcolor
newpath
98000 42280 moveto
98400 42280 lineto
stroke
0 0 0 setrgbcolor
newpath
97500 42780 moveto
98000 42280 lineto
stroke
0 0 0 setrgbcolor
newpath
97500 44980 moveto
97500 42780 lineto
stroke
0 0 0 setrgbcolor
newpath
104100 43880 moveto
104100 45580 lineto
stroke
0 0 0 setrgbcolor
newpath
98400 45480 moveto
98400 44980 lineto
stroke
0 0 0 setrgbcolor
newpath
98600 45680 moveto
98400 45480 lineto
stroke
0 0 0 setrgbcolor
newpath
104000 45680 moveto
98600 45680 lineto
stroke
0 0 0 setrgbcolor
newpath
104100 45580 moveto
104000 45680 lineto
stroke
0 0 0 setrgbcolor
newpath
98400 42280 moveto
99200 42280 lineto
stroke
0 0 0 setrgbcolor
newpath
99700 41780 moveto
99700 41630 lineto
stroke
0 0 0 setrgbcolor
newpath
99200 42280 moveto
99700 41780 lineto
stroke
0 0 0 setrgbcolor
newpath
102150 43330 moveto
102150 43430 lineto
stroke
0 0 0 setrgbcolor
newpath
104100 42880 moveto
104800 42180 lineto
stroke
0 0 0 setrgbcolor
newpath
104100 43980 moveto
104100 43880 lineto
stroke
0 0 0 setrgbcolor
newpath
104100 43880 moveto
104100 42880 lineto
stroke
0 0 0 setrgbcolor
newpath
103900 44180 moveto
104100 43980 lineto
stroke
0 0 0 setrgbcolor
newpath
102900 44180 moveto
103900 44180 lineto
stroke
0 0 0 setrgbcolor
newpath
102150 43430 moveto
102900 44180 lineto
stroke
0 0 0 setrgbcolor
newpath
103400 41105 moveto
103175 41105 lineto
stroke
0 0 0 setrgbcolor
newpath
101150 42230 moveto
101150 42730 lineto
stroke
0 0 0 setrgbcolor
newpath
101500 41880 moveto
101150 42230 lineto
stroke
0 0 0 setrgbcolor
newpath
102400 41880 moveto
101500 41880 lineto
stroke
0 0 0 setrgbcolor
newpath
103175 41105 moveto
102400 41880 lineto
stroke
0 0 0 setrgbcolor
newpath
101150 43330 moveto
101150 42730 lineto
stroke
0 0 0 setrgbcolor
newpath
100050 42580 moveto
99700 42930 lineto
stroke
0 0 0 setrgbcolor
newpath
101000 42580 moveto
100050 42580 lineto
stroke
0 0 0 setrgbcolor
newpath
101150 42730 moveto
101000 42580 lineto
stroke
0 0 0 setrgbcolor
newpath
101650 43330 moveto
101650 42730 lineto
stroke
0 0 0 setrgbcolor
newpath
104600 41180 moveto
104800 41180 lineto
stroke
0 0 0 setrgbcolor
newpath
104000 41780 moveto
104600 41180 lineto
stroke
0 0 0 setrgbcolor
newpath
103000 41780 moveto
104000 41780 lineto
stroke
0 0 0 setrgbcolor
newpath
102500 42280 moveto
103000 41780 lineto
stroke
0 0 0 setrgbcolor
newpath
102100 42280 moveto
102500 42280 lineto
stroke
0 0 0 setrgbcolor
newpath
101650 42730 moveto
102100 42280 lineto
stroke
0 0 0 setrgbcolor
newpath
98400 43980 moveto
100000 43980 lineto
stroke
0 0 0 setrgbcolor
newpath
101000 44780 moveto
100000 44780 lineto
stroke
0 0 0 setrgbcolor
newpath
100000 44780 moveto
100000 43980 lineto
stroke
0 0 0 setrgbcolor
newpath
100000 43980 moveto
100650 43330 lineto
stroke
0 0 0 setrgbcolor
newpath
103400 42405 moveto
103400 43430 lineto
stroke
0 0 0 setrgbcolor
newpath
103400 43430 moveto
103450 43480 lineto
stroke
0 0 0 setrgbcolor
newpath
104750 44880 moveto
104750 43480 lineto
stroke
0 0 0 setrgbcolor
newpath
103450 44880 moveto
102100 44880 lineto
stroke
0 0 0 setrgbcolor
newpath
102100 44880 moveto
102000 44780 lineto
stroke
showpage
grestore
%%EOF
