(kicad_pcb (version 3) (host pcbnew "(22-Jun-2014 BZR 4027)-stable")

  (general
    (links 14)
    (no_connects 0)
    (area 0 0 0 0)
    (thickness 1.6)
    (drawings 0)
    (tracks 56)
    (zones 0)
    (modules 9)
    (nets 9)
  )

  (page A4)
  (layers
    (15 F.Cu signal)
    (0 B.Cu signal)
    (16 B.Adhes user)
    (17 F.Adhes user)
    (18 B.Paste user)
    (19 F.Paste user)
    (20 B.SilkS user)
    (21 F.SilkS user)
    (22 B.Mask user)
    (23 F.Mask user)
    (24 Dwgs.User user)
    (25 Cmts.User user)
    (26 Eco1.User user)
    (27 Eco2.User user)
    (28 Edge.Cuts user)
  )

  (setup
    (last_trace_width 0.508)
    (trace_clearance 0.254)
    (zone_clearance 0.508)
    (zone_45_only no)
    (trace_min 0.254)
    (segment_width 0.2)
    (edge_width 0.1)
    (via_size 0.889)
    (via_drill 0.635)
    (via_min_size 0.889)
    (via_min_drill 0.508)
    (uvia_size 0.508)
    (uvia_drill 0.127)
    (uvias_allowed no)
    (uvia_min_size 0.508)
    (uvia_min_drill 0.127)
    (pcb_text_width 0.3)
    (pcb_text_size 1.5 1.5)
    (mod_edge_width 0.15)
    (mod_text_size 1 1)
    (mod_text_width 0.15)
    (pad_size 1.5 1.5)
    (pad_drill 0.6)
    (pad_to_mask_clearance 0)
    (aux_axis_origin 0 0)
    (visible_elements FFFFFFBF)
    (pcbplotparams
      (layerselection 1)
      (usegerberextensions false)
      (excludeedgelayer true)
      (linewidth 0.150000)
      (plotframeref false)
      (viasonmask false)
      (mode 1)
      (useauxorigin false)
      (hpglpennumber 1)
      (hpglpenspeed 20)
      (hpglpendiameter 15)
      (hpglpenoverlay 2)
      (psnegative false)
      (psa4output false)
      (plotreference true)
      (plotvalue true)
      (plotothertext true)
      (plotinvisibletext false)
      (padsonsilk false)
      (subtractmaskfromsilk false)
      (outputformat 2)
      (mirror false)
      (drillshape 0)
      (scaleselection 1)
      (outputdirectory ""))
  )

  (net 0 "")
  (net 1 +5V)
  (net 2 GND)
  (net 3 N-000002)
  (net 4 N-000004)
  (net 5 N-000005)
  (net 6 N-000006)
  (net 7 N-000007)
  (net 8 N-000008)

  (net_class Default "Это класс цепей по умолчанию."
    (clearance 0.254)
    (trace_width 0.508)
    (via_dia 0.889)
    (via_drill 0.635)
    (uvia_dia 0.508)
    (uvia_drill 0.127)
    (add_net "")
    (add_net +5V)
    (add_net GND)
    (add_net N-000002)
    (add_net N-000004)
    (add_net N-000005)
    (add_net N-000006)
    (add_net N-000007)
    (add_net N-000008)
  )

  (module SO8E (layer B.Cu) (tedit 4F33A5C7) (tstamp 55F4DB81)
    (at 257.556 102.616)
    (descr "module CMS SOJ 8 pins etroit")
    (tags "CMS SOJ")
    (path /55F2D820)
    (attr smd)
    (fp_text reference U1 (at 0 0.889) (layer B.SilkS)
      (effects (font (size 1.143 1.143) (thickness 0.1524)) (justify mirror))
    )
    (fp_text value LM358 (at 0 -1.016) (layer B.SilkS)
      (effects (font (size 0.889 0.889) (thickness 0.1524)) (justify mirror))
    )
    (fp_line (start -2.667 -1.778) (end -2.667 -1.905) (layer B.SilkS) (width 0.127))
    (fp_line (start -2.667 -1.905) (end 2.667 -1.905) (layer B.SilkS) (width 0.127))
    (fp_line (start 2.667 1.905) (end -2.667 1.905) (layer B.SilkS) (width 0.127))
    (fp_line (start -2.667 1.905) (end -2.667 -1.778) (layer B.SilkS) (width 0.127))
    (fp_line (start -2.667 0.508) (end -2.159 0.508) (layer B.SilkS) (width 0.127))
    (fp_line (start -2.159 0.508) (end -2.159 -0.508) (layer B.SilkS) (width 0.127))
    (fp_line (start -2.159 -0.508) (end -2.667 -0.508) (layer B.SilkS) (width 0.127))
    (fp_line (start 2.667 1.905) (end 2.667 -1.905) (layer B.SilkS) (width 0.127))
    (pad 8 smd rect (at -1.905 2.667) (size 0.59944 1.39954)
      (layers B.Cu B.Paste B.Mask)
      (net 1 +5V)
    )
    (pad 1 smd rect (at -1.905 -2.667) (size 0.59944 1.39954)
      (layers B.Cu B.Paste B.Mask)
      (net 5 N-000005)
    )
    (pad 7 smd rect (at -0.635 2.667) (size 0.59944 1.39954)
      (layers B.Cu B.Paste B.Mask)
    )
    (pad 6 smd rect (at 0.635 2.667) (size 0.59944 1.39954)
      (layers B.Cu B.Paste B.Mask)
    )
    (pad 5 smd rect (at 1.905 2.667) (size 0.59944 1.39954)
      (layers B.Cu B.Paste B.Mask)
    )
    (pad 2 smd rect (at -0.635 -2.667) (size 0.59944 1.39954)
      (layers B.Cu B.Paste B.Mask)
      (net 3 N-000002)
    )
    (pad 3 smd rect (at 0.635 -2.667) (size 0.59944 1.39954)
      (layers B.Cu B.Paste B.Mask)
      (net 4 N-000004)
    )
    (pad 4 smd rect (at 1.905 -2.667) (size 0.59944 1.39954)
      (layers B.Cu B.Paste B.Mask)
      (net 2 GND)
    )
    (model smd/cms_so8.wrl
      (at (xyz 0 0 0))
      (scale (xyz 0.5 0.32 0.5))
      (rotate (xyz 0 0 0))
    )
  )

  (module SM1206 (layer B.Cu) (tedit 42806E24) (tstamp 55F4DB8D)
    (at 253.238 102.616 90)
    (path /55F2D994)
    (attr smd)
    (fp_text reference R1 (at 0 0 90) (layer B.SilkS)
      (effects (font (size 0.762 0.762) (thickness 0.127)) (justify mirror))
    )
    (fp_text value 1k (at 0 0 90) (layer B.SilkS) hide
      (effects (font (size 0.762 0.762) (thickness 0.127)) (justify mirror))
    )
    (fp_line (start -2.54 1.143) (end -2.54 -1.143) (layer B.SilkS) (width 0.127))
    (fp_line (start -2.54 -1.143) (end -0.889 -1.143) (layer B.SilkS) (width 0.127))
    (fp_line (start 0.889 1.143) (end 2.54 1.143) (layer B.SilkS) (width 0.127))
    (fp_line (start 2.54 1.143) (end 2.54 -1.143) (layer B.SilkS) (width 0.127))
    (fp_line (start 2.54 -1.143) (end 0.889 -1.143) (layer B.SilkS) (width 0.127))
    (fp_line (start -0.889 1.143) (end -2.54 1.143) (layer B.SilkS) (width 0.127))
    (pad 1 smd rect (at -1.651 0 90) (size 1.524 2.032)
      (layers B.Cu B.Paste B.Mask)
      (net 2 GND)
    )
    (pad 2 smd rect (at 1.651 0 90) (size 1.524 2.032)
      (layers B.Cu B.Paste B.Mask)
      (net 3 N-000002)
    )
    (model smd/chip_cms.wrl
      (at (xyz 0 0 0))
      (scale (xyz 0.17 0.16 0.16))
      (rotate (xyz 0 0 0))
    )
  )

  (module SM1206 (layer B.Cu) (tedit 42806E24) (tstamp 55F4DB99)
    (at 262.636 103.9495 90)
    (path /55F2DA79)
    (attr smd)
    (fp_text reference R2 (at 0 0 90) (layer B.SilkS)
      (effects (font (size 0.762 0.762) (thickness 0.127)) (justify mirror))
    )
    (fp_text value 100k (at 0 0 90) (layer B.SilkS) hide
      (effects (font (size 0.762 0.762) (thickness 0.127)) (justify mirror))
    )
    (fp_line (start -2.54 1.143) (end -2.54 -1.143) (layer B.SilkS) (width 0.127))
    (fp_line (start -2.54 -1.143) (end -0.889 -1.143) (layer B.SilkS) (width 0.127))
    (fp_line (start 0.889 1.143) (end 2.54 1.143) (layer B.SilkS) (width 0.127))
    (fp_line (start 2.54 1.143) (end 2.54 -1.143) (layer B.SilkS) (width 0.127))
    (fp_line (start 2.54 -1.143) (end 0.889 -1.143) (layer B.SilkS) (width 0.127))
    (fp_line (start -0.889 1.143) (end -2.54 1.143) (layer B.SilkS) (width 0.127))
    (pad 1 smd rect (at -1.651 0 90) (size 1.524 2.032)
      (layers B.Cu B.Paste B.Mask)
      (net 3 N-000002)
    )
    (pad 2 smd rect (at 1.651 0 90) (size 1.524 2.032)
      (layers B.Cu B.Paste B.Mask)
      (net 6 N-000006)
    )
    (model smd/chip_cms.wrl
      (at (xyz 0 0 0))
      (scale (xyz 0.17 0.16 0.16))
      (rotate (xyz 0 0 0))
    )
  )

  (module SM1206 (layer B.Cu) (tedit 42806E24) (tstamp 55F4DBA5)
    (at 264.414 99.568)
    (path /55F2DA9B)
    (attr smd)
    (fp_text reference R3 (at 0 0) (layer B.SilkS)
      (effects (font (size 0.762 0.762) (thickness 0.127)) (justify mirror))
    )
    (fp_text value 100k (at 0 0) (layer B.SilkS) hide
      (effects (font (size 0.762 0.762) (thickness 0.127)) (justify mirror))
    )
    (fp_line (start -2.54 1.143) (end -2.54 -1.143) (layer B.SilkS) (width 0.127))
    (fp_line (start -2.54 -1.143) (end -0.889 -1.143) (layer B.SilkS) (width 0.127))
    (fp_line (start 0.889 1.143) (end 2.54 1.143) (layer B.SilkS) (width 0.127))
    (fp_line (start 2.54 1.143) (end 2.54 -1.143) (layer B.SilkS) (width 0.127))
    (fp_line (start 2.54 -1.143) (end 0.889 -1.143) (layer B.SilkS) (width 0.127))
    (fp_line (start -0.889 1.143) (end -2.54 1.143) (layer B.SilkS) (width 0.127))
    (pad 1 smd rect (at -1.651 0) (size 1.524 2.032)
      (layers B.Cu B.Paste B.Mask)
      (net 6 N-000006)
    )
    (pad 2 smd rect (at 1.651 0) (size 1.524 2.032)
      (layers B.Cu B.Paste B.Mask)
      (net 7 N-000007)
    )
    (model smd/chip_cms.wrl
      (at (xyz 0 0 0))
      (scale (xyz 0.17 0.16 0.16))
      (rotate (xyz 0 0 0))
    )
  )

  (module SM1206 (layer B.Cu) (tedit 42806E24) (tstamp 55F4DBB1)
    (at 264.414 96.012 180)
    (path /55F2DAA1)
    (attr smd)
    (fp_text reference R4 (at 0 0 180) (layer B.SilkS)
      (effects (font (size 0.762 0.762) (thickness 0.127)) (justify mirror))
    )
    (fp_text value 100k (at 0 0 180) (layer B.SilkS) hide
      (effects (font (size 0.762 0.762) (thickness 0.127)) (justify mirror))
    )
    (fp_line (start -2.54 1.143) (end -2.54 -1.143) (layer B.SilkS) (width 0.127))
    (fp_line (start -2.54 -1.143) (end -0.889 -1.143) (layer B.SilkS) (width 0.127))
    (fp_line (start 0.889 1.143) (end 2.54 1.143) (layer B.SilkS) (width 0.127))
    (fp_line (start 2.54 1.143) (end 2.54 -1.143) (layer B.SilkS) (width 0.127))
    (fp_line (start 2.54 -1.143) (end 0.889 -1.143) (layer B.SilkS) (width 0.127))
    (fp_line (start -0.889 1.143) (end -2.54 1.143) (layer B.SilkS) (width 0.127))
    (pad 1 smd rect (at -1.651 0 180) (size 1.524 2.032)
      (layers B.Cu B.Paste B.Mask)
      (net 7 N-000007)
    )
    (pad 2 smd rect (at 1.651 0 180) (size 1.524 2.032)
      (layers B.Cu B.Paste B.Mask)
      (net 8 N-000008)
    )
    (model smd/chip_cms.wrl
      (at (xyz 0 0 0))
      (scale (xyz 0.17 0.16 0.16))
      (rotate (xyz 0 0 0))
    )
  )

  (module mbm_conn3 (layer B.Cu) (tedit 55D6C180) (tstamp 55F4DBB8)
    (at 259.08 96.266 180)
    (path /55F2DA67)
    (fp_text reference RV1 (at 1.27 -2.54 180) (layer B.SilkS)
      (effects (font (size 1 1) (thickness 0.15)) (justify mirror))
    )
    (fp_text value "POT 100k" (at 1.27 -3.81 180) (layer B.SilkS)
      (effects (font (size 1 1) (thickness 0.15)) (justify mirror))
    )
    (pad 1 thru_hole rect (at 0 0 180) (size 1.5 2.54) (drill 0.6)
      (layers *.Cu *.Mask B.SilkS)
      (net 8 N-000008)
    )
    (pad 2 thru_hole rect (at 2.54 0 180) (size 1.5 2.54) (drill 0.6)
      (layers *.Cu *.Mask B.SilkS)
      (net 5 N-000005)
    )
    (pad 3 thru_hole rect (at 5.08 0 180) (size 1.5 2.54) (drill 0.6)
      (layers *.Cu *.Mask B.SilkS)
      (net 5 N-000005)
    )
  )

  (module mbm_conn2 (layer B.Cu) (tedit 55D6C188) (tstamp 55F4DBBE)
    (at 266.192 105.41 90)
    (path /55F2D985)
    (fp_text reference P1 (at 1.27 -2.54 90) (layer B.SilkS)
      (effects (font (size 1 1) (thickness 0.15)) (justify mirror))
    )
    (fp_text value CONN_2 (at 1.27 -3.81 90) (layer B.SilkS)
      (effects (font (size 1 1) (thickness 0.15)) (justify mirror))
    )
    (pad 1 thru_hole rect (at 0 0 90) (size 1.5 2.54) (drill 0.6)
      (layers *.Cu *.Mask B.SilkS)
      (net 4 N-000004)
    )
    (pad 2 thru_hole rect (at 2.54 0 90) (size 1.5 2.54) (drill 0.6)
      (layers *.Cu *.Mask B.SilkS)
      (net 2 GND)
    )
  )

  (module mbm_conn2 (layer B.Cu) (tedit 55D6C188) (tstamp 55F4DBC4)
    (at 249.936 98.298 90)
    (path /55F2DBE6)
    (fp_text reference P2 (at 1.27 -2.54 90) (layer B.SilkS)
      (effects (font (size 1 1) (thickness 0.15)) (justify mirror))
    )
    (fp_text value CONN_2 (at 1.27 -3.81 90) (layer B.SilkS)
      (effects (font (size 1 1) (thickness 0.15)) (justify mirror))
    )
    (pad 1 thru_hole rect (at 0 0 90) (size 1.5 2.54) (drill 0.6)
      (layers *.Cu *.Mask B.SilkS)
      (net 5 N-000005)
    )
    (pad 2 thru_hole rect (at 2.54 0 90) (size 1.5 2.54) (drill 0.6)
      (layers *.Cu *.Mask B.SilkS)
      (net 2 GND)
    )
  )

  (module mbm_conn2 (layer B.Cu) (tedit 55D6C188) (tstamp 55F4DBCA)
    (at 249.936 105.156 90)
    (path /55F2DC27)
    (fp_text reference P3 (at 1.27 -2.54 90) (layer B.SilkS)
      (effects (font (size 1 1) (thickness 0.15)) (justify mirror))
    )
    (fp_text value CONN_2 (at 1.27 -3.81 90) (layer B.SilkS)
      (effects (font (size 1 1) (thickness 0.15)) (justify mirror))
    )
    (pad 1 thru_hole rect (at 0 0 90) (size 1.5 2.54) (drill 0.6)
      (layers *.Cu *.Mask B.SilkS)
      (net 1 +5V)
    )
    (pad 2 thru_hole rect (at 2.54 0 90) (size 1.5 2.54) (drill 0.6)
      (layers *.Cu *.Mask B.SilkS)
      (net 2 GND)
    )
  )

  (segment (start 255.651 105.283) (end 255.143 105.283) (width 0.508) (layer B.Cu) (net 1))
  (segment (start 250.698 105.918) (end 249.936 105.156) (width 0.508) (layer B.Cu) (net 1) (tstamp 55F4DD6E))
  (segment (start 254.508 105.918) (end 250.698 105.918) (width 0.508) (layer B.Cu) (net 1) (tstamp 55F4DD6D))
  (segment (start 255.143 105.283) (end 254.508 105.918) (width 0.508) (layer B.Cu) (net 1) (tstamp 55F4DD69))
  (segment (start 247.65 101.346) (end 247.65 106.68) (width 0.508) (layer B.Cu) (net 2))
  (segment (start 267.97 93.98) (end 265.43 93.98) (width 0.508) (layer B.Cu) (net 2) (tstamp 55F4DEA2))
  (segment (start 268.478 94.488) (end 267.97 93.98) (width 0.508) (layer B.Cu) (net 2) (tstamp 55F4DEA1))
  (segment (start 268.478 106.68) (end 268.478 94.488) (width 0.508) (layer B.Cu) (net 2) (tstamp 55F4DE9D))
  (segment (start 267.97 107.188) (end 268.478 106.68) (width 0.508) (layer B.Cu) (net 2) (tstamp 55F4DE9A))
  (segment (start 248.158 107.188) (end 267.97 107.188) (width 0.508) (layer B.Cu) (net 2) (tstamp 55F4DE93))
  (segment (start 247.65 106.68) (end 248.158 107.188) (width 0.508) (layer B.Cu) (net 2) (tstamp 55F4DE8F))
  (segment (start 250.444 93.98) (end 247.65 93.98) (width 0.508) (layer B.Cu) (net 2))
  (segment (start 249.936 95.758) (end 247.65 95.758) (width 0.508) (layer B.Cu) (net 2))
  (segment (start 248.92 102.616) (end 249.936 102.616) (width 0.508) (layer B.Cu) (net 2) (tstamp 55F4DE73))
  (segment (start 247.65 101.346) (end 248.92 102.616) (width 0.508) (layer B.Cu) (net 2) (tstamp 55F4DE70))
  (segment (start 247.65 95.758) (end 247.65 101.346) (width 0.508) (layer B.Cu) (net 2) (tstamp 55F4DE6F))
  (segment (start 264.414 98.552) (end 264.414 94.234) (width 0.508) (layer B.Cu) (net 2))
  (segment (start 249.936 94.488) (end 249.936 95.758) (width 0.508) (layer B.Cu) (net 2) (tstamp 55F4DE69))
  (segment (start 250.444 93.98) (end 249.936 94.488) (width 0.508) (layer B.Cu) (net 2) (tstamp 55F4DE68))
  (segment (start 264.16 93.98) (end 250.444 93.98) (width 0.508) (layer B.Cu) (net 2) (tstamp 55F4DE65))
  (segment (start 264.414 94.234) (end 264.16 93.98) (width 0.508) (layer B.Cu) (net 2) (tstamp 55F4DE64))
  (segment (start 249.936 102.616) (end 251.968 102.616) (width 0.508) (layer B.Cu) (net 2) (tstamp 55F4DD72))
  (segment (start 253.238 103.886) (end 253.238 104.267) (width 0.508) (layer B.Cu) (net 2) (tstamp 55F4DD76))
  (segment (start 251.968 102.616) (end 253.238 103.886) (width 0.508) (layer B.Cu) (net 2) (tstamp 55F4DD73))
  (segment (start 259.461 99.949) (end 259.461 99.695) (width 0.508) (layer B.Cu) (net 2))
  (segment (start 264.414 101.092) (end 266.192 102.87) (width 0.508) (layer B.Cu) (net 2) (tstamp 55F4DD34))
  (segment (start 264.414 98.298) (end 264.414 98.552) (width 0.508) (layer B.Cu) (net 2) (tstamp 55F4DD32))
  (segment (start 264.414 98.552) (end 264.414 101.092) (width 0.508) (layer B.Cu) (net 2) (tstamp 55F4DE62))
  (segment (start 263.906 97.79) (end 264.414 98.298) (width 0.508) (layer B.Cu) (net 2) (tstamp 55F4DD31))
  (segment (start 261.366 97.79) (end 263.906 97.79) (width 0.508) (layer B.Cu) (net 2) (tstamp 55F4DD2F))
  (segment (start 259.461 99.695) (end 261.366 97.79) (width 0.508) (layer B.Cu) (net 2) (tstamp 55F4DD2D))
  (segment (start 262.636 105.6005) (end 262.0645 105.6005) (width 0.508) (layer B.Cu) (net 3))
  (segment (start 256.921 102.743) (end 256.921 101.473) (width 0.508) (layer B.Cu) (net 3) (tstamp 55F4DCF5))
  (segment (start 257.81 103.632) (end 256.921 102.743) (width 0.508) (layer B.Cu) (net 3) (tstamp 55F4DCF3))
  (segment (start 260.096 103.632) (end 257.81 103.632) (width 0.508) (layer B.Cu) (net 3) (tstamp 55F4DCEE))
  (segment (start 262.0645 105.6005) (end 260.096 103.632) (width 0.508) (layer B.Cu) (net 3) (tstamp 55F4DCEB))
  (segment (start 256.921 99.949) (end 256.921 101.473) (width 0.508) (layer B.Cu) (net 3))
  (segment (start 254.127 101.854) (end 253.238 100.965) (width 0.508) (layer B.Cu) (net 3) (tstamp 55F4DC4A))
  (segment (start 256.54 101.854) (end 254.127 101.854) (width 0.508) (layer B.Cu) (net 3) (tstamp 55F4DC49))
  (segment (start 256.921 101.473) (end 256.54 101.854) (width 0.508) (layer B.Cu) (net 3) (tstamp 55F4DC48))
  (segment (start 258.191 99.949) (end 258.191 101.473) (width 0.508) (layer B.Cu) (net 4))
  (segment (start 265.684 105.41) (end 266.192 105.41) (width 0.508) (layer B.Cu) (net 4) (tstamp 55F4DD26))
  (segment (start 264.16 103.886) (end 265.684 105.41) (width 0.508) (layer B.Cu) (net 4) (tstamp 55F4DD24))
  (segment (start 261.62 103.886) (end 264.16 103.886) (width 0.508) (layer B.Cu) (net 4) (tstamp 55F4DD22))
  (segment (start 260.35 102.616) (end 261.62 103.886) (width 0.508) (layer B.Cu) (net 4) (tstamp 55F4DD1F))
  (segment (start 259.334 102.616) (end 260.35 102.616) (width 0.508) (layer B.Cu) (net 4) (tstamp 55F4DD1E))
  (segment (start 258.191 101.473) (end 259.334 102.616) (width 0.508) (layer B.Cu) (net 4) (tstamp 55F4DD18))
  (segment (start 249.936 98.298) (end 254 98.298) (width 0.508) (layer B.Cu) (net 5))
  (segment (start 256.54 96.266) (end 254 96.266) (width 0.508) (layer B.Cu) (net 5))
  (segment (start 254 96.266) (end 254 98.298) (width 0.508) (layer B.Cu) (net 5))
  (segment (start 254 98.298) (end 255.651 99.949) (width 0.508) (layer B.Cu) (net 5) (tstamp 55F4DC6F))
  (segment (start 262.636 102.2985) (end 262.636 99.695) (width 0.508) (layer B.Cu) (net 6))
  (segment (start 262.636 99.695) (end 262.763 99.568) (width 0.508) (layer B.Cu) (net 6) (tstamp 55F4DCF8))
  (segment (start 266.065 96.012) (end 266.065 99.568) (width 0.508) (layer B.Cu) (net 7))
  (segment (start 262.763 96.012) (end 259.334 96.012) (width 0.508) (layer B.Cu) (net 8))
  (segment (start 259.334 96.012) (end 259.08 96.266) (width 0.508) (layer B.Cu) (net 8) (tstamp 55F4DC98))

)
