%!PS-Adobe-3.0
%%Creator: PCBNEW
%%CreationDate: Fri Sep 11 21:28:02 2015
%%Title: /home/max/av/!мое/паяние/kicad/паяльная станция teatro/проба усилителя термопары/termopara_usilitel-F_Cu.ps
%%Pages: 1
%%PageOrder: Ascend
%%BoundingBox: 0 0 842 1191
%%DocumentMedia: A3 842 1191 0 () ()
%%Orientation: Landscape
%%EndComments
%%BeginProlog
/line { newpath moveto lineto stroke } bind def
/cir0 { newpath 0 360 arc stroke } bind def
/cir1 { newpath 0 360 arc gsave fill grestore stroke } bind def
/cir2 { newpath 0 360 arc gsave fill grestore stroke } bind def
/arc0 { newpath arc stroke } bind def
/arc1 { newpath 4 index 4 index moveto arc closepath gsave fill
    grestore stroke } bind def
/arc2 { newpath 4 index 4 index moveto arc closepath gsave fill
    grestore stroke } bind def
/poly0 { stroke } bind def
/poly1 { closepath gsave fill grestore stroke } bind def
/poly2 { closepath gsave fill grestore stroke } bind def
/rect0 { rectstroke } bind def
/rect1 { rectfill } bind def
/rect2 { rectfill } bind def
/linemode0 { 0 setlinecap 0 setlinejoin 0 setlinewidth } bind def
/linemode1 { 1 setlinecap 1 setlinejoin } bind def
/dashedline { [200] 100 setdash } bind def
/solidline { [] 0 setdash } bind def
/phantomshow { moveto
    /KicadFont findfont 0.000001 scalefont setfont
    show } bind def
/textshow { gsave
    findfont exch scalefont setfont concat 1 scale 0 0 moveto show
    } bind def
/reencodefont {
  findfont dup length dict begin
  { 1 index /FID ne
    { def }
    { pop pop } ifelse
  } forall
  /Encoding ISOLatin1Encoding def
  currentdict
  end } bind def
/KicadFont /Helvetica reencodefont definefont pop
/KicadFont-Bold /Helvetica-Bold reencodefont definefont pop
/KicadFont-Oblique /Helvetica-Oblique reencodefont definefont pop
/KicadFont-BoldOblique /Helvetica-BoldOblique reencodefont definefont pop
%%EndProlog
%%Page: 1 1
%%BeginPageSetup
gsave
0.0072 0.0072 scale
linemode1
116930 0 translate 90 rotate
59.0551 setlinewidth
%%EndPageSetup
0 0 0 setrgbcolor
0 0 0 setrgbcolor
59.0551 setlinewidth
newpath
140080 55859.5 moveto
140080 56600.5 lineto
140620 56600.5 lineto
140620 55859.5 lineto
140080 55859.5 lineto
poly1
0 0 0 setrgbcolor
newpath
141380 55859.5 moveto
141380 56600.5 lineto
141920 56600.5 lineto
141920 55859.5 lineto
141380 55859.5 lineto
poly1
0 0 0 setrgbcolor
newpath
140180 57359.5 moveto
140180 58100.5 lineto
140720 58100.5 lineto
140720 57359.5 lineto
140180 57359.5 lineto
poly1
0 0 0 setrgbcolor
newpath
141480 57359.5 moveto
141480 58100.5 lineto
142020 58100.5 lineto
142020 57359.5 lineto
141480 57359.5 lineto
poly1
0 0 0 setrgbcolor
newpath
139980 58959.5 moveto
139980 59700.5 lineto
140520 59700.5 lineto
140520 58959.5 lineto
139980 58959.5 lineto
poly1
0 0 0 setrgbcolor
newpath
141280 58959.5 moveto
141280 59700.5 lineto
141820 59700.5 lineto
141820 58959.5 lineto
141280 58959.5 lineto
poly1
0 0 0 setrgbcolor
newpath
135480 61759.5 moveto
135480 62500.5 lineto
136020 62500.5 lineto
136020 61759.5 lineto
135480 61759.5 lineto
poly1
0 0 0 setrgbcolor
newpath
136780 61759.5 moveto
136780 62500.5 lineto
137320 62500.5 lineto
137320 61759.5 lineto
136780 61759.5 lineto
poly1
0 0 0 setrgbcolor
newpath
136734 54359.5 moveto
136734 55300.5 lineto
137266 55300.5 lineto
137266 54359.5 lineto
136734 54359.5 lineto
poly1
0 0 0 setrgbcolor
newpath
137734 54359.5 moveto
137734 55300.5 lineto
138266 55300.5 lineto
138266 54359.5 lineto
137734 54359.5 lineto
poly1
0 0 0 setrgbcolor
newpath
138734 54359.5 moveto
138734 55300.5 lineto
139266 55300.5 lineto
139266 54359.5 lineto
138734 54359.5 lineto
poly1
0 0 0 setrgbcolor
newpath
140534 60459.5 moveto
140534 61400.5 lineto
141066 61400.5 lineto
141066 60459.5 lineto
140534 60459.5 lineto
poly1
0 0 0 setrgbcolor
newpath
141534 60459.5 moveto
141534 61400.5 lineto
142066 61400.5 lineto
142066 60459.5 lineto
141534 60459.5 lineto
poly1
0 0 0 setrgbcolor
newpath
138434 61259.5 moveto
138434 62200.5 lineto
138966 62200.5 lineto
138966 61259.5 lineto
138434 61259.5 lineto
poly1
0 0 0 setrgbcolor
newpath
139434 61259.5 moveto
139434 62200.5 lineto
139966 62200.5 lineto
139966 61259.5 lineto
139434 61259.5 lineto
poly1
0 0 0 setrgbcolor
newpath
134134 55759.5 moveto
134134 56700.5 lineto
134666 56700.5 lineto
134666 55759.5 lineto
134134 55759.5 lineto
poly1
0 0 0 setrgbcolor
newpath
135134 55759.5 moveto
135134 56700.5 lineto
135666 56700.5 lineto
135666 55759.5 lineto
135134 55759.5 lineto
poly1
0 0 0 setrgbcolor
newpath
137562 59034 moveto
137562 59526 lineto
137738 59526 lineto
137738 59034 lineto
137562 59034 lineto
poly1
0 0 0 setrgbcolor
newpath
137562 56934 moveto
137562 57426 lineto
137738 57426 lineto
137738 56934 lineto
137562 56934 lineto
poly1
0 0 0 setrgbcolor
newpath
138062 59034 moveto
138062 59526 lineto
138238 59526 lineto
138238 59034 lineto
138062 59034 lineto
poly1
0 0 0 setrgbcolor
newpath
138562 59034 moveto
138562 59526 lineto
138738 59526 lineto
138738 59034 lineto
138562 59034 lineto
poly1
0 0 0 setrgbcolor
newpath
139062 59034 moveto
139062 59526 lineto
139238 59526 lineto
139238 59034 lineto
139062 59034 lineto
poly1
0 0 0 setrgbcolor
newpath
138062 56934 moveto
138062 57426 lineto
138238 57426 lineto
138238 56934 lineto
138062 56934 lineto
poly1
0 0 0 setrgbcolor
newpath
138562 56934 moveto
138562 57426 lineto
138738 57426 lineto
138738 56934 lineto
138562 56934 lineto
poly1
0 0 0 setrgbcolor
newpath
139062 56934 moveto
139062 57426 lineto
139238 57426 lineto
139238 56934 lineto
139062 56934 lineto
poly1
showpage
grestore
%%EOF
