EESchema Schematic File Version 2
LIBS:power
LIBS:device
LIBS:transistors
LIBS:conn
LIBS:linear
LIBS:regul
LIBS:74xx
LIBS:cmos4000
LIBS:adc-dac
LIBS:memory
LIBS:xilinx
LIBS:special
LIBS:microcontrollers
LIBS:dsp
LIBS:microchip
LIBS:analog_switches
LIBS:motorola
LIBS:texas
LIBS:intel
LIBS:audio
LIBS:interface
LIBS:digital-audio
LIBS:philips
LIBS:display
LIBS:cypress
LIBS:siliconi
LIBS:opto
LIBS:atmel
LIBS:contrib
LIBS:valves
EELAYER 27 0
EELAYER END
$Descr A4 11693 8268
encoding utf-8
Sheet 1 1
Title ""
Date "13 sep 2015"
Rev ""
Comp ""
Comment1 ""
Comment2 ""
Comment3 ""
Comment4 ""
$EndDescr
$Comp
L LM358 U1
U 1 1 55F2D820
P 5100 3400
F 0 "U1" H 5050 3600 60  0000 L CNN
F 1 "LM358" H 5050 3150 60  0000 L CNN
F 2 "" H 5100 3400 60  0000 C CNN
F 3 "" H 5100 3400 60  0000 C CNN
	1    5100 3400
	1    0    0    -1  
$EndComp
$Comp
L CONN_2 P1
U 1 1 55F2D985
P 3350 3600
F 0 "P1" V 3300 3600 40  0000 C CNN
F 1 "CONN_2" V 3400 3600 40  0000 C CNN
F 2 "" H 3350 3600 60  0000 C CNN
F 3 "" H 3350 3600 60  0000 C CNN
	1    3350 3600
	-1   0    0    -1  
$EndComp
$Comp
L R R1
U 1 1 55F2D994
P 4250 3500
F 0 "R1" V 4330 3500 40  0000 C CNN
F 1 "1k" V 4257 3501 40  0000 C CNN
F 2 "~" V 4180 3500 30  0000 C CNN
F 3 "~" H 4250 3500 30  0000 C CNN
	1    4250 3500
	0    -1   -1   0   
$EndComp
$Comp
L GND #PWR01
U 1 1 55F2D9C1
P 3700 3900
F 0 "#PWR01" H 3700 3900 30  0001 C CNN
F 1 "GND" H 3700 3830 30  0001 C CNN
F 2 "" H 3700 3900 60  0000 C CNN
F 3 "" H 3700 3900 60  0000 C CNN
	1    3700 3900
	1    0    0    -1  
$EndComp
$Comp
L +5V #PWR02
U 1 1 55F2D9DA
P 5000 2900
F 0 "#PWR02" H 5000 2990 20  0001 C CNN
F 1 "+5V" H 5000 2990 30  0000 C CNN
F 2 "" H 5000 2900 60  0000 C CNN
F 3 "" H 5000 2900 60  0000 C CNN
	1    5000 2900
	1    0    0    -1  
$EndComp
$Comp
L GND #PWR03
U 1 1 55F2DA4B
P 4000 3900
F 0 "#PWR03" H 4000 3900 30  0001 C CNN
F 1 "GND" H 4000 3830 30  0001 C CNN
F 2 "" H 4000 3900 60  0000 C CNN
F 3 "" H 4000 3900 60  0000 C CNN
	1    4000 3900
	1    0    0    -1  
$EndComp
$Comp
L GND #PWR04
U 1 1 55F2DA55
P 5000 3900
F 0 "#PWR04" H 5000 3900 30  0001 C CNN
F 1 "GND" H 5000 3830 30  0001 C CNN
F 2 "" H 5000 3900 60  0000 C CNN
F 3 "" H 5000 3900 60  0000 C CNN
	1    5000 3900
	1    0    0    -1  
$EndComp
Wire Wire Line
	5000 3800 5000 3900
$Comp
L POT RV1
U 1 1 55F2DA67
P 7150 3050
F 0 "RV1" H 7150 2950 50  0000 C CNN
F 1 "POT 100k" H 7150 3050 50  0000 C CNN
F 2 "~" H 7150 3050 60  0000 C CNN
F 3 "~" H 7150 3050 60  0000 C CNN
	1    7150 3050
	1    0    0    -1  
$EndComp
$Comp
L R R2
U 1 1 55F2DA79
P 5350 3050
F 0 "R2" V 5430 3050 40  0000 C CNN
F 1 "100k" V 5357 3051 40  0000 C CNN
F 2 "~" V 5280 3050 30  0000 C CNN
F 3 "~" H 5350 3050 30  0000 C CNN
	1    5350 3050
	0    -1   -1   0   
$EndComp
$Comp
L R R3
U 1 1 55F2DA9B
P 5950 3050
F 0 "R3" V 6030 3050 40  0000 C CNN
F 1 "100k" V 5957 3051 40  0000 C CNN
F 2 "~" V 5880 3050 30  0000 C CNN
F 3 "~" H 5950 3050 30  0000 C CNN
	1    5950 3050
	0    -1   -1   0   
$EndComp
$Comp
L R R4
U 1 1 55F2DAA1
P 6550 3050
F 0 "R4" V 6630 3050 40  0000 C CNN
F 1 "100k" V 6557 3051 40  0000 C CNN
F 2 "~" V 6480 3050 30  0000 C CNN
F 3 "~" H 6550 3050 30  0000 C CNN
	1    6550 3050
	0    -1   -1   0   
$EndComp
Wire Wire Line
	5000 3000 5000 2900
Wire Wire Line
	5600 3050 5700 3050
Wire Wire Line
	6200 3050 6300 3050
Wire Wire Line
	7400 2900 7400 4000
Wire Wire Line
	7400 2900 7150 2900
Wire Wire Line
	6900 3050 6800 3050
Wire Wire Line
	7400 3400 5600 3400
Connection ~ 7400 3050
Wire Wire Line
	4600 3500 4500 3500
Wire Wire Line
	3700 3700 3700 3900
Wire Wire Line
	5100 3050 4550 3050
Wire Wire Line
	4550 3050 4550 3500
Connection ~ 4550 3500
Connection ~ 7400 3400
$Comp
L CONN_2 P2
U 1 1 55F2DBE6
P 6300 4800
F 0 "P2" V 6250 4800 40  0000 C CNN
F 1 "CONN_2" V 6350 4800 40  0000 C CNN
F 2 "" H 6300 4800 60  0000 C CNN
F 3 "" H 6300 4800 60  0000 C CNN
	1    6300 4800
	1    0    0    -1  
$EndComp
$Comp
L GND #PWR07
U 1 1 55F2DC06
P 5950 5200
F 0 "#PWR07" H 5950 5200 30  0001 C CNN
F 1 "GND" H 5950 5130 30  0001 C CNN
F 2 "" H 5950 5200 60  0000 C CNN
F 3 "" H 5950 5200 60  0000 C CNN
	1    5950 5200
	1    0    0    -1  
$EndComp
Wire Wire Line
	5950 4900 5950 5200
$Comp
L CONN_2 P3
U 1 1 55F2DC27
P 7150 4800
F 0 "P3" V 7100 4800 40  0000 C CNN
F 1 "CONN_2" V 7200 4800 40  0000 C CNN
F 2 "" H 7150 4800 60  0000 C CNN
F 3 "" H 7150 4800 60  0000 C CNN
	1    7150 4800
	1    0    0    -1  
$EndComp
$Comp
L GND #PWR08
U 1 1 55F2DC2D
P 6800 5200
F 0 "#PWR08" H 6800 5200 30  0001 C CNN
F 1 "GND" H 6800 5130 30  0001 C CNN
F 2 "" H 6800 5200 60  0000 C CNN
F 3 "" H 6800 5200 60  0000 C CNN
	1    6800 5200
	1    0    0    -1  
$EndComp
Wire Wire Line
	6800 4900 6800 5200
$Comp
L +5V #PWR09
U 1 1 55F2DC4F
P 6800 4200
F 0 "#PWR09" H 6800 4290 20  0001 C CNN
F 1 "+5V" H 6800 4290 30  0000 C CNN
F 2 "" H 6800 4200 60  0000 C CNN
F 3 "" H 6800 4200 60  0000 C CNN
	1    6800 4200
	1    0    0    -1  
$EndComp
Wire Wire Line
	6800 4200 6800 4700
$Comp
L PWR_FLAG #FLG010
U 1 1 55F2DC74
P 6500 4300
F 0 "#FLG010" H 6500 4395 30  0001 C CNN
F 1 "PWR_FLAG" H 6500 4480 30  0000 C CNN
F 2 "" H 6500 4300 60  0000 C CNN
F 3 "" H 6500 4300 60  0000 C CNN
	1    6500 4300
	1    0    0    -1  
$EndComp
Wire Wire Line
	6500 4300 6500 4700
Wire Wire Line
	6500 4700 6800 4700
$Comp
L PWR_FLAG #FLG011
U 1 1 55F2DC9F
P 6550 5000
F 0 "#FLG011" H 6550 5095 30  0001 C CNN
F 1 "PWR_FLAG" H 6550 5180 30  0000 C CNN
F 2 "" H 6550 5000 60  0000 C CNN
F 3 "" H 6550 5000 60  0000 C CNN
	1    6550 5000
	1    0    0    -1  
$EndComp
$Comp
L GND #PWR012
U 1 1 55F2DCA5
P 6550 5200
F 0 "#PWR012" H 6550 5200 30  0001 C CNN
F 1 "GND" H 6550 5130 30  0001 C CNN
F 2 "" H 6550 5200 60  0000 C CNN
F 3 "" H 6550 5200 60  0000 C CNN
	1    6550 5200
	1    0    0    -1  
$EndComp
Wire Wire Line
	6550 5000 6550 5200
Wire Wire Line
	4000 3500 4000 3900
Wire Wire Line
	3700 3500 3700 3300
Wire Wire Line
	3700 3300 4600 3300
Wire Wire Line
	7400 4000 5950 4000
Wire Wire Line
	5950 4000 5950 4700
$EndSCHEMATC
