00000000 W __heap_end
00000000 a __tmp_reg__
00000000 W __vector_default
00000000 T __vectors
00000001 a __zero_reg__
00000026 T __ctors_end
00000026 T __ctors_start
00000026 T __dtors_end
00000026 T __dtors_start
00000026 W __init
00000026 T __trampolines_end
00000026 T __trampolines_start
00000032 T __do_copy_data
0000003d a __SP_L__
0000003e a __SP_H__
0000003f a __SREG__
00000048 T __do_clear_bss
00000050 t .do_clear_bss_loop
00000052 t .do_clear_bss_start
0000005c T __bad_interrupt
0000005c W __vector_1
0000005c W __vector_10
0000005c W __vector_11
0000005c W __vector_12
0000005c W __vector_13
0000005c W __vector_14
0000005c W __vector_15
0000005c W __vector_16
0000005c W __vector_17
0000005c W __vector_18
0000005c W __vector_2
0000005c W __vector_3
0000005c W __vector_4
0000005c W __vector_5
0000005c W __vector_6
0000005c W __vector_7
0000005c W __vector_8
0000005e T init_lib_7seg_4dig_cc
0000007c T lib_7seg_4dig__set_char
00000120 T lib_7seg_4dig__dot_enable
00000124 T lib_7seg_4dig__set_digit
00000176 T __vector_9
0000028c T encoder_scan
00000304 T main
0000031e T _div
0000031e T __divmodhi4
00000334 t __divmodhi4_neg1
0000033c t __divmodhi4_neg2
00000342 t __divmodhi4_exit
00000344 T __udivmodhi4
0000034c t __udivmodhi4_loop
0000035a t __udivmodhi4_ep
0000036c W exit
0000036c T _exit
0000036e t __stop_program
00000370 A __data_load_start
00000370 T _etext
00000374 A __data_load_end
0000045f W __stack
00800060 D __data_start
00800060 D encoder_position
00800062 D lib_7seg_4dig__display
00800064 B __bss_start
00800064 D __data_end
00800064 D _edata
00800064 B old_encoder
00800066 B lib_7seg_4dig__cur_dig_num
00800068 B __bss_end
00800068 N _end
00810000 N __eeprom_end
