EESchema Schematic File Version 2
LIBS:power
LIBS:device
LIBS:transistors
LIBS:conn
LIBS:linear
LIBS:regul
LIBS:74xx
LIBS:cmos4000
LIBS:adc-dac
LIBS:memory
LIBS:xilinx
LIBS:special
LIBS:microcontrollers
LIBS:dsp
LIBS:microchip
LIBS:analog_switches
LIBS:motorola
LIBS:texas
LIBS:intel
LIBS:audio
LIBS:interface
LIBS:digital-audio
LIBS:philips
LIBS:display
LIBS:cypress
LIBS:siliconi
LIBS:opto
LIBS:atmel
LIBS:contrib
LIBS:valves
LIBS:custom_components
EELAYER 27 0
EELAYER END
$Descr A4 11693 8268
encoding utf-8
Sheet 1 1
Title ""
Date "5 jan 2016"
Rev ""
Comp ""
Comment1 ""
Comment2 ""
Comment3 ""
Comment4 ""
$EndDescr
$Comp
L CONN_20 P4
U 1 1 568AA35F
P 10700 3200
F 0 "P4" V 10650 3200 60  0000 C CNN
F 1 "CONN_20" V 10750 3200 60  0000 C CNN
F 2 "" H 10700 3200 60  0000 C CNN
F 3 "" H 10700 3200 60  0000 C CNN
	1    10700 3200
	1    0    0    -1  
$EndComp
$Comp
L ATMEGA8-AI IC2
U 1 1 568AA3F6
P 7150 3700
F 0 "IC2" H 6400 4900 40  0000 L BNN
F 1 "ATMEGA8-AI" H 7650 2150 40  0000 L BNN
F 2 "TQFP32" H 7150 3700 30  0000 C CIN
F 3 "" H 7150 3700 60  0000 C CNN
	1    7150 3700
	1    0    0    -1  
$EndComp
$Comp
L CONN_2 P1
U 1 1 568AA4DB
P 950 1050
F 0 "P1" V 900 1050 40  0000 C CNN
F 1 "CONN_2" V 1000 1050 40  0000 C CNN
F 2 "" H 950 1050 60  0000 C CNN
F 3 "" H 950 1050 60  0000 C CNN
	1    950  1050
	-1   0    0    -1  
$EndComp
$Comp
L BRIGE BR1
U 1 1 568AA52A
P 2250 1200
F 0 "BR1" H 2150 1050 60  0000 C CNN
F 1 "BRIGE" H 2150 1600 60  0000 C CNN
F 2 "~" H 2250 1200 60  0000 C CNN
F 3 "~" H 2250 1200 60  0000 C CNN
	1    2250 1200
	1    0    0    -1  
$EndComp
$Comp
L LM7805 U3
U 1 1 568AA595
P 3600 1000
F 0 "U3" H 3750 804 60  0000 C CNN
F 1 "LM7805" H 3600 1200 60  0000 C CNN
F 2 "" H 3600 1000 60  0000 C CNN
F 3 "" H 3600 1000 60  0000 C CNN
	1    3600 1000
	1    0    0    -1  
$EndComp
Wire Wire Line
	1650 950  1300 950 
Wire Wire Line
	1650 1200 1500 1200
Wire Wire Line
	1500 1200 1500 1150
Wire Wire Line
	1500 1150 1300 1150
$Comp
L VCC #PWR01
U 1 1 568AA6D6
P 4100 800
F 0 "#PWR01" H 4100 900 30  0001 C CNN
F 1 "VCC" H 4100 900 30  0000 C CNN
F 2 "" H 4100 800 60  0000 C CNN
F 3 "" H 4100 800 60  0000 C CNN
	1    4100 800 
	1    0    0    -1  
$EndComp
$Comp
L PWR_FLAG #FLG02
U 1 1 568AA6EE
P 4350 850
F 0 "#FLG02" H 4350 945 30  0001 C CNN
F 1 "PWR_FLAG" H 4350 1030 30  0000 C CNN
F 2 "" H 4350 850 60  0000 C CNN
F 3 "" H 4350 850 60  0000 C CNN
	1    4350 850 
	1    0    0    -1  
$EndComp
$Comp
L GND #PWR03
U 1 1 568AA6FD
P 2800 1400
F 0 "#PWR03" H 2800 1400 30  0001 C CNN
F 1 "GND" H 2800 1330 30  0001 C CNN
F 2 "" H 2800 1400 60  0000 C CNN
F 3 "" H 2800 1400 60  0000 C CNN
	1    2800 1400
	1    0    0    -1  
$EndComp
Wire Wire Line
	4000 950  4350 950 
Wire Wire Line
	4100 950  4100 800 
$Comp
L GND #PWR04
U 1 1 568AA724
P 3600 1400
F 0 "#PWR04" H 3600 1400 30  0001 C CNN
F 1 "GND" H 3600 1330 30  0001 C CNN
F 2 "" H 3600 1400 60  0000 C CNN
F 3 "" H 3600 1400 60  0000 C CNN
	1    3600 1400
	1    0    0    -1  
$EndComp
Wire Wire Line
	2800 1400 2800 1200
Wire Wire Line
	2800 1200 2650 1200
Wire Wire Line
	3600 1250 3600 1400
Wire Wire Line
	4350 950  4350 850 
Connection ~ 4100 950 
$Comp
L PWR_FLAG #FLG05
U 1 1 568AA751
P 4600 850
F 0 "#FLG05" H 4600 945 30  0001 C CNN
F 1 "PWR_FLAG" H 4600 1030 30  0000 C CNN
F 2 "" H 4600 850 60  0000 C CNN
F 3 "" H 4600 850 60  0000 C CNN
	1    4600 850 
	1    0    0    -1  
$EndComp
$Comp
L GND #PWR06
U 1 1 568AA757
P 4600 1400
F 0 "#PWR06" H 4600 1400 30  0001 C CNN
F 1 "GND" H 4600 1330 30  0001 C CNN
F 2 "" H 4600 1400 60  0000 C CNN
F 3 "" H 4600 1400 60  0000 C CNN
	1    4600 1400
	1    0    0    -1  
$EndComp
Wire Wire Line
	4600 850  4600 1400
$Comp
L CP1 C1
U 1 1 568AA9E5
P 3050 1150
F 0 "C1" H 3100 1250 50  0000 L CNN
F 1 "CP1" H 3100 1050 50  0000 L CNN
F 2 "~" H 3050 1150 60  0000 C CNN
F 3 "~" H 3050 1150 60  0000 C CNN
	1    3050 1150
	1    0    0    -1  
$EndComp
$Comp
L GND #PWR07
U 1 1 568AAA05
P 3050 1400
F 0 "#PWR07" H 3050 1400 30  0001 C CNN
F 1 "GND" H 3050 1330 30  0001 C CNN
F 2 "" H 3050 1400 60  0000 C CNN
F 3 "" H 3050 1400 60  0000 C CNN
	1    3050 1400
	1    0    0    -1  
$EndComp
Wire Wire Line
	3050 1400 3050 1350
Wire Wire Line
	2650 950  3200 950 
Connection ~ 3050 950 
$Comp
L LM358 U1
U 1 1 568AAB48
P 2700 2500
F 0 "U1" H 2650 2700 60  0000 L CNN
F 1 "LM358" H 2650 2250 60  0000 L CNN
F 2 "" H 2700 2500 60  0000 C CNN
F 3 "" H 2700 2500 60  0000 C CNN
	1    2700 2500
	1    0    0    -1  
$EndComp
$Comp
L CONN_4 P2
U 1 1 568AABE2
P 950 2550
F 0 "P2" V 900 2550 50  0000 C CNN
F 1 "CONN_4" V 1000 2550 50  0000 C CNN
F 2 "" H 950 2550 60  0000 C CNN
F 3 "" H 950 2550 60  0000 C CNN
	1    950  2550
	-1   0    0    1   
$EndComp
$Comp
L R R1
U 1 1 568AABFD
P 1750 2400
F 0 "R1" V 1830 2400 40  0000 C CNN
F 1 "10k" V 1757 2401 40  0000 C CNN
F 2 "~" V 1680 2400 30  0000 C CNN
F 3 "~" H 1750 2400 30  0000 C CNN
	1    1750 2400
	0    -1   -1   0   
$EndComp
$Comp
L R R4
U 1 1 568AAC35
P 2100 2950
F 0 "R4" V 2180 2950 40  0000 C CNN
F 1 "1k" V 2107 2951 40  0000 C CNN
F 2 "~" V 2030 2950 30  0000 C CNN
F 3 "~" H 2100 2950 30  0000 C CNN
	1    2100 2950
	-1   0    0    1   
$EndComp
$Comp
L R R3
U 1 1 568AAC50
P 2100 2050
F 0 "R3" V 2180 2050 40  0000 C CNN
F 1 "100k" V 2107 2051 40  0000 C CNN
F 2 "~" V 2030 2050 30  0000 C CNN
F 3 "~" H 2100 2050 30  0000 C CNN
	1    2100 2050
	-1   0    0    1   
$EndComp
$Comp
L GND #PWR08
U 1 1 568AAC6A
P 2600 3400
F 0 "#PWR08" H 2600 3400 30  0001 C CNN
F 1 "GND" H 2600 3330 30  0001 C CNN
F 2 "" H 2600 3400 60  0000 C CNN
F 3 "" H 2600 3400 60  0000 C CNN
	1    2600 3400
	1    0    0    -1  
$EndComp
$Comp
L VCC #PWR09
U 1 1 568AAC71
P 2600 1700
F 0 "#PWR09" H 2600 1800 30  0001 C CNN
F 1 "VCC" H 2600 1800 30  0000 C CNN
F 2 "" H 2600 1700 60  0000 C CNN
F 3 "" H 2600 1700 60  0000 C CNN
	1    2600 1700
	1    0    0    -1  
$EndComp
Text Label 3600 2500 0    60   ~ 0
ADC
Wire Wire Line
	3600 2500 3200 2500
$Comp
L GND #PWR010
U 1 1 568AACA9
P 2100 3400
F 0 "#PWR010" H 2100 3400 30  0001 C CNN
F 1 "GND" H 2100 3330 30  0001 C CNN
F 2 "" H 2100 3400 60  0000 C CNN
F 3 "" H 2100 3400 60  0000 C CNN
	1    2100 3400
	1    0    0    -1  
$EndComp
$Comp
L GND #PWR011
U 1 1 568AACAF
P 1400 3400
F 0 "#PWR011" H 1400 3400 30  0001 C CNN
F 1 "GND" H 1400 3330 30  0001 C CNN
F 2 "" H 1400 3400 60  0000 C CNN
F 3 "" H 1400 3400 60  0000 C CNN
	1    1400 3400
	1    0    0    -1  
$EndComp
Wire Wire Line
	1300 2500 1400 2500
Wire Wire Line
	1400 2500 1400 3400
Wire Wire Line
	1300 2400 1500 2400
Wire Wire Line
	2000 2400 2200 2400
Wire Wire Line
	2600 2100 2600 1700
Wire Wire Line
	2600 2900 2600 3400
Wire Wire Line
	2100 3200 2100 3400
Wire Wire Line
	2100 2700 2100 2300
Wire Wire Line
	2200 2600 2100 2600
Connection ~ 2100 2600
Wire Wire Line
	2100 1800 3300 1800
Wire Wire Line
	3300 1800 3300 2500
Connection ~ 3300 2500
$Comp
L PC817 IC1
U 1 1 568AAE53
P 2500 5150
F 0 "IC1" H 2290 5340 40  0000 C CNN
F 1 "PC817" H 2650 4960 40  0000 C CNN
F 2 "DIP4" H 2300 4970 30  0000 C CIN
F 3 "~" H 2500 5150 60  0000 C CNN
	1    2500 5150
	1    0    0    -1  
$EndComp
$Comp
L TRIAC U2
U 1 1 568AAF95
P 3500 4850
F 0 "U2" H 3250 5200 70  0000 C CNN
F 1 "TRIAC" H 3200 4600 60  0000 C CNN
F 2 "~" H 3500 4850 60  0000 C CNN
F 3 "~" H 3500 4850 60  0000 C CNN
	1    3500 4850
	1    0    0    -1  
$EndComp
Text Label 1500 1500 0    60   ~ 0
solder_power
Text Label 1500 1650 0    60   ~ 0
solder_ground
Wire Wire Line
	1500 1500 1450 1500
Wire Wire Line
	1450 1500 1450 950 
Connection ~ 1450 950 
Wire Wire Line
	1500 1650 1400 1650
Wire Wire Line
	1400 1650 1400 1150
Connection ~ 1400 1150
$Comp
L R R2
U 1 1 568AB0F6
P 1800 5050
F 0 "R2" V 1880 5050 40  0000 C CNN
F 1 "150" V 1807 5051 40  0000 C CNN
F 2 "~" V 1730 5050 30  0000 C CNN
F 3 "~" H 1800 5050 30  0000 C CNN
	1    1800 5050
	0    -1   -1   0   
$EndComp
Text Label 1400 5050 2    60   ~ 0
solder_heat
$Comp
L GND #PWR012
U 1 1 568AB179
P 2000 5400
F 0 "#PWR012" H 2000 5400 30  0001 C CNN
F 1 "GND" H 2000 5330 30  0001 C CNN
F 2 "" H 2000 5400 60  0000 C CNN
F 3 "" H 2000 5400 60  0000 C CNN
	1    2000 5400
	1    0    0    -1  
$EndComp
Wire Wire Line
	2150 5250 2000 5250
Wire Wire Line
	2000 5250 2000 5400
Wire Wire Line
	2150 5050 2050 5050
Wire Wire Line
	1550 5050 1400 5050
Wire Wire Line
	3000 5050 2850 5050
Text Label 1450 2050 2    60   ~ 0
solder_power
Text Label 3700 5250 0    60   ~ 0
solder_ground
Wire Wire Line
	3700 5250 2850 5250
Wire Wire Line
	3500 5100 3500 5250
Connection ~ 3500 5250
Wire Wire Line
	1300 2600 1650 2600
Wire Wire Line
	1650 2600 1650 2050
Wire Wire Line
	1650 2050 1450 2050
Wire Wire Line
	1300 2700 1650 2700
Wire Wire Line
	1650 2700 1650 3900
Wire Wire Line
	1650 3900 3500 3900
Wire Wire Line
	3500 3900 3500 4450
$Comp
L R R5
U 1 1 568ABEB8
P 6150 2350
F 0 "R5" V 6230 2350 40  0000 C CNN
F 1 "10k" V 6157 2351 40  0000 C CNN
F 2 "~" V 6080 2350 30  0000 C CNN
F 3 "~" H 6150 2350 30  0000 C CNN
	1    6150 2350
	-1   0    0    1   
$EndComp
$Comp
L VCC #PWR013
U 1 1 568B3F49
P 6150 1950
F 0 "#PWR013" H 6150 2050 30  0001 C CNN
F 1 "VCC" H 6150 2050 30  0000 C CNN
F 2 "" H 6150 1950 60  0000 C CNN
F 3 "" H 6150 1950 60  0000 C CNN
	1    6150 1950
	1    0    0    -1  
$EndComp
$Comp
L VCC #PWR014
U 1 1 568B3F4F
P 7100 1950
F 0 "#PWR014" H 7100 2050 30  0001 C CNN
F 1 "VCC" H 7100 2050 30  0000 C CNN
F 2 "" H 7100 1950 60  0000 C CNN
F 3 "" H 7100 1950 60  0000 C CNN
	1    7100 1950
	1    0    0    -1  
$EndComp
$Comp
L VCC #PWR015
U 1 1 568B3F55
P 7200 1950
F 0 "#PWR015" H 7200 2050 30  0001 C CNN
F 1 "VCC" H 7200 2050 30  0000 C CNN
F 2 "" H 7200 1950 60  0000 C CNN
F 3 "" H 7200 1950 60  0000 C CNN
	1    7200 1950
	1    0    0    -1  
$EndComp
Wire Wire Line
	7200 1950 7200 2400
Wire Wire Line
	7100 1950 7100 2400
Wire Wire Line
	6150 1950 6150 2100
Wire Wire Line
	6150 2600 6150 2700
Wire Wire Line
	6000 2700 6250 2700
$Comp
L CONN_6 P3
U 1 1 568B402F
P 4250 3250
F 0 "P3" V 4200 3250 60  0000 C CNN
F 1 "CONN_6" V 4300 3250 60  0000 C CNN
F 2 "" H 4250 3250 60  0000 C CNN
F 3 "" H 4250 3250 60  0000 C CNN
	1    4250 3250
	-1   0    0    -1  
$EndComp
$Comp
L GND #PWR016
U 1 1 568B403C
P 4700 3600
F 0 "#PWR016" H 4700 3600 30  0001 C CNN
F 1 "GND" H 4700 3530 30  0001 C CNN
F 2 "" H 4700 3600 60  0000 C CNN
F 3 "" H 4700 3600 60  0000 C CNN
	1    4700 3600
	1    0    0    -1  
$EndComp
$Comp
L VCC #PWR017
U 1 1 568B4042
P 4800 2850
F 0 "#PWR017" H 4800 2950 30  0001 C CNN
F 1 "VCC" H 4800 2950 30  0000 C CNN
F 2 "" H 4800 2850 60  0000 C CNN
F 3 "" H 4800 2850 60  0000 C CNN
	1    4800 2850
	1    0    0    -1  
$EndComp
Wire Wire Line
	4800 2850 4800 3100
Wire Wire Line
	4800 3100 4600 3100
Wire Wire Line
	4700 3600 4700 3000
Wire Wire Line
	4700 3000 4600 3000
Text Label 4850 3200 0    60   ~ 0
RST
Text Label 4850 3300 0    60   ~ 0
SCK
Text Label 4850 3400 0    60   ~ 0
MISO
Text Label 4850 3500 0    60   ~ 0
MOSI
Wire Wire Line
	4850 3200 4600 3200
Wire Wire Line
	4850 3300 4600 3300
Wire Wire Line
	4600 3400 4850 3400
Wire Wire Line
	4850 3500 4600 3500
Text Label 6000 2700 2    60   ~ 0
RST
Connection ~ 6150 2700
$Comp
L GND #PWR018
U 1 1 568B41F3
P 6100 3250
F 0 "#PWR018" H 6100 3250 30  0001 C CNN
F 1 "GND" H 6100 3180 30  0001 C CNN
F 2 "" H 6100 3250 60  0000 C CNN
F 3 "" H 6100 3250 60  0000 C CNN
	1    6100 3250
	1    0    0    -1  
$EndComp
Wire Wire Line
	6250 3100 6100 3100
Wire Wire Line
	6100 3100 6100 3250
$Comp
L VCC #PWR019
U 1 1 568B423A
P 5650 1950
F 0 "#PWR019" H 5650 2050 30  0001 C CNN
F 1 "VCC" H 5650 2050 30  0000 C CNN
F 2 "" H 5650 1950 60  0000 C CNN
F 3 "" H 5650 1950 60  0000 C CNN
	1    5650 1950
	1    0    0    -1  
$EndComp
Wire Wire Line
	5650 1950 5650 3000
Wire Wire Line
	5650 2900 6250 2900
Wire Wire Line
	5650 3000 6250 3000
Connection ~ 5650 2900
Text Label 8300 3200 0    60   ~ 0
SCK
Wire Wire Line
	8300 3200 8150 3200
Text Label 8300 3100 0    60   ~ 0
MISO
Wire Wire Line
	8300 3100 8150 3100
Text Label 8300 3000 0    60   ~ 0
MOSI
Wire Wire Line
	8300 3000 8150 3000
$Comp
L GND #PWR020
U 1 1 568B44B5
P 7100 5500
F 0 "#PWR020" H 7100 5500 30  0001 C CNN
F 1 "GND" H 7100 5430 30  0001 C CNN
F 2 "" H 7100 5500 60  0000 C CNN
F 3 "" H 7100 5500 60  0000 C CNN
	1    7100 5500
	1    0    0    -1  
$EndComp
$Comp
L GND #PWR021
U 1 1 568B44BB
P 7200 5500
F 0 "#PWR021" H 7200 5500 30  0001 C CNN
F 1 "GND" H 7200 5430 30  0001 C CNN
F 2 "" H 7200 5500 60  0000 C CNN
F 3 "" H 7200 5500 60  0000 C CNN
	1    7200 5500
	1    0    0    -1  
$EndComp
Wire Wire Line
	7100 5300 7100 5500
Wire Wire Line
	7200 5300 7200 5500
Text Label 8300 2700 0    60   ~ 0
solder_heat
Wire Wire Line
	5950 3400 6250 3400
Text Label 8300 4000 0    60   ~ 0
ADC
Wire Wire Line
	8300 4000 8150 4000
$Comp
L VCC #PWR022
U 1 1 568B4703
P 10250 2100
F 0 "#PWR022" H 10250 2200 30  0001 C CNN
F 1 "VCC" H 10250 2200 30  0000 C CNN
F 2 "" H 10250 2100 60  0000 C CNN
F 3 "" H 10250 2100 60  0000 C CNN
	1    10250 2100
	1    0    0    -1  
$EndComp
Wire Wire Line
	10350 2250 10250 2250
Wire Wire Line
	10250 2250 10250 2100
$Comp
L GND #PWR023
U 1 1 568B4757
P 10250 4300
F 0 "#PWR023" H 10250 4300 30  0001 C CNN
F 1 "GND" H 10250 4230 30  0001 C CNN
F 2 "" H 10250 4300 60  0000 C CNN
F 3 "" H 10250 4300 60  0000 C CNN
	1    10250 4300
	1    0    0    -1  
$EndComp
Wire Wire Line
	10250 4300 10250 2350
Wire Wire Line
	10250 2350 10350 2350
Text Label 10150 2450 2    60   ~ 0
valcoder1
Text Label 10150 2550 2    60   ~ 0
valcoder2
Text Label 10150 2650 2    60   ~ 0
valcoder3
Text Label 10150 2950 2    60   ~ 0
spk
Text Label 10150 3050 2    60   ~ 0
digit2
Text Label 10150 3150 2    60   ~ 0
digit1
Text Label 10150 3250 2    60   ~ 0
segA
Text Label 10150 3350 2    60   ~ 0
segF
Text Label 10150 3450 2    60   ~ 0
segB
Text Label 10150 3550 2    60   ~ 0
digit3
Text Label 10150 3650 2    60   ~ 0
digit4
Text Label 10150 3750 2    60   ~ 0
segG
Text Label 10150 3850 2    60   ~ 0
segDP
Text Label 10150 3950 2    60   ~ 0
segC
Text Label 10150 4050 2    60   ~ 0
segD
Text Label 10150 4150 2    60   ~ 0
segE
Wire Wire Line
	10350 2450 10150 2450
Wire Wire Line
	10350 2550 10150 2550
Wire Wire Line
	10350 2650 10150 2650
Wire Wire Line
	10350 2950 10150 2950
Wire Wire Line
	10350 3050 10150 3050
Wire Wire Line
	10350 3150 10150 3150
Wire Wire Line
	10350 3250 10150 3250
Wire Wire Line
	10350 3350 10150 3350
Wire Wire Line
	10350 3450 10150 3450
Wire Wire Line
	10350 3550 10150 3550
Wire Wire Line
	10350 3650 10150 3650
Wire Wire Line
	10350 3750 10150 3750
Wire Wire Line
	10350 3850 10150 3850
Wire Wire Line
	10350 3950 10150 3950
Wire Wire Line
	10350 4050 10150 4050
Wire Wire Line
	10350 4150 10150 4150
NoConn ~ 10350 2750
NoConn ~ 10350 2850
Text Label 8300 3400 0    60   ~ 0
valcoder1
Text Label 8300 3500 0    60   ~ 0
valcoder2
Text Label 8300 3600 0    60   ~ 0
valcoder3
Text Label 8300 3700 0    60   ~ 0
spk
Text Label 8300 3800 0    60   ~ 0
digit2
Text Label 8300 3900 0    60   ~ 0
digit1
Text Label 8300 4300 0    60   ~ 0
segA
Text Label 8300 4400 0    60   ~ 0
segF
Text Label 8300 4500 0    60   ~ 0
segB
Text Label 8300 4600 0    60   ~ 0
digit3
Text Label 8300 4700 0    60   ~ 0
digit4
Text Label 5950 3400 2    60   ~ 0
segG
Text Label 5900 3600 2    60   ~ 0
segDP
Text Label 8300 4800 0    60   ~ 0
segC
Text Label 8300 4900 0    60   ~ 0
segD
Text Label 8300 5000 0    60   ~ 0
segE
Wire Wire Line
	8300 2900 8150 2900
Wire Wire Line
	8300 3400 8150 3400
Wire Wire Line
	8300 3500 8150 3500
Wire Wire Line
	8300 3600 8150 3600
Wire Wire Line
	8300 3700 8150 3700
Wire Wire Line
	8300 3800 8150 3800
Wire Wire Line
	8300 3900 8150 3900
Wire Wire Line
	8300 4300 8150 4300
Wire Wire Line
	8300 4400 8150 4400
Wire Wire Line
	8300 4500 8150 4500
Wire Wire Line
	8300 4600 8150 4600
Wire Wire Line
	8300 4700 8150 4700
Wire Wire Line
	8300 4800 8150 4800
NoConn ~ 8150 4100
Wire Wire Line
	5900 3600 6250 3600
$Comp
L CONN_1 P5
U 1 1 568B5E37
P 9550 4950
F 0 "P5" H 9630 4950 40  0000 L CNN
F 1 "CONN_1" H 9550 5005 30  0001 C CNN
F 2 "" H 9550 4950 60  0000 C CNN
F 3 "" H 9550 4950 60  0000 C CNN
	1    9550 4950
	1    0    0    -1  
$EndComp
$Comp
L CONN_1 P6
U 1 1 568B5E68
P 9550 5050
F 0 "P6" H 9630 5050 40  0000 L CNN
F 1 "CONN_1" H 9550 5105 30  0001 C CNN
F 2 "" H 9550 5050 60  0000 C CNN
F 3 "" H 9550 5050 60  0000 C CNN
	1    9550 5050
	1    0    0    -1  
$EndComp
$Comp
L CONN_1 P7
U 1 1 568B5E74
P 10000 4950
F 0 "P7" H 10080 4950 40  0000 L CNN
F 1 "CONN_1" H 10000 5005 30  0001 C CNN
F 2 "" H 10000 4950 60  0000 C CNN
F 3 "" H 10000 4950 60  0000 C CNN
	1    10000 4950
	1    0    0    -1  
$EndComp
$Comp
L CONN_1 P8
U 1 1 568B5E7A
P 10000 5050
F 0 "P8" H 10080 5050 40  0000 L CNN
F 1 "CONN_1" H 10000 5105 30  0001 C CNN
F 2 "" H 10000 5050 60  0000 C CNN
F 3 "" H 10000 5050 60  0000 C CNN
	1    10000 5050
	1    0    0    -1  
$EndComp
$Comp
L GND #PWR024
U 1 1 568B5F71
P 9400 5200
F 0 "#PWR024" H 9400 5200 30  0001 C CNN
F 1 "GND" H 9400 5130 30  0001 C CNN
F 2 "" H 9400 5200 60  0000 C CNN
F 3 "" H 9400 5200 60  0000 C CNN
	1    9400 5200
	1    0    0    -1  
$EndComp
$Comp
L VCC #PWR025
U 1 1 568B5F77
P 9850 4850
F 0 "#PWR025" H 9850 4950 30  0001 C CNN
F 1 "VCC" H 9850 4950 30  0000 C CNN
F 2 "" H 9850 4850 60  0000 C CNN
F 3 "" H 9850 4850 60  0000 C CNN
	1    9850 4850
	1    0    0    -1  
$EndComp
Wire Wire Line
	9400 4950 9400 5200
Connection ~ 9400 5050
Wire Wire Line
	9850 4850 9850 5050
Connection ~ 9850 4950
Wire Wire Line
	8300 4900 8150 4900
Wire Wire Line
	8300 5000 8150 5000
Wire Wire Line
	8150 2700 8300 2700
NoConn ~ 8150 2800
$Comp
L R R6
U 1 1 568B6D1A
P 9450 5650
F 0 "R6" V 9530 5650 40  0000 C CNN
F 1 "0" V 9457 5651 40  0000 C CNN
F 2 "~" V 9380 5650 30  0000 C CNN
F 3 "~" H 9450 5650 30  0000 C CNN
	1    9450 5650
	0    1    1    0   
$EndComp
$Comp
L GND #PWR?
U 1 1 568B6D41
P 9200 5800
F 0 "#PWR?" H 9200 5800 30  0001 C CNN
F 1 "GND" H 9200 5730 30  0001 C CNN
F 2 "" H 9200 5800 60  0000 C CNN
F 3 "" H 9200 5800 60  0000 C CNN
	1    9200 5800
	1    0    0    -1  
$EndComp
$Comp
L GND #PWR?
U 1 1 568B6D47
P 9700 5800
F 0 "#PWR?" H 9700 5800 30  0001 C CNN
F 1 "GND" H 9700 5730 30  0001 C CNN
F 2 "" H 9700 5800 60  0000 C CNN
F 3 "" H 9700 5800 60  0000 C CNN
	1    9700 5800
	1    0    0    -1  
$EndComp
Wire Wire Line
	9700 5650 9700 5800
Wire Wire Line
	9200 5650 9200 5800
$EndSCHEMATC
