(export (version D)
  (design
    (source "/home/max/kicad/soldering_station_teatro/soldering_station_teatro/вторая версия/контроллер.sch")
    (date "Вт 05 янв 2016 14:14:35")
    (tool "eeschema (22-Jun-2014 BZR 4027)-stable"))
  (components
    (comp (ref P4)
      (value CONN_20)
      (libsource (lib conn) (part CONN_20))
      (sheetpath (names /) (tstamps /))
      (tstamp 568AA35F))
    (comp (ref IC2)
      (value ATMEGA8-AI)
      (footprint TQFP32)
      (libsource (lib atmel) (part ATMEGA8-AI))
      (sheetpath (names /) (tstamps /))
      (tstamp 568AA3F6))
    (comp (ref P1)
      (value CONN_2)
      (libsource (lib conn) (part CONN_2))
      (sheetpath (names /) (tstamps /))
      (tstamp 568AA4DB))
    (comp (ref BR1)
      (value BRIGE)
      (libsource (lib custom_components) (part BRIGE))
      (sheetpath (names /) (tstamps /))
      (tstamp 568AA52A))
    (comp (ref U3)
      (value LM7805)
      (libsource (lib regul) (part LM7805))
      (sheetpath (names /) (tstamps /))
      (tstamp 568AA595))
    (comp (ref C1)
      (value CP1)
      (libsource (lib device) (part CP1))
      (sheetpath (names /) (tstamps /))
      (tstamp 568AA9E5))
    (comp (ref U1)
      (value LM358)
      (libsource (lib linear) (part LM358))
      (sheetpath (names /) (tstamps /))
      (tstamp 568AAB48))
    (comp (ref P2)
      (value CONN_4)
      (libsource (lib conn) (part CONN_4))
      (sheetpath (names /) (tstamps /))
      (tstamp 568AABE2))
    (comp (ref R1)
      (value 10k)
      (libsource (lib device) (part R))
      (sheetpath (names /) (tstamps /))
      (tstamp 568AABFD))
    (comp (ref R4)
      (value 1k)
      (libsource (lib device) (part R))
      (sheetpath (names /) (tstamps /))
      (tstamp 568AAC35))
    (comp (ref R3)
      (value 100k)
      (libsource (lib device) (part R))
      (sheetpath (names /) (tstamps /))
      (tstamp 568AAC50))
    (comp (ref IC1)
      (value PC817)
      (footprint DIP4)
      (libsource (lib opto) (part PC817))
      (sheetpath (names /) (tstamps /))
      (tstamp 568AAE53))
    (comp (ref U2)
      (value TRIAC)
      (libsource (lib device) (part TRIAC))
      (sheetpath (names /) (tstamps /))
      (tstamp 568AAF95))
    (comp (ref R2)
      (value 150)
      (libsource (lib device) (part R))
      (sheetpath (names /) (tstamps /))
      (tstamp 568AB0F6))
    (comp (ref R5)
      (value 10k)
      (libsource (lib device) (part R))
      (sheetpath (names /) (tstamps /))
      (tstamp 568ABEB8))
    (comp (ref P3)
      (value CONN_6)
      (libsource (lib conn) (part CONN_6))
      (sheetpath (names /) (tstamps /))
      (tstamp 568B402F))
    (comp (ref P5)
      (value CONN_1)
      (libsource (lib conn) (part CONN_1))
      (sheetpath (names /) (tstamps /))
      (tstamp 568B5E37))
    (comp (ref P6)
      (value CONN_1)
      (libsource (lib conn) (part CONN_1))
      (sheetpath (names /) (tstamps /))
      (tstamp 568B5E68))
    (comp (ref P7)
      (value CONN_1)
      (libsource (lib conn) (part CONN_1))
      (sheetpath (names /) (tstamps /))
      (tstamp 568B5E74))
    (comp (ref P8)
      (value CONN_1)
      (libsource (lib conn) (part CONN_1))
      (sheetpath (names /) (tstamps /))
      (tstamp 568B5E7A))
    (comp (ref R6)
      (value 0)
      (libsource (lib device) (part R))
      (sheetpath (names /) (tstamps /))
      (tstamp 568B6D1A)))
  (libparts
    (libpart (lib device) (part CP1)
      (description "Condensateur polarise")
      (footprints
        (fp CP*)
        (fp SM*))
      (fields
        (field (name Reference) C)
        (field (name Value) CP1)
        (field (name Footprint) ~)
        (field (name Datasheet) ~))
      (pins
        (pin (num 1) (name ~) (type passive))
        (pin (num 2) (name ~) (type passive))))
    (libpart (lib device) (part R)
      (description Resistance)
      (footprints
        (fp R?)
        (fp SM0603)
        (fp SM0805)
        (fp R?-*)
        (fp SM1206))
      (fields
        (field (name Reference) R)
        (field (name Value) R)
        (field (name Footprint) ~)
        (field (name Datasheet) ~))
      (pins
        (pin (num 1) (name ~) (type passive))
        (pin (num 2) (name ~) (type passive))))
    (libpart (lib device) (part TRIAC)
      (fields
        (field (name Reference) U)
        (field (name Value) TRIAC)
        (field (name Footprint) ~)
        (field (name Datasheet) ~))
      (pins
        (pin (num 1) (name ~) (type passive))
        (pin (num 2) (name ~) (type passive))
        (pin (num 3) (name ~) (type input))))
    (libpart (lib regul) (part 7805)
      (description "Linear Regulator +5V")
      (docs regulator\lm78xx.pdf)
      (fields
        (field (name Reference) U)
        (field (name Value) 7805))
      (pins
        (pin (num GND) (name GND) (type input))
        (pin (num VI) (name VI) (type input))
        (pin (num VO) (name VO) (type power_out))))
    (libpart (lib conn) (part CONN_1)
      (description "1 pin")
      (fields
        (field (name Reference) P)
        (field (name Value) CONN_1))
      (pins
        (pin (num 1) (name 1) (type passive))))
    (libpart (lib conn) (part CONN_2)
      (description "Symbole general de connecteur")
      (fields
        (field (name Reference) P)
        (field (name Value) CONN_2))
      (pins
        (pin (num 1) (name P1) (type passive))
        (pin (num 2) (name PM) (type passive))))
    (libpart (lib conn) (part CONN_20)
      (description "Symbole general de connexion")
      (fields
        (field (name Reference) P)
        (field (name Value) CONN_20))
      (pins
        (pin (num 1) (name P1) (type passive))
        (pin (num 2) (name P2) (type passive))
        (pin (num 3) (name P3) (type passive))
        (pin (num 4) (name P4) (type passive))
        (pin (num 5) (name P5) (type passive))
        (pin (num 6) (name P6) (type passive))
        (pin (num 7) (name P7) (type passive))
        (pin (num 8) (name P8) (type passive))
        (pin (num 9) (name P9) (type passive))
        (pin (num 10) (name P10) (type passive))
        (pin (num 11) (name P11) (type passive))
        (pin (num 12) (name P12) (type passive))
        (pin (num 13) (name P13) (type passive))
        (pin (num 14) (name P14) (type passive))
        (pin (num 15) (name P15) (type passive))
        (pin (num 16) (name P16) (type passive))
        (pin (num 17) (name P17) (type passive))
        (pin (num 18) (name P18) (type passive))
        (pin (num 19) (name P19) (type passive))
        (pin (num 20) (name P20) (type passive))))
    (libpart (lib conn) (part CONN_4)
      (description "Symbole general de connecteur")
      (fields
        (field (name Reference) P)
        (field (name Value) CONN_4))
      (pins
        (pin (num 1) (name P1) (type passive))
        (pin (num 2) (name P2) (type passive))
        (pin (num 3) (name P3) (type passive))
        (pin (num 4) (name P4) (type passive))))
    (libpart (lib conn) (part CONN_6)
      (description "ymbole general de connecteur")
      (fields
        (field (name Reference) P)
        (field (name Value) CONN_6))
      (pins
        (pin (num 1) (name 1) (type passive))
        (pin (num 2) (name 2) (type passive))
        (pin (num 3) (name 3) (type passive))
        (pin (num 4) (name 4) (type passive))
        (pin (num 5) (name 5) (type passive))
        (pin (num 6) (name 6) (type passive))))
    (libpart (lib linear) (part LM358)
      (description "Dual Op amp (low power)")
      (docs ns/lm158.pdf)
      (fields
        (field (name Reference) U)
        (field (name Value) LM358))
      (pins
        (pin (num 1) (name ~) (type output))
        (pin (num 2) (name -) (type input))
        (pin (num 3) (name +) (type input))
        (pin (num 4) (name V-) (type power_in))
        (pin (num 5) (name +) (type input))
        (pin (num 6) (name -) (type input))
        (pin (num 7) (name ~) (type output))
        (pin (num 8) (name V+) (type power_in))))
    (libpart (lib opto) (part PC817)
      (description "PC817, DIP4, DC Optocoupler, Vce 35V, CTR 50-300%")
      (docs http://www.soselectronic.cz/a_info/resource/d/pc817.pdf)
      (fields
        (field (name Reference) IC)
        (field (name Value) PC817)
        (field (name Footprint) DIP4)
        (field (name Datasheet) ~))
      (pins
        (pin (num 1) (name ~) (type passive))
        (pin (num 2) (name ~) (type passive))
        (pin (num 3) (name ~) (type passive))
        (pin (num 4) (name ~) (type passive))))
    (libpart (lib atmel) (part ATMEGA8-AI)
      (description "ATMEGA8, TQFP32, 8k Flash, 1k SRAM, 512B EEPROM")
      (docs http://www.atmel.com/dyn/resources/prod_documents/doc2486.pdf)
      (footprints
        (fp TQFP32))
      (fields
        (field (name Reference) IC)
        (field (name Value) ATMEGA8-AI)
        (field (name Footprint) TQFP32))
      (pins
        (pin (num 1) (name "(INT1)PD3") (type BiDi))
        (pin (num 2) (name "(XCK/T0)PD4") (type BiDi))
        (pin (num 3) (name GND) (type power_in))
        (pin (num 4) (name VCC) (type power_in))
        (pin (num 5) (name GND) (type power_in))
        (pin (num 6) (name VCC) (type power_in))
        (pin (num 7) (name "PB6(XTAL1/TOSC1)") (type BiDi))
        (pin (num 8) (name "PB7(XTAL2/TOSC2)") (type BiDi))
        (pin (num 9) (name "(T1)PD5") (type BiDi))
        (pin (num 10) (name "(AIN0)PD6") (type BiDi))
        (pin (num 11) (name "(AIN1)PD7") (type BiDi))
        (pin (num 12) (name "(ICP)PB0") (type BiDi))
        (pin (num 13) (name "(OC1A)PB1") (type BiDi))
        (pin (num 14) (name "(~SS~/OC1B)PB2") (type BiDi))
        (pin (num 15) (name "(MOSI/OC2)PB3") (type BiDi))
        (pin (num 16) (name "(MISO)PB4") (type BiDi))
        (pin (num 17) (name "(SCK)PB5") (type BiDi))
        (pin (num 18) (name AVCC) (type power_in))
        (pin (num 19) (name ADC6) (type BiDi))
        (pin (num 20) (name AREF) (type BiDi))
        (pin (num 21) (name AGND) (type power_in))
        (pin (num 22) (name ADC7) (type BiDi))
        (pin (num 23) (name "(ADC0)PC0") (type BiDi))
        (pin (num 24) (name "(ADC1)PC1") (type BiDi))
        (pin (num 25) (name "(ADC2)PC2") (type BiDi))
        (pin (num 26) (name "(ADC3)PC3") (type BiDi))
        (pin (num 27) (name "(ADC4/SDA)PC4") (type BiDi))
        (pin (num 28) (name "(ADC5/SCL)PC5") (type BiDi))
        (pin (num 29) (name "PC6(~RESET~)") (type BiDi))
        (pin (num 30) (name "(RXD)PD0") (type BiDi))
        (pin (num 31) (name "(TXD)PD1") (type BiDi))
        (pin (num 32) (name "(INT0)PD2") (type BiDi))))
    (libpart (lib custom_components) (part BRIGE)
      (fields
        (field (name Reference) BR)
        (field (name Value) BRIGE)
        (field (name Footprint) ~)
        (field (name Datasheet) ~))
      (pins
        (pin (num 1) (name ~) (type input))
        (pin (num 2) (name ~) (type input))
        (pin (num 3) (name -) (type input))
        (pin (num 4) (name +) (type input)))))
  (libraries
    (library (logical device)
      (uri /usr/share/kicad/library/device.lib))
    (library (logical conn)
      (uri /usr/share/kicad/library/conn.lib))
    (library (logical linear)
      (uri /usr/share/kicad/library/linear.lib))
    (library (logical regul)
      (uri /usr/share/kicad/library/regul.lib))
    (library (logical opto)
      (uri /usr/share/kicad/library/opto.lib))
    (library (logical atmel)
      (uri /usr/share/kicad/library/atmel.lib))
    (library (logical custom_components)
      (uri custom_components.lib)))
  (nets
    (net (code 1) (name /SCK)
      (node (ref P3) (pin 4))
      (node (ref IC2) (pin 17)))
    (net (code 2) (name GND)
      (node (ref U1) (pin 4))
      (node (ref R4) (pin 1))
      (node (ref P2) (pin 3))
      (node (ref R6) (pin 1))
      (node (ref R6) (pin 2))
      (node (ref IC2) (pin 3))
      (node (ref IC1) (pin 2))
      (node (ref P5) (pin 1))
      (node (ref P6) (pin 1))
      (node (ref C1) (pin 2))
      (node (ref BR1) (pin 3))
      (node (ref U3) (pin GND))
      (node (ref P4) (pin 2))
      (node (ref IC2) (pin 21))
      (node (ref IC2) (pin 5))
      (node (ref P3) (pin 1)))
    (net (code 3) (name /MOSI)
      (node (ref P3) (pin 6))
      (node (ref IC2) (pin 15)))
    (net (code 4) (name /MISO)
      (node (ref P3) (pin 5))
      (node (ref IC2) (pin 16)))
    (net (code 5) (name /solder_heat)
      (node (ref R2) (pin 1))
      (node (ref IC2) (pin 12)))
    (net (code 6) (name VCC)
      (node (ref IC2) (pin 18))
      (node (ref IC2) (pin 4))
      (node (ref P4) (pin 1))
      (node (ref IC2) (pin 6))
      (node (ref U3) (pin VO))
      (node (ref IC2) (pin 20))
      (node (ref R5) (pin 2))
      (node (ref P8) (pin 1))
      (node (ref P7) (pin 1))
      (node (ref U1) (pin 8))
      (node (ref P3) (pin 2)))
    (net (code 7) (name /segF)
      (node (ref IC2) (pin 31))
      (node (ref P4) (pin 12)))
    (net (code 8) (name /segA)
      (node (ref P4) (pin 11))
      (node (ref IC2) (pin 30)))
    (net (code 9) (name /digit1)
      (node (ref IC2) (pin 28))
      (node (ref P4) (pin 10)))
    (net (code 10) (name /digit2)
      (node (ref IC2) (pin 27))
      (node (ref P4) (pin 9)))
    (net (code 11) (name /spk)
      (node (ref IC2) (pin 26))
      (node (ref P4) (pin 8)))
    (net (code 12) (name /valcoder3)
      (node (ref IC2) (pin 25))
      (node (ref P4) (pin 5)))
    (net (code 13) (name /valcoder2)
      (node (ref P4) (pin 4))
      (node (ref IC2) (pin 24)))
    (net (code 14) (name /valcoder1)
      (node (ref IC2) (pin 23))
      (node (ref P4) (pin 3)))
    (net (code 15) (name /ADC)
      (node (ref R3) (pin 2))
      (node (ref U1) (pin 1))
      (node (ref IC2) (pin 19)))
    (net (code 16) (name /RST)
      (node (ref R5) (pin 1))
      (node (ref IC2) (pin 29))
      (node (ref P3) (pin 3)))
    (net (code 17) (name "")
      (node (ref P2) (pin 1))
      (node (ref U2) (pin 2)))
    (net (code 18) (name /segB)
      (node (ref P4) (pin 13))
      (node (ref IC2) (pin 32)))
    (net (code 19) (name "")
      (node (ref IC2) (pin 22)))
    (net (code 20) (name "")
      (node (ref IC2) (pin 14)))
    (net (code 21) (name /segE)
      (node (ref IC2) (pin 11))
      (node (ref P4) (pin 20)))
    (net (code 22) (name "")
      (node (ref IC2) (pin 13)))
    (net (code 23) (name /segD)
      (node (ref P4) (pin 19))
      (node (ref IC2) (pin 10)))
    (net (code 24) (name /segG)
      (node (ref P4) (pin 16))
      (node (ref IC2) (pin 7)))
    (net (code 25) (name /digit4)
      (node (ref IC2) (pin 2))
      (node (ref P4) (pin 15)))
    (net (code 26) (name /digit3)
      (node (ref IC2) (pin 1))
      (node (ref P4) (pin 14)))
    (net (code 27) (name /segDP)
      (node (ref P4) (pin 17))
      (node (ref IC2) (pin 8)))
    (net (code 28) (name /segC)
      (node (ref IC2) (pin 9))
      (node (ref P4) (pin 18)))
    (net (code 29) (name "")
      (node (ref P4) (pin 7)))
    (net (code 30) (name "")
      (node (ref P4) (pin 6)))
    (net (code 31) (name /solder_ground)
      (node (ref IC1) (pin 3))
      (node (ref U2) (pin 1))
      (node (ref P1) (pin 2))
      (node (ref BR1) (pin 2)))
    (net (code 32) (name /solder_power)
      (node (ref P1) (pin 1))
      (node (ref BR1) (pin 1))
      (node (ref P2) (pin 2)))
    (net (code 33) (name "")
      (node (ref IC1) (pin 4))
      (node (ref U2) (pin 3)))
    (net (code 34) (name "")
      (node (ref R2) (pin 2))
      (node (ref IC1) (pin 1)))
    (net (code 35) (name "")
      (node (ref R3) (pin 1))
      (node (ref R4) (pin 2))
      (node (ref U1) (pin 2)))
    (net (code 36) (name "")
      (node (ref R1) (pin 1))
      (node (ref P2) (pin 4)))
    (net (code 37) (name "")
      (node (ref R1) (pin 2))
      (node (ref U1) (pin 3)))
    (net (code 38) (name "")
      (node (ref BR1) (pin 4))
      (node (ref U3) (pin VI))
      (node (ref C1) (pin 1)))))