(kicad_pcb (version 3) (host pcbnew "(22-Jun-2014 BZR 4027)-stable")

  (general
    (links 42)
    (no_connects 0)
    (area 167.603897 110.235999 285.063001 147.641)
    (thickness 1.6)
    (drawings 0)
    (tracks 220)
    (zones 0)
    (modules 22)
    (nets 36)
  )

  (page A3)
  (layers
    (15 F.Cu signal)
    (0 B.Cu signal)
    (16 B.Adhes user)
    (17 F.Adhes user)
    (18 B.Paste user)
    (19 F.Paste user)
    (20 B.SilkS user)
    (21 F.SilkS user)
    (22 B.Mask user)
    (23 F.Mask user)
    (24 Dwgs.User user)
    (25 Cmts.User user)
    (26 Eco1.User user)
    (27 Eco2.User user)
    (28 Edge.Cuts user)
  )

  (setup
    (last_trace_width 0.508)
    (trace_clearance 0.254)
    (zone_clearance 0.508)
    (zone_45_only no)
    (trace_min 0.254)
    (segment_width 0.2)
    (edge_width 0.1)
    (via_size 0.889)
    (via_drill 0.635)
    (via_min_size 0.889)
    (via_min_drill 0.508)
    (uvia_size 0.508)
    (uvia_drill 0.127)
    (uvias_allowed no)
    (uvia_min_size 0.508)
    (uvia_min_drill 0.127)
    (pcb_text_width 0.3)
    (pcb_text_size 1.5 1.5)
    (mod_edge_width 0.15)
    (mod_text_size 1 1)
    (mod_text_width 0.15)
    (pad_size 1.27 5.08)
    (pad_drill 0)
    (pad_to_mask_clearance 0)
    (aux_axis_origin 0 0)
    (visible_elements FFFFFFBF)
    (pcbplotparams
      (layerselection 3178497)
      (usegerberextensions true)
      (excludeedgelayer true)
      (linewidth 0.150000)
      (plotframeref false)
      (viasonmask false)
      (mode 1)
      (useauxorigin false)
      (hpglpennumber 1)
      (hpglpenspeed 20)
      (hpglpendiameter 15)
      (hpglpenoverlay 2)
      (psnegative false)
      (psa4output false)
      (plotreference true)
      (plotvalue true)
      (plotothertext true)
      (plotinvisibletext false)
      (padsonsilk false)
      (subtractmaskfromsilk false)
      (outputformat 1)
      (mirror false)
      (drillshape 1)
      (scaleselection 1)
      (outputdirectory ""))
  )

  (net 0 "")
  (net 1 /digit1)
  (net 2 /digit2)
  (net 3 /digit3)
  (net 4 /digit4)
  (net 5 /segA)
  (net 6 /segB)
  (net 7 /segC)
  (net 8 /segD)
  (net 9 /segDP)
  (net 10 /segE)
  (net 11 /segF)
  (net 12 /segG)
  (net 13 /spk)
  (net 14 /valc1)
  (net 15 /valc2)
  (net 16 /valc3)
  (net 17 GND)
  (net 18 N-000001)
  (net 19 N-0000023)
  (net 20 N-0000024)
  (net 21 N-0000025)
  (net 22 N-0000026)
  (net 23 N-0000027)
  (net 24 N-0000028)
  (net 25 N-0000029)
  (net 26 N-0000030)
  (net 27 N-0000031)
  (net 28 N-0000032)
  (net 29 N-0000033)
  (net 30 N-0000034)
  (net 31 N-0000035)
  (net 32 N-0000036)
  (net 33 N-0000037)
  (net 34 N-0000038)
  (net 35 VCC)

  (net_class Default "Это класс цепей по умолчанию."
    (clearance 0.254)
    (trace_width 0.508)
    (via_dia 0.889)
    (via_drill 0.635)
    (uvia_dia 0.508)
    (uvia_drill 0.127)
    (add_net "")
    (add_net /digit1)
    (add_net /digit2)
    (add_net /digit3)
    (add_net /digit4)
    (add_net /segA)
    (add_net /segB)
    (add_net /segC)
    (add_net /segD)
    (add_net /segDP)
    (add_net /segE)
    (add_net /segF)
    (add_net /segG)
    (add_net /spk)
    (add_net /valc1)
    (add_net /valc2)
    (add_net /valc3)
    (add_net GND)
    (add_net N-000001)
    (add_net N-0000023)
    (add_net N-0000024)
    (add_net N-0000025)
    (add_net N-0000026)
    (add_net N-0000027)
    (add_net N-0000028)
    (add_net N-0000029)
    (add_net N-0000030)
    (add_net N-0000031)
    (add_net N-0000032)
    (add_net N-0000033)
    (add_net N-0000034)
    (add_net N-0000035)
    (add_net N-0000036)
    (add_net N-0000037)
    (add_net N-0000038)
    (add_net VCC)
  )

  (module valcoder_smd (layer F.Cu) (tedit 561F5F5D) (tstamp 568A2679)
    (at 198.12 127.762 90)
    (path /568A1721)
    (fp_text reference VC1 (at 0 5.08 90) (layer F.SilkS)
      (effects (font (size 1 1) (thickness 0.15)))
    )
    (fp_text value VALCODER (at -2.54 -3.81 90) (layer F.SilkS)
      (effects (font (size 1 1) (thickness 0.15)))
    )
    (fp_line (start -5.08 -5.08) (end 5.08 -5.08) (layer F.SilkS) (width 0.15))
    (fp_line (start 5.08 -5.08) (end 5.08 6.35) (layer F.SilkS) (width 0.15))
    (fp_line (start 5.08 6.35) (end -5.08 6.35) (layer F.SilkS) (width 0.15))
    (fp_line (start -5.08 6.35) (end -5.08 -5.08) (layer F.SilkS) (width 0.15))
    (fp_circle (center 0 0) (end 1.27 -1.27) (layer F.SilkS) (width 0.15))
    (pad 1 smd rect (at -2.54 -10.16 90) (size 1.5 7.62)
      (layers F.Cu F.Paste F.Mask)
      (net 14 /valc1)
    )
    (pad 2 smd rect (at 2.54 -10.16 90) (size 1.5 7.62)
      (layers F.Cu F.Paste F.Mask)
      (net 17 GND)
    )
    (pad 3 smd rect (at 2.54 11.43 90) (size 1.5 7.62)
      (layers F.Cu F.Paste F.Mask)
      (net 16 /valc3)
    )
    (pad 4 smd rect (at 0 11.43 90) (size 1.5 7.62)
      (layers F.Cu F.Paste F.Mask)
      (net 17 GND)
    )
    (pad 5 smd rect (at -2.54 11.43 90) (size 1.5 7.62)
      (layers F.Cu F.Paste F.Mask)
      (net 15 /valc2)
    )
    (pad "" np_thru_hole rect (at 8.89 0 90) (size 5.08 5.08) (drill 0.6)
      (layers *.Cu *.Mask F.SilkS)
    )
    (pad "" np_thru_hole rect (at -8.89 0 90) (size 5.08 5.08) (drill 0.6)
      (layers *.Cu *.Mask F.SilkS)
    )
  )

  (module SOT23EBC (layer F.Cu) (tedit 3F980186) (tstamp 568A2684)
    (at 260.096 118.8085 90)
    (descr "Module CMS SOT23 Transistore EBC")
    (tags "CMS SOT")
    (path /568A1738)
    (attr smd)
    (fp_text reference Q1 (at 0 -2.413 90) (layer F.SilkS)
      (effects (font (size 0.762 0.762) (thickness 0.2032)))
    )
    (fp_text value NPN (at 0 0 90) (layer F.SilkS) hide
      (effects (font (size 0.762 0.762) (thickness 0.2032)))
    )
    (fp_line (start -1.524 -0.381) (end 1.524 -0.381) (layer F.SilkS) (width 0.127))
    (fp_line (start 1.524 -0.381) (end 1.524 0.381) (layer F.SilkS) (width 0.127))
    (fp_line (start 1.524 0.381) (end -1.524 0.381) (layer F.SilkS) (width 0.127))
    (fp_line (start -1.524 0.381) (end -1.524 -0.381) (layer F.SilkS) (width 0.127))
    (pad 1 smd rect (at -0.889 -1.016 90) (size 0.9144 0.9144)
      (layers F.Cu F.Paste F.Mask)
      (net 17 GND)
    )
    (pad 2 smd rect (at 0.889 -1.016 90) (size 0.9144 0.9144)
      (layers F.Cu F.Paste F.Mask)
      (net 24 N-0000028)
    )
    (pad 3 smd rect (at 0 1.016 90) (size 0.9144 0.9144)
      (layers F.Cu F.Paste F.Mask)
      (net 22 N-0000026)
    )
    (model smd/cms_sot23.wrl
      (at (xyz 0 0 0))
      (scale (xyz 0.13 0.15 0.15))
      (rotate (xyz 0 0 0))
    )
  )

  (module SOT23EBC (layer F.Cu) (tedit 3F980186) (tstamp 568A268F)
    (at 260.223 112.649 180)
    (descr "Module CMS SOT23 Transistore EBC")
    (tags "CMS SOT")
    (path /568A19AB)
    (attr smd)
    (fp_text reference Q2 (at 0 -2.413 180) (layer F.SilkS)
      (effects (font (size 0.762 0.762) (thickness 0.2032)))
    )
    (fp_text value NPN (at 0 0 180) (layer F.SilkS) hide
      (effects (font (size 0.762 0.762) (thickness 0.2032)))
    )
    (fp_line (start -1.524 -0.381) (end 1.524 -0.381) (layer F.SilkS) (width 0.127))
    (fp_line (start 1.524 -0.381) (end 1.524 0.381) (layer F.SilkS) (width 0.127))
    (fp_line (start 1.524 0.381) (end -1.524 0.381) (layer F.SilkS) (width 0.127))
    (fp_line (start -1.524 0.381) (end -1.524 -0.381) (layer F.SilkS) (width 0.127))
    (pad 1 smd rect (at -0.889 -1.016 180) (size 0.9144 0.9144)
      (layers F.Cu F.Paste F.Mask)
      (net 17 GND)
    )
    (pad 2 smd rect (at 0.889 -1.016 180) (size 0.9144 0.9144)
      (layers F.Cu F.Paste F.Mask)
      (net 31 N-0000035)
    )
    (pad 3 smd rect (at 0 1.016 180) (size 0.9144 0.9144)
      (layers F.Cu F.Paste F.Mask)
      (net 20 N-0000024)
    )
    (model smd/cms_sot23.wrl
      (at (xyz 0 0 0))
      (scale (xyz 0.13 0.15 0.15))
      (rotate (xyz 0 0 0))
    )
  )

  (module SOT23EBC (layer F.Cu) (tedit 3F980186) (tstamp 568A8D4C)
    (at 280.162 113.157 270)
    (descr "Module CMS SOT23 Transistore EBC")
    (tags "CMS SOT")
    (path /568A19BB)
    (attr smd)
    (fp_text reference Q3 (at 0 -2.413 270) (layer F.SilkS)
      (effects (font (size 0.762 0.762) (thickness 0.2032)))
    )
    (fp_text value NPN (at 0 0 270) (layer F.SilkS) hide
      (effects (font (size 0.762 0.762) (thickness 0.2032)))
    )
    (fp_line (start -1.524 -0.381) (end 1.524 -0.381) (layer F.SilkS) (width 0.127))
    (fp_line (start 1.524 -0.381) (end 1.524 0.381) (layer F.SilkS) (width 0.127))
    (fp_line (start 1.524 0.381) (end -1.524 0.381) (layer F.SilkS) (width 0.127))
    (fp_line (start -1.524 0.381) (end -1.524 -0.381) (layer F.SilkS) (width 0.127))
    (pad 1 smd rect (at -0.889 -1.016 270) (size 0.9144 0.9144)
      (layers F.Cu F.Paste F.Mask)
      (net 17 GND)
    )
    (pad 2 smd rect (at 0.889 -1.016 270) (size 0.9144 0.9144)
      (layers F.Cu F.Paste F.Mask)
      (net 32 N-0000036)
    )
    (pad 3 smd rect (at 0 1.016 270) (size 0.9144 0.9144)
      (layers F.Cu F.Paste F.Mask)
      (net 19 N-0000023)
    )
    (model smd/cms_sot23.wrl
      (at (xyz 0 0 0))
      (scale (xyz 0.13 0.15 0.15))
      (rotate (xyz 0 0 0))
    )
  )

  (module SOT23EBC (layer F.Cu) (tedit 3F980186) (tstamp 568A26A5)
    (at 280.797 143.002 270)
    (descr "Module CMS SOT23 Transistore EBC")
    (tags "CMS SOT")
    (path /568A19C1)
    (attr smd)
    (fp_text reference Q4 (at 0 -2.413 270) (layer F.SilkS)
      (effects (font (size 0.762 0.762) (thickness 0.2032)))
    )
    (fp_text value NPN (at 0 0 270) (layer F.SilkS) hide
      (effects (font (size 0.762 0.762) (thickness 0.2032)))
    )
    (fp_line (start -1.524 -0.381) (end 1.524 -0.381) (layer F.SilkS) (width 0.127))
    (fp_line (start 1.524 -0.381) (end 1.524 0.381) (layer F.SilkS) (width 0.127))
    (fp_line (start 1.524 0.381) (end -1.524 0.381) (layer F.SilkS) (width 0.127))
    (fp_line (start -1.524 0.381) (end -1.524 -0.381) (layer F.SilkS) (width 0.127))
    (pad 1 smd rect (at -0.889 -1.016 270) (size 0.9144 0.9144)
      (layers F.Cu F.Paste F.Mask)
      (net 17 GND)
    )
    (pad 2 smd rect (at 0.889 -1.016 270) (size 0.9144 0.9144)
      (layers F.Cu F.Paste F.Mask)
      (net 33 N-0000037)
    )
    (pad 3 smd rect (at 0 1.016 270) (size 0.9144 0.9144)
      (layers F.Cu F.Paste F.Mask)
      (net 21 N-0000025)
    )
    (model smd/cms_sot23.wrl
      (at (xyz 0 0 0))
      (scale (xyz 0.13 0.15 0.15))
      (rotate (xyz 0 0 0))
    )
  )

  (module SM1206 (layer F.Cu) (tedit 42806E24) (tstamp 568A26B1)
    (at 233.807 133.604 270)
    (path /568A1BE2)
    (attr smd)
    (fp_text reference R3 (at 0 0 270) (layer F.SilkS)
      (effects (font (size 0.762 0.762) (thickness 0.127)))
    )
    (fp_text value 150 (at 0 0 270) (layer F.SilkS) hide
      (effects (font (size 0.762 0.762) (thickness 0.127)))
    )
    (fp_line (start -2.54 -1.143) (end -2.54 1.143) (layer F.SilkS) (width 0.127))
    (fp_line (start -2.54 1.143) (end -0.889 1.143) (layer F.SilkS) (width 0.127))
    (fp_line (start 0.889 -1.143) (end 2.54 -1.143) (layer F.SilkS) (width 0.127))
    (fp_line (start 2.54 -1.143) (end 2.54 1.143) (layer F.SilkS) (width 0.127))
    (fp_line (start 2.54 1.143) (end 0.889 1.143) (layer F.SilkS) (width 0.127))
    (fp_line (start -0.889 -1.143) (end -2.54 -1.143) (layer F.SilkS) (width 0.127))
    (pad 1 smd rect (at -1.651 0 270) (size 1.524 2.032)
      (layers F.Cu F.Paste F.Mask)
      (net 34 N-0000038)
    )
    (pad 2 smd rect (at 1.651 0 270) (size 1.524 2.032)
      (layers F.Cu F.Paste F.Mask)
      (net 5 /segA)
    )
    (model smd/chip_cms.wrl
      (at (xyz 0 0 0))
      (scale (xyz 0.17 0.16 0.16))
      (rotate (xyz 0 0 0))
    )
  )

  (module SM1206 (layer F.Cu) (tedit 42806E24) (tstamp 568A26BD)
    (at 189.1665 139.573)
    (path /568A2083)
    (attr smd)
    (fp_text reference R13 (at 0 0) (layer F.SilkS)
      (effects (font (size 0.762 0.762) (thickness 0.127)))
    )
    (fp_text value 1k (at 0 0) (layer F.SilkS) hide
      (effects (font (size 0.762 0.762) (thickness 0.127)))
    )
    (fp_line (start -2.54 -1.143) (end -2.54 1.143) (layer F.SilkS) (width 0.127))
    (fp_line (start -2.54 1.143) (end -0.889 1.143) (layer F.SilkS) (width 0.127))
    (fp_line (start 0.889 -1.143) (end 2.54 -1.143) (layer F.SilkS) (width 0.127))
    (fp_line (start 2.54 -1.143) (end 2.54 1.143) (layer F.SilkS) (width 0.127))
    (fp_line (start 2.54 1.143) (end 0.889 1.143) (layer F.SilkS) (width 0.127))
    (fp_line (start -0.889 -1.143) (end -2.54 -1.143) (layer F.SilkS) (width 0.127))
    (pad 1 smd rect (at -1.651 0) (size 1.524 2.032)
      (layers F.Cu F.Paste F.Mask)
      (net 18 N-000001)
    )
    (pad 2 smd rect (at 1.651 0) (size 1.524 2.032)
      (layers F.Cu F.Paste F.Mask)
      (net 35 VCC)
    )
    (model smd/chip_cms.wrl
      (at (xyz 0 0 0))
      (scale (xyz 0.17 0.16 0.16))
      (rotate (xyz 0 0 0))
    )
  )

  (module SM1206 (layer F.Cu) (tedit 42806E24) (tstamp 568A26C9)
    (at 243.332 135.636 270)
    (path /568A1CFF)
    (attr smd)
    (fp_text reference R8 (at 0 0 270) (layer F.SilkS)
      (effects (font (size 0.762 0.762) (thickness 0.127)))
    )
    (fp_text value 150 (at 0 0 270) (layer F.SilkS) hide
      (effects (font (size 0.762 0.762) (thickness 0.127)))
    )
    (fp_line (start -2.54 -1.143) (end -2.54 1.143) (layer F.SilkS) (width 0.127))
    (fp_line (start -2.54 1.143) (end -0.889 1.143) (layer F.SilkS) (width 0.127))
    (fp_line (start 0.889 -1.143) (end 2.54 -1.143) (layer F.SilkS) (width 0.127))
    (fp_line (start 2.54 -1.143) (end 2.54 1.143) (layer F.SilkS) (width 0.127))
    (fp_line (start 2.54 1.143) (end 0.889 1.143) (layer F.SilkS) (width 0.127))
    (fp_line (start -0.889 -1.143) (end -2.54 -1.143) (layer F.SilkS) (width 0.127))
    (pad 1 smd rect (at -1.651 0 270) (size 1.524 2.032)
      (layers F.Cu F.Paste F.Mask)
      (net 30 N-0000034)
    )
    (pad 2 smd rect (at 1.651 0 270) (size 1.524 2.032)
      (layers F.Cu F.Paste F.Mask)
      (net 12 /segG)
    )
    (model smd/chip_cms.wrl
      (at (xyz 0 0 0))
      (scale (xyz 0.17 0.16 0.16))
      (rotate (xyz 0 0 0))
    )
  )

  (module SM1206 (layer F.Cu) (tedit 42806E24) (tstamp 568A26D5)
    (at 249.428 135.636 270)
    (path /568A1CD3)
    (attr smd)
    (fp_text reference R7 (at 0 0 270) (layer F.SilkS)
      (effects (font (size 0.762 0.762) (thickness 0.127)))
    )
    (fp_text value 150 (at 0 0 270) (layer F.SilkS) hide
      (effects (font (size 0.762 0.762) (thickness 0.127)))
    )
    (fp_line (start -2.54 -1.143) (end -2.54 1.143) (layer F.SilkS) (width 0.127))
    (fp_line (start -2.54 1.143) (end -0.889 1.143) (layer F.SilkS) (width 0.127))
    (fp_line (start 0.889 -1.143) (end 2.54 -1.143) (layer F.SilkS) (width 0.127))
    (fp_line (start 2.54 -1.143) (end 2.54 1.143) (layer F.SilkS) (width 0.127))
    (fp_line (start 2.54 1.143) (end 0.889 1.143) (layer F.SilkS) (width 0.127))
    (fp_line (start -0.889 -1.143) (end -2.54 -1.143) (layer F.SilkS) (width 0.127))
    (pad 1 smd rect (at -1.651 0 270) (size 1.524 2.032)
      (layers F.Cu F.Paste F.Mask)
      (net 29 N-0000033)
    )
    (pad 2 smd rect (at 1.651 0 270) (size 1.524 2.032)
      (layers F.Cu F.Paste F.Mask)
      (net 7 /segC)
    )
    (model smd/chip_cms.wrl
      (at (xyz 0 0 0))
      (scale (xyz 0.17 0.16 0.16))
      (rotate (xyz 0 0 0))
    )
  )

  (module SM1206 (layer F.Cu) (tedit 42806E24) (tstamp 568A26E1)
    (at 246.38 135.636 270)
    (path /568A1CA9)
    (attr smd)
    (fp_text reference R6 (at 0 0 270) (layer F.SilkS)
      (effects (font (size 0.762 0.762) (thickness 0.127)))
    )
    (fp_text value 150 (at 0 0 270) (layer F.SilkS) hide
      (effects (font (size 0.762 0.762) (thickness 0.127)))
    )
    (fp_line (start -2.54 -1.143) (end -2.54 1.143) (layer F.SilkS) (width 0.127))
    (fp_line (start -2.54 1.143) (end -0.889 1.143) (layer F.SilkS) (width 0.127))
    (fp_line (start 0.889 -1.143) (end 2.54 -1.143) (layer F.SilkS) (width 0.127))
    (fp_line (start 2.54 -1.143) (end 2.54 1.143) (layer F.SilkS) (width 0.127))
    (fp_line (start 2.54 1.143) (end 0.889 1.143) (layer F.SilkS) (width 0.127))
    (fp_line (start -0.889 -1.143) (end -2.54 -1.143) (layer F.SilkS) (width 0.127))
    (pad 1 smd rect (at -1.651 0 270) (size 1.524 2.032)
      (layers F.Cu F.Paste F.Mask)
      (net 25 N-0000029)
    )
    (pad 2 smd rect (at 1.651 0 270) (size 1.524 2.032)
      (layers F.Cu F.Paste F.Mask)
      (net 9 /segDP)
    )
    (model smd/chip_cms.wrl
      (at (xyz 0 0 0))
      (scale (xyz 0.17 0.16 0.16))
      (rotate (xyz 0 0 0))
    )
  )

  (module SM1206 (layer F.Cu) (tedit 42806E24) (tstamp 568A26ED)
    (at 258.572 139.7 180)
    (path /568A1C81)
    (attr smd)
    (fp_text reference R5 (at 0 0 180) (layer F.SilkS)
      (effects (font (size 0.762 0.762) (thickness 0.127)))
    )
    (fp_text value 150 (at 0 0 180) (layer F.SilkS) hide
      (effects (font (size 0.762 0.762) (thickness 0.127)))
    )
    (fp_line (start -2.54 -1.143) (end -2.54 1.143) (layer F.SilkS) (width 0.127))
    (fp_line (start -2.54 1.143) (end -0.889 1.143) (layer F.SilkS) (width 0.127))
    (fp_line (start 0.889 -1.143) (end 2.54 -1.143) (layer F.SilkS) (width 0.127))
    (fp_line (start 2.54 -1.143) (end 2.54 1.143) (layer F.SilkS) (width 0.127))
    (fp_line (start 2.54 1.143) (end 0.889 1.143) (layer F.SilkS) (width 0.127))
    (fp_line (start -0.889 -1.143) (end -2.54 -1.143) (layer F.SilkS) (width 0.127))
    (pad 1 smd rect (at -1.651 0 180) (size 1.524 2.032)
      (layers F.Cu F.Paste F.Mask)
      (net 28 N-0000032)
    )
    (pad 2 smd rect (at 1.651 0 180) (size 1.524 2.032)
      (layers F.Cu F.Paste F.Mask)
      (net 8 /segD)
    )
    (model smd/chip_cms.wrl
      (at (xyz 0 0 0))
      (scale (xyz 0.17 0.16 0.16))
      (rotate (xyz 0 0 0))
    )
  )

  (module SM1206 (layer F.Cu) (tedit 42806E24) (tstamp 568A26F9)
    (at 258.572 143.256 180)
    (path /568A1C5A)
    (attr smd)
    (fp_text reference R4 (at 0 0 180) (layer F.SilkS)
      (effects (font (size 0.762 0.762) (thickness 0.127)))
    )
    (fp_text value 150 (at 0 0 180) (layer F.SilkS) hide
      (effects (font (size 0.762 0.762) (thickness 0.127)))
    )
    (fp_line (start -2.54 -1.143) (end -2.54 1.143) (layer F.SilkS) (width 0.127))
    (fp_line (start -2.54 1.143) (end -0.889 1.143) (layer F.SilkS) (width 0.127))
    (fp_line (start 0.889 -1.143) (end 2.54 -1.143) (layer F.SilkS) (width 0.127))
    (fp_line (start 2.54 -1.143) (end 2.54 1.143) (layer F.SilkS) (width 0.127))
    (fp_line (start 2.54 1.143) (end 0.889 1.143) (layer F.SilkS) (width 0.127))
    (fp_line (start -0.889 -1.143) (end -2.54 -1.143) (layer F.SilkS) (width 0.127))
    (pad 1 smd rect (at -1.651 0 180) (size 1.524 2.032)
      (layers F.Cu F.Paste F.Mask)
      (net 27 N-0000031)
    )
    (pad 2 smd rect (at 1.651 0 180) (size 1.524 2.032)
      (layers F.Cu F.Paste F.Mask)
      (net 10 /segE)
    )
    (model smd/chip_cms.wrl
      (at (xyz 0 0 0))
      (scale (xyz 0.17 0.16 0.16))
      (rotate (xyz 0 0 0))
    )
  )

  (module SM1206 (layer F.Cu) (tedit 42806E24) (tstamp 568A2705)
    (at 278.511 117.729 270)
    (path /568A1C35)
    (attr smd)
    (fp_text reference R1 (at 0 0 270) (layer F.SilkS)
      (effects (font (size 0.762 0.762) (thickness 0.127)))
    )
    (fp_text value 150 (at 0 0 270) (layer F.SilkS) hide
      (effects (font (size 0.762 0.762) (thickness 0.127)))
    )
    (fp_line (start -2.54 -1.143) (end -2.54 1.143) (layer F.SilkS) (width 0.127))
    (fp_line (start -2.54 1.143) (end -0.889 1.143) (layer F.SilkS) (width 0.127))
    (fp_line (start 0.889 -1.143) (end 2.54 -1.143) (layer F.SilkS) (width 0.127))
    (fp_line (start 2.54 -1.143) (end 2.54 1.143) (layer F.SilkS) (width 0.127))
    (fp_line (start 2.54 1.143) (end 0.889 1.143) (layer F.SilkS) (width 0.127))
    (fp_line (start -0.889 -1.143) (end -2.54 -1.143) (layer F.SilkS) (width 0.127))
    (pad 1 smd rect (at -1.651 0 270) (size 1.524 2.032)
      (layers F.Cu F.Paste F.Mask)
      (net 26 N-0000030)
    )
    (pad 2 smd rect (at 1.651 0 270) (size 1.524 2.032)
      (layers F.Cu F.Paste F.Mask)
      (net 6 /segB)
    )
    (model smd/chip_cms.wrl
      (at (xyz 0 0 0))
      (scale (xyz 0.17 0.16 0.16))
      (rotate (xyz 0 0 0))
    )
  )

  (module SM1206 (layer F.Cu) (tedit 42806E24) (tstamp 568A2711)
    (at 236.982 133.604 270)
    (path /568A1C12)
    (attr smd)
    (fp_text reference R2 (at 0 0 270) (layer F.SilkS)
      (effects (font (size 0.762 0.762) (thickness 0.127)))
    )
    (fp_text value 150 (at 0 0 270) (layer F.SilkS) hide
      (effects (font (size 0.762 0.762) (thickness 0.127)))
    )
    (fp_line (start -2.54 -1.143) (end -2.54 1.143) (layer F.SilkS) (width 0.127))
    (fp_line (start -2.54 1.143) (end -0.889 1.143) (layer F.SilkS) (width 0.127))
    (fp_line (start 0.889 -1.143) (end 2.54 -1.143) (layer F.SilkS) (width 0.127))
    (fp_line (start 2.54 -1.143) (end 2.54 1.143) (layer F.SilkS) (width 0.127))
    (fp_line (start 2.54 1.143) (end 0.889 1.143) (layer F.SilkS) (width 0.127))
    (fp_line (start -0.889 -1.143) (end -2.54 -1.143) (layer F.SilkS) (width 0.127))
    (pad 1 smd rect (at -1.651 0 270) (size 1.524 2.032)
      (layers F.Cu F.Paste F.Mask)
      (net 23 N-0000027)
    )
    (pad 2 smd rect (at 1.651 0 270) (size 1.524 2.032)
      (layers F.Cu F.Paste F.Mask)
      (net 11 /segF)
    )
    (model smd/chip_cms.wrl
      (at (xyz 0 0 0))
      (scale (xyz 0.17 0.16 0.16))
      (rotate (xyz 0 0 0))
    )
  )

  (module SM1206 (layer F.Cu) (tedit 42806E24) (tstamp 568A271D)
    (at 280.797 139.573)
    (path /568A1A8B)
    (attr smd)
    (fp_text reference R12 (at 0 0) (layer F.SilkS)
      (effects (font (size 0.762 0.762) (thickness 0.127)))
    )
    (fp_text value 1k (at 0 0) (layer F.SilkS) hide
      (effects (font (size 0.762 0.762) (thickness 0.127)))
    )
    (fp_line (start -2.54 -1.143) (end -2.54 1.143) (layer F.SilkS) (width 0.127))
    (fp_line (start -2.54 1.143) (end -0.889 1.143) (layer F.SilkS) (width 0.127))
    (fp_line (start 0.889 -1.143) (end 2.54 -1.143) (layer F.SilkS) (width 0.127))
    (fp_line (start 2.54 -1.143) (end 2.54 1.143) (layer F.SilkS) (width 0.127))
    (fp_line (start 2.54 1.143) (end 0.889 1.143) (layer F.SilkS) (width 0.127))
    (fp_line (start -0.889 -1.143) (end -2.54 -1.143) (layer F.SilkS) (width 0.127))
    (pad 1 smd rect (at -1.651 0) (size 1.524 2.032)
      (layers F.Cu F.Paste F.Mask)
      (net 4 /digit4)
    )
    (pad 2 smd rect (at 1.651 0) (size 1.524 2.032)
      (layers F.Cu F.Paste F.Mask)
      (net 33 N-0000037)
    )
    (model smd/chip_cms.wrl
      (at (xyz 0 0 0))
      (scale (xyz 0.17 0.16 0.16))
      (rotate (xyz 0 0 0))
    )
  )

  (module SM1206 (layer F.Cu) (tedit 42806E24) (tstamp 568A2729)
    (at 281.813 117.729 90)
    (path /568A1A85)
    (attr smd)
    (fp_text reference R11 (at 0 0 90) (layer F.SilkS)
      (effects (font (size 0.762 0.762) (thickness 0.127)))
    )
    (fp_text value 1k (at 0 0 90) (layer F.SilkS) hide
      (effects (font (size 0.762 0.762) (thickness 0.127)))
    )
    (fp_line (start -2.54 -1.143) (end -2.54 1.143) (layer F.SilkS) (width 0.127))
    (fp_line (start -2.54 1.143) (end -0.889 1.143) (layer F.SilkS) (width 0.127))
    (fp_line (start 0.889 -1.143) (end 2.54 -1.143) (layer F.SilkS) (width 0.127))
    (fp_line (start 2.54 -1.143) (end 2.54 1.143) (layer F.SilkS) (width 0.127))
    (fp_line (start 2.54 1.143) (end 0.889 1.143) (layer F.SilkS) (width 0.127))
    (fp_line (start -0.889 -1.143) (end -2.54 -1.143) (layer F.SilkS) (width 0.127))
    (pad 1 smd rect (at -1.651 0 90) (size 1.524 2.032)
      (layers F.Cu F.Paste F.Mask)
      (net 3 /digit3)
    )
    (pad 2 smd rect (at 1.651 0 90) (size 1.524 2.032)
      (layers F.Cu F.Paste F.Mask)
      (net 32 N-0000036)
    )
    (model smd/chip_cms.wrl
      (at (xyz 0 0 0))
      (scale (xyz 0.17 0.16 0.16))
      (rotate (xyz 0 0 0))
    )
  )

  (module SM1206 (layer F.Cu) (tedit 42806E24) (tstamp 568A2735)
    (at 227.457 133.604 90)
    (path /568A1A7F)
    (attr smd)
    (fp_text reference R10 (at 0 0 90) (layer F.SilkS)
      (effects (font (size 0.762 0.762) (thickness 0.127)))
    )
    (fp_text value 1k (at 0 0 90) (layer F.SilkS) hide
      (effects (font (size 0.762 0.762) (thickness 0.127)))
    )
    (fp_line (start -2.54 -1.143) (end -2.54 1.143) (layer F.SilkS) (width 0.127))
    (fp_line (start -2.54 1.143) (end -0.889 1.143) (layer F.SilkS) (width 0.127))
    (fp_line (start 0.889 -1.143) (end 2.54 -1.143) (layer F.SilkS) (width 0.127))
    (fp_line (start 2.54 -1.143) (end 2.54 1.143) (layer F.SilkS) (width 0.127))
    (fp_line (start 2.54 1.143) (end 0.889 1.143) (layer F.SilkS) (width 0.127))
    (fp_line (start -0.889 -1.143) (end -2.54 -1.143) (layer F.SilkS) (width 0.127))
    (pad 1 smd rect (at -1.651 0 90) (size 1.524 2.032)
      (layers F.Cu F.Paste F.Mask)
      (net 2 /digit2)
    )
    (pad 2 smd rect (at 1.651 0 90) (size 1.524 2.032)
      (layers F.Cu F.Paste F.Mask)
      (net 31 N-0000035)
    )
    (model smd/chip_cms.wrl
      (at (xyz 0 0 0))
      (scale (xyz 0.17 0.16 0.16))
      (rotate (xyz 0 0 0))
    )
  )

  (module SM1206 (layer F.Cu) (tedit 42806E24) (tstamp 568A2741)
    (at 221.1705 133.4135)
    (path /568A1761)
    (attr smd)
    (fp_text reference SP1 (at 0 0) (layer F.SilkS)
      (effects (font (size 0.762 0.762) (thickness 0.127)))
    )
    (fp_text value SPEAKER (at 0 0) (layer F.SilkS) hide
      (effects (font (size 0.762 0.762) (thickness 0.127)))
    )
    (fp_line (start -2.54 -1.143) (end -2.54 1.143) (layer F.SilkS) (width 0.127))
    (fp_line (start -2.54 1.143) (end -0.889 1.143) (layer F.SilkS) (width 0.127))
    (fp_line (start 0.889 -1.143) (end 2.54 -1.143) (layer F.SilkS) (width 0.127))
    (fp_line (start 2.54 -1.143) (end 2.54 1.143) (layer F.SilkS) (width 0.127))
    (fp_line (start 2.54 1.143) (end 0.889 1.143) (layer F.SilkS) (width 0.127))
    (fp_line (start -0.889 -1.143) (end -2.54 -1.143) (layer F.SilkS) (width 0.127))
    (pad 1 smd rect (at -1.651 0) (size 1.524 2.032)
      (layers F.Cu F.Paste F.Mask)
      (net 13 /spk)
    )
    (pad 2 smd rect (at 1.651 0) (size 1.524 2.032)
      (layers F.Cu F.Paste F.Mask)
      (net 17 GND)
    )
    (model smd/chip_cms.wrl
      (at (xyz 0 0 0))
      (scale (xyz 0.17 0.16 0.16))
      (rotate (xyz 0 0 0))
    )
  )

  (module SM1206 (layer F.Cu) (tedit 42806E24) (tstamp 568A274D)
    (at 230.632 133.604 90)
    (path /568A174D)
    (attr smd)
    (fp_text reference R9 (at 0 0 90) (layer F.SilkS)
      (effects (font (size 0.762 0.762) (thickness 0.127)))
    )
    (fp_text value 1k (at 0 0 90) (layer F.SilkS) hide
      (effects (font (size 0.762 0.762) (thickness 0.127)))
    )
    (fp_line (start -2.54 -1.143) (end -2.54 1.143) (layer F.SilkS) (width 0.127))
    (fp_line (start -2.54 1.143) (end -0.889 1.143) (layer F.SilkS) (width 0.127))
    (fp_line (start 0.889 -1.143) (end 2.54 -1.143) (layer F.SilkS) (width 0.127))
    (fp_line (start 2.54 -1.143) (end 2.54 1.143) (layer F.SilkS) (width 0.127))
    (fp_line (start 2.54 1.143) (end 0.889 1.143) (layer F.SilkS) (width 0.127))
    (fp_line (start -0.889 -1.143) (end -2.54 -1.143) (layer F.SilkS) (width 0.127))
    (pad 1 smd rect (at -1.651 0 90) (size 1.524 2.032)
      (layers F.Cu F.Paste F.Mask)
      (net 1 /digit1)
    )
    (pad 2 smd rect (at 1.651 0 90) (size 1.524 2.032)
      (layers F.Cu F.Paste F.Mask)
      (net 24 N-0000028)
    )
    (model smd/chip_cms.wrl
      (at (xyz 0 0 0))
      (scale (xyz 0.17 0.16 0.16))
      (rotate (xyz 0 0 0))
    )
  )

  (module DO_214AA (layer F.Cu) (tedit 51DE929F) (tstamp 568A275B)
    (at 187.325 114.7445)
    (path /568A2057)
    (attr smd)
    (fp_text reference D2 (at 0.2 -2.7) (layer F.SilkS)
      (effects (font (size 0.8 0.7) (thickness 0.15)))
    )
    (fp_text value LED (at -0.088 2.767) (layer F.SilkS)
      (effects (font (size 0.8 0.7) (thickness 0.15)))
    )
    (fp_line (start 1.8 2) (end 1.8 1.2) (layer F.SilkS) (width 0.15))
    (fp_line (start 1.8 -2) (end 1.8 -1.2) (layer F.SilkS) (width 0.15))
    (fp_line (start 2.3 -2) (end 2.3 -1.2) (layer F.SilkS) (width 0.15))
    (fp_line (start 2.3 2) (end 2.3 1.2) (layer F.SilkS) (width 0.15))
    (fp_line (start -2.3 2) (end 2.3 2) (layer F.SilkS) (width 0.15))
    (fp_line (start -2.3 1.2) (end -2.3 2) (layer F.SilkS) (width 0.15))
    (fp_line (start -2.3 -2) (end 2.3 -2) (layer F.SilkS) (width 0.15))
    (fp_line (start -2.3 -1.2) (end -2.3 -2) (layer F.SilkS) (width 0.15))
    (pad 1 smd rect (at -2.032 0) (size 1.778 2.159)
      (layers F.Cu F.Paste F.Mask)
      (net 18 N-000001)
    )
    (pad 2 smd rect (at 2.032 0) (size 1.778 2.159)
      (layers F.Cu F.Paste F.Mask)
      (net 17 GND)
    )
    (model smd\do214.wrl
      (at (xyz 0 0 0))
      (scale (xyz 1 1 1))
      (rotate (xyz 0 0 0))
    )
  )

  (module 7dig_smd (layer F.Cu) (tedit 561F5D8D) (tstamp 568A27BB)
    (at 268.224 129.032)
    (path /568A16F0)
    (fp_text reference D1 (at 12.7 -10.16) (layer F.SilkS)
      (effects (font (size 1 1) (thickness 0.15)))
    )
    (fp_text value 4DIG7SEG (at 11.43 8.89) (layer F.SilkS)
      (effects (font (size 1 1) (thickness 0.15)))
    )
    (fp_line (start -12.7 6.35) (end 16.51 6.35) (layer F.SilkS) (width 0.15))
    (fp_line (start 16.51 6.35) (end 16.51 -7.62) (layer F.SilkS) (width 0.15))
    (fp_line (start 16.51 -7.62) (end -12.7 -7.62) (layer F.SilkS) (width 0.15))
    (fp_line (start -12.7 -7.62) (end -12.7 6.35) (layer F.SilkS) (width 0.15))
    (fp_line (start -6.35 2.54) (end -6.35 -5.08) (layer F.SilkS) (width 0.15))
    (fp_line (start -6.35 -5.08) (end -10.16 -5.08) (layer F.SilkS) (width 0.15))
    (fp_line (start -10.16 -5.08) (end -10.16 2.54) (layer F.SilkS) (width 0.15))
    (fp_line (start -10.16 2.54) (end -6.35 2.54) (layer F.SilkS) (width 0.15))
    (fp_line (start -6.35 2.54) (end -6.35 -1.27) (layer F.SilkS) (width 0.15))
    (fp_line (start -6.35 -1.27) (end -10.16 -1.27) (layer F.SilkS) (width 0.15))
    (fp_line (start -5.08 2.54) (end -5.08 1.27) (layer F.SilkS) (width 0.15))
    (fp_line (start 13.97 2.54) (end 13.97 1.27) (layer F.SilkS) (width 0.15))
    (fp_line (start 8.89 2.54) (end 8.89 -5.08) (layer F.SilkS) (width 0.15))
    (fp_line (start 8.89 -5.08) (end 12.7 -5.08) (layer F.SilkS) (width 0.15))
    (fp_line (start 12.7 -5.08) (end 12.7 2.54) (layer F.SilkS) (width 0.15))
    (fp_line (start 12.7 2.54) (end 8.89 2.54) (layer F.SilkS) (width 0.15))
    (fp_line (start 8.89 2.54) (end 8.89 -1.27) (layer F.SilkS) (width 0.15))
    (fp_line (start 8.89 -1.27) (end 12.7 -1.27) (layer F.SilkS) (width 0.15))
    (fp_line (start 7.62 2.54) (end 7.62 1.27) (layer F.SilkS) (width 0.15))
    (fp_line (start 2.54 2.54) (end 2.54 -5.08) (layer F.SilkS) (width 0.15))
    (fp_line (start 2.54 -5.08) (end 6.35 -5.08) (layer F.SilkS) (width 0.15))
    (fp_line (start 6.35 -5.08) (end 6.35 2.54) (layer F.SilkS) (width 0.15))
    (fp_line (start 6.35 2.54) (end 2.54 2.54) (layer F.SilkS) (width 0.15))
    (fp_line (start 2.54 2.54) (end 2.54 -1.27) (layer F.SilkS) (width 0.15))
    (fp_line (start 2.54 -1.27) (end 6.35 -1.27) (layer F.SilkS) (width 0.15))
    (fp_line (start 1.27 2.54) (end 1.27 1.27) (layer F.SilkS) (width 0.15))
    (fp_line (start -3.81 -1.27) (end -3.81 2.54) (layer F.SilkS) (width 0.15))
    (fp_line (start -3.81 2.54) (end 0 2.54) (layer F.SilkS) (width 0.15))
    (fp_line (start 0 2.54) (end 0 -1.27) (layer F.SilkS) (width 0.15))
    (fp_line (start -3.81 -5.08) (end -3.81 -1.27) (layer F.SilkS) (width 0.15))
    (fp_line (start -3.81 -1.27) (end 0 -1.27) (layer F.SilkS) (width 0.15))
    (fp_line (start 0 -1.27) (end 0 -5.08) (layer F.SilkS) (width 0.15))
    (fp_line (start 0 -5.08) (end -3.81 -5.08) (layer F.SilkS) (width 0.15))
    (pad 1 smd rect (at -5.08 -12.7) (size 1.5 7.62)
      (layers F.Cu F.Paste F.Mask)
      (net 22 N-0000026)
    )
    (pad 2 smd rect (at -2.54 -12.7) (size 1.5 7.62)
      (layers F.Cu F.Paste F.Mask)
      (net 34 N-0000038)
    )
    (pad 3 smd rect (at 0 -12.7) (size 1.5 7.62)
      (layers F.Cu F.Paste F.Mask)
      (net 23 N-0000027)
    )
    (pad 4 smd rect (at 2.54 -12.7) (size 1.5 7.62)
      (layers F.Cu F.Paste F.Mask)
      (net 20 N-0000024)
    )
    (pad 5 smd rect (at 5.08 -12.7) (size 1.5 7.62)
      (layers F.Cu F.Paste F.Mask)
      (net 19 N-0000023)
    )
    (pad 6 smd rect (at 7.62 -12.7) (size 1.5 7.62)
      (layers F.Cu F.Paste F.Mask)
      (net 26 N-0000030)
    )
    (pad 7 smd rect (at 7.62 11.43) (size 1.5 7.62)
      (layers F.Cu F.Paste F.Mask)
      (net 21 N-0000025)
    )
    (pad 8 smd rect (at 5.08 11.43) (size 1.5 7.62)
      (layers F.Cu F.Paste F.Mask)
      (net 30 N-0000034)
    )
    (pad 9 smd rect (at 2.54 11.43) (size 1.5 7.62)
      (layers F.Cu F.Paste F.Mask)
      (net 29 N-0000033)
    )
    (pad 10 smd rect (at 0 11.43) (size 1.5 7.62)
      (layers F.Cu F.Paste F.Mask)
      (net 25 N-0000029)
    )
    (pad 11 smd rect (at -2.54 11.43) (size 1.5 7.62)
      (layers F.Cu F.Paste F.Mask)
      (net 28 N-0000032)
    )
    (pad 12 smd rect (at -5.08 11.43) (size 1.5 7.62)
      (layers F.Cu F.Paste F.Mask)
      (net 27 N-0000031)
    )
  )

  (module 20_pin_smd (layer F.Cu) (tedit 568A847F) (tstamp 568A8638)
    (at 218.44 141.732)
    (path /568A821D)
    (fp_text reference P1 (at 0 5.08) (layer F.SilkS)
      (effects (font (size 1 1) (thickness 0.15)))
    )
    (fp_text value CONN_20 (at 7.62 5.08) (layer F.SilkS)
      (effects (font (size 1 1) (thickness 0.15)))
    )
    (pad 1 smd rect (at -12.7 0) (size 1.27 5.08)
      (layers F.Cu F.Paste F.Mask)
      (net 35 VCC)
    )
    (pad 2 smd rect (at -10.16 0) (size 1.27 5.08)
      (layers F.Cu F.Paste F.Mask)
      (net 17 GND)
    )
    (pad 3 smd rect (at -7.62 0) (size 1.27 5.08)
      (layers F.Cu F.Paste F.Mask)
      (net 14 /valc1)
    )
    (pad 4 smd rect (at -5.08 0) (size 1.27 5.08)
      (layers F.Cu F.Paste F.Mask)
      (net 15 /valc2)
    )
    (pad 5 smd rect (at -2.54 0) (size 1.27 5.08)
      (layers F.Cu F.Paste F.Mask)
      (net 16 /valc3)
    )
    (pad 6 smd rect (at 0 0) (size 1.27 5.08)
      (layers F.Cu F.Paste F.Mask)
    )
    (pad 7 smd rect (at 2.54 0) (size 1.27 5.08)
      (layers F.Cu F.Paste F.Mask)
    )
    (pad 8 smd rect (at 5.08 0) (size 1.27 5.08)
      (layers F.Cu F.Paste F.Mask)
      (net 13 /spk)
    )
    (pad 9 smd rect (at 7.62 0) (size 1.27 5.08)
      (layers F.Cu F.Paste F.Mask)
      (net 2 /digit2)
    )
    (pad 10 smd rect (at 10.16 0) (size 1.27 5.08)
      (layers F.Cu F.Paste F.Mask)
      (net 1 /digit1)
    )
    (pad 11 smd rect (at 12.7 0) (size 1.27 5.08)
      (layers F.Cu F.Paste F.Mask)
      (net 5 /segA)
    )
    (pad 12 smd rect (at 15.24 0) (size 1.27 5.08)
      (layers F.Cu F.Paste F.Mask)
      (net 11 /segF)
    )
    (pad 13 smd rect (at 17.78 0) (size 1.27 5.08)
      (layers F.Cu F.Paste F.Mask)
      (net 6 /segB)
    )
    (pad 14 smd rect (at 20.32 0) (size 1.27 5.08)
      (layers F.Cu F.Paste F.Mask)
      (net 3 /digit3)
    )
    (pad 15 smd rect (at 22.86 0) (size 1.27 5.08)
      (layers F.Cu F.Paste F.Mask)
      (net 4 /digit4)
    )
    (pad 16 smd rect (at 25.4 0) (size 1.27 5.08)
      (layers F.Cu F.Paste F.Mask)
      (net 12 /segG)
    )
    (pad 17 smd rect (at 27.94 0) (size 1.27 5.08)
      (layers F.Cu F.Paste F.Mask)
      (net 9 /segDP)
    )
    (pad 18 smd rect (at 30.48 0) (size 1.27 5.08)
      (layers F.Cu F.Paste F.Mask)
      (net 7 /segC)
    )
    (pad 19 smd rect (at 33.02 0) (size 1.27 5.08)
      (layers F.Cu F.Paste F.Mask)
      (net 8 /segD)
    )
    (pad 20 smd rect (at 35.56 0) (size 1.27 5.08)
      (layers F.Cu F.Paste F.Mask)
      (net 10 /segE)
    )
  )

  (segment (start 230.632 135.255) (end 230.632 137.16) (width 0.508) (layer F.Cu) (net 1))
  (segment (start 228.6 138.2395) (end 228.6 141.732) (width 0.508) (layer F.Cu) (net 1) (tstamp 568A9316))
  (segment (start 229.0445 137.795) (end 228.6 138.2395) (width 0.508) (layer F.Cu) (net 1) (tstamp 568A9315))
  (segment (start 229.997 137.795) (end 229.0445 137.795) (width 0.508) (layer F.Cu) (net 1) (tstamp 568A9311))
  (segment (start 230.632 137.16) (end 229.997 137.795) (width 0.508) (layer F.Cu) (net 1) (tstamp 568A930C))
  (segment (start 227.457 135.255) (end 227.457 137.3505) (width 0.508) (layer F.Cu) (net 2))
  (segment (start 226.06 138.3665) (end 226.06 141.732) (width 0.508) (layer F.Cu) (net 2) (tstamp 568A945B))
  (segment (start 226.6315 137.795) (end 226.06 138.3665) (width 0.508) (layer F.Cu) (net 2) (tstamp 568A9458))
  (segment (start 227.0125 137.795) (end 226.6315 137.795) (width 0.508) (layer F.Cu) (net 2) (tstamp 568A9452))
  (segment (start 227.457 137.3505) (end 227.0125 137.795) (width 0.508) (layer F.Cu) (net 2) (tstamp 568A9451))
  (segment (start 281.813 119.38) (end 281.813 128.524) (width 0.508) (layer F.Cu) (net 3))
  (segment (start 238.76 138.303) (end 238.76 141.732) (width 0.508) (layer F.Cu) (net 3) (tstamp 568A8E47))
  (segment (start 240.157 136.906) (end 238.76 138.303) (width 0.508) (layer F.Cu) (net 3) (tstamp 568A8E45))
  (segment (start 240.157 131.826) (end 240.157 136.906) (width 0.508) (layer F.Cu) (net 3) (tstamp 568A8E41))
  (segment (start 241.808 130.175) (end 240.157 131.826) (width 0.508) (layer F.Cu) (net 3) (tstamp 568A8E35))
  (segment (start 280.162 130.175) (end 241.808 130.175) (width 0.508) (layer F.Cu) (net 3) (tstamp 568A8E2C))
  (segment (start 281.813 128.524) (end 280.162 130.175) (width 0.508) (layer F.Cu) (net 3) (tstamp 568A8E2A))
  (segment (start 279.146 139.573) (end 279.146 136.779) (width 0.508) (layer F.Cu) (net 4))
  (segment (start 241.3 132.207) (end 241.3 141.732) (width 0.508) (layer F.Cu) (net 4) (tstamp 568A8ABD))
  (segment (start 242.316 131.191) (end 241.3 132.207) (width 0.508) (layer F.Cu) (net 4) (tstamp 568A8ABC))
  (segment (start 273.558 131.191) (end 242.316 131.191) (width 0.508) (layer F.Cu) (net 4) (tstamp 568A8AB4))
  (segment (start 279.146 136.779) (end 273.558 131.191) (width 0.508) (layer F.Cu) (net 4) (tstamp 568A8AAD))
  (segment (start 233.807 135.255) (end 233.807 136.9695) (width 0.508) (layer F.Cu) (net 5))
  (segment (start 231.14 138.4935) (end 231.14 141.732) (width 0.508) (layer F.Cu) (net 5) (tstamp 568A9190))
  (segment (start 231.775 137.8585) (end 231.14 138.4935) (width 0.508) (layer F.Cu) (net 5) (tstamp 568A918F))
  (segment (start 232.918 137.8585) (end 231.775 137.8585) (width 0.508) (layer F.Cu) (net 5) (tstamp 568A918A))
  (segment (start 233.807 136.9695) (end 232.918 137.8585) (width 0.508) (layer F.Cu) (net 5) (tstamp 568A9188))
  (segment (start 278.511 119.38) (end 278.511 128.27) (width 0.508) (layer F.Cu) (net 6))
  (segment (start 236.22 139.319) (end 236.22 141.732) (width 0.508) (layer F.Cu) (net 6) (tstamp 568A8E67))
  (segment (start 239.014 136.525) (end 236.22 139.319) (width 0.508) (layer F.Cu) (net 6) (tstamp 568A8E63))
  (segment (start 239.014 131.445) (end 239.014 136.525) (width 0.508) (layer F.Cu) (net 6) (tstamp 568A8E60))
  (segment (start 241.427 129.032) (end 239.014 131.445) (width 0.508) (layer F.Cu) (net 6) (tstamp 568A8E5C))
  (segment (start 277.749 129.032) (end 241.427 129.032) (width 0.508) (layer F.Cu) (net 6) (tstamp 568A8E56))
  (segment (start 278.511 128.27) (end 277.749 129.032) (width 0.508) (layer F.Cu) (net 6) (tstamp 568A8E52))
  (segment (start 248.92 141.732) (end 248.92 137.795) (width 0.508) (layer F.Cu) (net 7))
  (segment (start 248.92 137.795) (end 249.428 137.287) (width 0.508) (layer F.Cu) (net 7) (tstamp 568A87AB))
  (segment (start 256.921 139.7) (end 256.921 139.065) (width 0.508) (layer F.Cu) (net 8))
  (segment (start 251.46 138.684) (end 251.46 141.732) (width 0.508) (layer F.Cu) (net 8) (tstamp 568A86A8))
  (segment (start 251.968 138.176) (end 251.46 138.684) (width 0.508) (layer F.Cu) (net 8) (tstamp 568A86A7))
  (segment (start 256.032 138.176) (end 251.968 138.176) (width 0.508) (layer F.Cu) (net 8) (tstamp 568A86A6))
  (segment (start 256.921 139.065) (end 256.032 138.176) (width 0.508) (layer F.Cu) (net 8) (tstamp 568A86A5))
  (segment (start 246.38 141.732) (end 246.38 137.287) (width 0.508) (layer F.Cu) (net 9))
  (segment (start 256.921 143.256) (end 255.524 143.256) (width 0.508) (layer F.Cu) (net 10))
  (segment (start 255.524 143.256) (end 254 141.732) (width 0.508) (layer F.Cu) (net 10) (tstamp 568A868D))
  (segment (start 236.982 135.255) (end 236.982 136.906) (width 0.508) (layer F.Cu) (net 11))
  (segment (start 233.68 138.7475) (end 233.68 141.732) (width 0.508) (layer F.Cu) (net 11) (tstamp 568A910F))
  (segment (start 234.569 137.8585) (end 233.68 138.7475) (width 0.508) (layer F.Cu) (net 11) (tstamp 568A910D))
  (segment (start 236.0295 137.8585) (end 234.569 137.8585) (width 0.508) (layer F.Cu) (net 11) (tstamp 568A910C))
  (segment (start 236.982 136.906) (end 236.0295 137.8585) (width 0.508) (layer F.Cu) (net 11) (tstamp 568A9109))
  (segment (start 243.84 141.732) (end 243.84 137.795) (width 0.508) (layer F.Cu) (net 12))
  (segment (start 243.84 137.795) (end 243.332 137.287) (width 0.508) (layer F.Cu) (net 12) (tstamp 568A8A42))
  (segment (start 223.52 141.732) (end 223.52 138.1125) (width 0.508) (layer F.Cu) (net 13) (status 400000))
  (segment (start 219.5195 137.033) (end 219.5195 133.4135) (width 0.508) (layer F.Cu) (net 13) (tstamp 568A9980) (status 800000))
  (segment (start 220.2815 137.795) (end 219.5195 137.033) (width 0.508) (layer F.Cu) (net 13) (tstamp 568A997F))
  (segment (start 223.2025 137.795) (end 220.2815 137.795) (width 0.508) (layer F.Cu) (net 13) (tstamp 568A997D))
  (segment (start 223.52 138.1125) (end 223.2025 137.795) (width 0.508) (layer F.Cu) (net 13) (tstamp 568A997A))
  (segment (start 210.82 141.732) (end 210.82 138.557) (width 0.508) (layer F.Cu) (net 14))
  (segment (start 187.96 133.096) (end 187.96 130.302) (width 0.508) (layer F.Cu) (net 14) (tstamp 568A98A8))
  (segment (start 191.008 136.144) (end 187.96 133.096) (width 0.508) (layer F.Cu) (net 14) (tstamp 568A98A7))
  (segment (start 192.9765 136.144) (end 191.008 136.144) (width 0.508) (layer F.Cu) (net 14) (tstamp 568A98A6))
  (segment (start 194.6275 137.795) (end 192.9765 136.144) (width 0.508) (layer F.Cu) (net 14) (tstamp 568A9894))
  (segment (start 194.6275 139.573) (end 194.6275 137.795) (width 0.508) (layer F.Cu) (net 14) (tstamp 568A988E))
  (segment (start 195.199 140.1445) (end 194.6275 139.573) (width 0.508) (layer F.Cu) (net 14) (tstamp 568A988A))
  (segment (start 201.2315 140.1445) (end 195.199 140.1445) (width 0.508) (layer F.Cu) (net 14) (tstamp 568A9882))
  (segment (start 201.7395 139.6365) (end 201.2315 140.1445) (width 0.508) (layer F.Cu) (net 14) (tstamp 568A987F))
  (segment (start 201.7395 138.1125) (end 201.7395 139.6365) (width 0.508) (layer F.Cu) (net 14) (tstamp 568A987E))
  (segment (start 202.6285 137.2235) (end 201.7395 138.1125) (width 0.508) (layer F.Cu) (net 14) (tstamp 568A987A))
  (segment (start 209.4865 137.2235) (end 202.6285 137.2235) (width 0.508) (layer F.Cu) (net 14) (tstamp 568A9877))
  (segment (start 210.82 138.557) (end 209.4865 137.2235) (width 0.508) (layer F.Cu) (net 14) (tstamp 568A9874))
  (segment (start 213.36 141.732) (end 213.36 138.6205) (width 0.508) (layer F.Cu) (net 15))
  (segment (start 209.55 134.8105) (end 209.55 130.302) (width 0.508) (layer F.Cu) (net 15) (tstamp 568A98FD))
  (segment (start 213.36 138.6205) (end 209.55 134.8105) (width 0.508) (layer F.Cu) (net 15) (tstamp 568A98F3))
  (segment (start 215.9 141.732) (end 215.9 126.746) (width 0.508) (layer F.Cu) (net 16))
  (segment (start 214.376 125.222) (end 209.55 125.222) (width 0.508) (layer F.Cu) (net 16) (tstamp 568A9905))
  (segment (start 215.9 126.746) (end 214.376 125.222) (width 0.508) (layer F.Cu) (net 16) (tstamp 568A9903))
  (segment (start 279.7175 110.4265) (end 284.861 110.4265) (width 0.508) (layer F.Cu) (net 17))
  (segment (start 285.369 110.9345) (end 285.369 144.272) (width 0.508) (layer F.Cu) (net 17) (tstamp 568A9A3C))
  (segment (start 284.861 110.4265) (end 285.369 110.9345) (width 0.508) (layer F.Cu) (net 17) (tstamp 568A9A38))
  (segment (start 258.7625 110.4265) (end 182.1815 110.4265) (width 0.508) (layer F.Cu) (net 17))
  (segment (start 181.737 110.871) (end 181.737 114.4905) (width 0.508) (layer F.Cu) (net 17) (tstamp 568A9A2B))
  (segment (start 182.1815 110.4265) (end 181.737 110.871) (width 0.508) (layer F.Cu) (net 17) (tstamp 568A9A21))
  (segment (start 281.178 112.268) (end 281.178 111.887) (width 0.508) (layer F.Cu) (net 17) (status C00000))
  (segment (start 257.429 111.76) (end 257.429 112.8395) (width 0.508) (layer F.Cu) (net 17) (tstamp 568A9A04))
  (segment (start 258.7625 110.4265) (end 257.429 111.76) (width 0.508) (layer F.Cu) (net 17) (tstamp 568A99FD))
  (segment (start 279.7175 110.4265) (end 258.7625 110.4265) (width 0.508) (layer F.Cu) (net 17) (tstamp 568A99F9))
  (segment (start 281.178 111.887) (end 279.7175 110.4265) (width 0.508) (layer F.Cu) (net 17) (tstamp 568A99F7) (status 400000))
  (segment (start 261.112 113.665) (end 261.112 113.2205) (width 0.508) (layer F.Cu) (net 17) (status C00000))
  (segment (start 261.112 113.2205) (end 260.5405 112.649) (width 0.508) (layer F.Cu) (net 17) (tstamp 568A99BC) (status 400000))
  (segment (start 260.5405 112.649) (end 257.6195 112.649) (width 0.508) (layer F.Cu) (net 17) (tstamp 568A99BE))
  (segment (start 257.6195 112.649) (end 257.429 112.8395) (width 0.508) (layer F.Cu) (net 17) (tstamp 568A99C0))
  (segment (start 226.2505 123.444) (end 222.8215 126.873) (width 0.508) (layer F.Cu) (net 17) (tstamp 568A99DD))
  (segment (start 257.429 112.8395) (end 254.8255 115.443) (width 0.508) (layer F.Cu) (net 17) (tstamp 568A9A08))
  (segment (start 254.8255 115.443) (end 254.8255 123.1265) (width 0.508) (layer F.Cu) (net 17) (tstamp 568A99CD))
  (segment (start 254.8255 123.1265) (end 254.508 123.444) (width 0.508) (layer F.Cu) (net 17) (tstamp 568A99D2))
  (segment (start 254.508 123.444) (end 226.2505 123.444) (width 0.508) (layer F.Cu) (net 17) (tstamp 568A99D4))
  (segment (start 222.8215 133.4135) (end 222.8215 126.873) (width 0.508) (layer F.Cu) (net 17) (status 400000))
  (segment (start 201.4855 124.3965) (end 201.4855 127.762) (width 0.508) (layer F.Cu) (net 17) (tstamp 568A999F))
  (segment (start 222.8215 126.873) (end 218.6305 122.682) (width 0.508) (layer F.Cu) (net 17) (tstamp 568A9989))
  (segment (start 218.6305 122.682) (end 203.2 122.682) (width 0.508) (layer F.Cu) (net 17) (tstamp 568A998F))
  (segment (start 203.2 122.682) (end 201.4855 124.3965) (width 0.508) (layer F.Cu) (net 17) (tstamp 568A999B))
  (segment (start 189.357 114.7445) (end 189.357 123.825) (width 0.508) (layer F.Cu) (net 17))
  (segment (start 189.357 123.825) (end 187.96 125.222) (width 0.508) (layer F.Cu) (net 17) (tstamp 568A9954))
  (segment (start 209.55 127.762) (end 201.4855 127.762) (width 0.508) (layer F.Cu) (net 17))
  (segment (start 201.4855 127.762) (end 199.136 127.762) (width 0.508) (layer F.Cu) (net 17) (tstamp 568A99A4))
  (segment (start 196.596 125.222) (end 187.96 125.222) (width 0.508) (layer F.Cu) (net 17) (tstamp 568A98E3))
  (segment (start 199.136 127.762) (end 196.596 125.222) (width 0.508) (layer F.Cu) (net 17) (tstamp 568A98DF))
  (segment (start 205.2955 138.303) (end 203.3905 138.303) (width 0.508) (layer F.Cu) (net 17))
  (segment (start 183.7055 125.222) (end 187.96 125.222) (width 0.508) (layer F.Cu) (net 17) (tstamp 568A98D6))
  (segment (start 182.9435 125.984) (end 183.7055 125.222) (width 0.508) (layer F.Cu) (net 17) (tstamp 568A98D4))
  (segment (start 182.9435 132.9055) (end 182.9435 125.984) (width 0.508) (layer F.Cu) (net 17) (tstamp 568A98CF))
  (segment (start 187.198 137.16) (end 182.9435 132.9055) (width 0.508) (layer F.Cu) (net 17) (tstamp 568A98CA))
  (segment (start 192.2145 137.16) (end 187.198 137.16) (width 0.508) (layer F.Cu) (net 17) (tstamp 568A98C5))
  (segment (start 193.421 138.3665) (end 192.2145 137.16) (width 0.508) (layer F.Cu) (net 17) (tstamp 568A98C3))
  (segment (start 193.421 140.208) (end 193.421 138.3665) (width 0.508) (layer F.Cu) (net 17) (tstamp 568A98C2))
  (segment (start 194.437 141.224) (end 193.421 140.208) (width 0.508) (layer F.Cu) (net 17) (tstamp 568A98C0))
  (segment (start 201.8665 141.224) (end 194.437 141.224) (width 0.508) (layer F.Cu) (net 17) (tstamp 568A98BD))
  (segment (start 202.819 140.2715) (end 201.8665 141.224) (width 0.508) (layer F.Cu) (net 17) (tstamp 568A98BC))
  (segment (start 202.819 138.8745) (end 202.819 140.2715) (width 0.508) (layer F.Cu) (net 17) (tstamp 568A98BA))
  (segment (start 203.3905 138.303) (end 202.819 138.8745) (width 0.508) (layer F.Cu) (net 17) (tstamp 568A98B8))
  (segment (start 208.28 141.732) (end 208.28 139.192) (width 0.508) (layer F.Cu) (net 17))
  (segment (start 207.391 138.303) (end 205.2955 138.303) (width 0.508) (layer F.Cu) (net 17) (tstamp 568A9871))
  (segment (start 205.2955 138.303) (end 205.105 138.303) (width 0.508) (layer F.Cu) (net 17) (tstamp 568A98B6))
  (segment (start 208.28 139.192) (end 207.391 138.303) (width 0.508) (layer F.Cu) (net 17) (tstamp 568A986F))
  (segment (start 259.08 119.6975) (end 259.461 119.6975) (width 0.508) (layer F.Cu) (net 17))
  (segment (start 261.112 115.697) (end 261.112 113.665) (width 0.508) (layer F.Cu) (net 17) (tstamp 568A929E))
  (segment (start 260.096 116.713) (end 261.112 115.697) (width 0.508) (layer F.Cu) (net 17) (tstamp 568A929D))
  (segment (start 260.096 119.0625) (end 260.096 116.713) (width 0.508) (layer F.Cu) (net 17) (tstamp 568A929A))
  (segment (start 259.461 119.6975) (end 260.096 119.0625) (width 0.508) (layer F.Cu) (net 17) (tstamp 568A9298))
  (segment (start 281.813 142.113) (end 281.432 142.113) (width 0.508) (layer F.Cu) (net 17))
  (segment (start 283.464 112.268) (end 281.178 112.268) (width 0.508) (layer F.Cu) (net 17) (tstamp 568A8E91))
  (segment (start 284.099 112.903) (end 283.464 112.268) (width 0.508) (layer F.Cu) (net 17) (tstamp 568A8E90))
  (segment (start 284.099 128.397) (end 284.099 112.903) (width 0.508) (layer F.Cu) (net 17) (tstamp 568A8E8E))
  (segment (start 280.797 131.699) (end 284.099 128.397) (width 0.508) (layer F.Cu) (net 17) (tstamp 568A8E84))
  (segment (start 280.797 141.478) (end 280.797 131.699) (width 0.508) (layer F.Cu) (net 17) (tstamp 568A8E82))
  (segment (start 281.432 142.113) (end 280.797 141.478) (width 0.508) (layer F.Cu) (net 17) (tstamp 568A8E81))
  (segment (start 181.8005 134.0485) (end 181.8005 142.6845) (width 0.508) (layer F.Cu) (net 18))
  (segment (start 183.1975 144.0815) (end 204.0255 144.0815) (width 0.508) (layer F.Cu) (net 18) (tstamp 568A9A59))
  (segment (start 181.8005 142.6845) (end 183.1975 144.0815) (width 0.508) (layer F.Cu) (net 18) (tstamp 568A9A56))
  (segment (start 187.5155 139.573) (end 186.944 139.573) (width 0.508) (layer F.Cu) (net 18))
  (segment (start 183.007 114.7445) (end 185.293 114.7445) (width 0.508) (layer F.Cu) (net 18) (tstamp 568A995E))
  (segment (start 181.8005 115.951) (end 183.007 114.7445) (width 0.508) (layer F.Cu) (net 18) (tstamp 568A995D))
  (segment (start 181.8005 134.4295) (end 181.8005 134.0485) (width 0.508) (layer F.Cu) (net 18) (tstamp 568A995A))
  (segment (start 181.8005 134.0485) (end 181.8005 115.951) (width 0.508) (layer F.Cu) (net 18) (tstamp 568A9A54))
  (segment (start 186.944 139.573) (end 181.8005 134.4295) (width 0.508) (layer F.Cu) (net 18) (tstamp 568A9958))
  (segment (start 279.146 113.157) (end 279.146 112.395) (width 0.508) (layer F.Cu) (net 19))
  (segment (start 273.304 112.522) (end 273.304 116.332) (width 0.508) (layer F.Cu) (net 19) (tstamp 568A8E7B))
  (segment (start 274.193 111.633) (end 273.304 112.522) (width 0.508) (layer F.Cu) (net 19) (tstamp 568A8E7A))
  (segment (start 278.384 111.633) (end 274.193 111.633) (width 0.508) (layer F.Cu) (net 19) (tstamp 568A8E79))
  (segment (start 279.146 112.395) (end 278.384 111.633) (width 0.508) (layer F.Cu) (net 19) (tstamp 568A8E77))
  (segment (start 260.223 111.633) (end 270.51 111.633) (width 0.508) (layer F.Cu) (net 20))
  (segment (start 270.764 111.887) (end 270.764 116.332) (width 0.508) (layer F.Cu) (net 20) (tstamp 568A8F87))
  (segment (start 270.51 111.633) (end 270.764 111.887) (width 0.508) (layer F.Cu) (net 20) (tstamp 568A8F86))
  (segment (start 279.781 143.002) (end 276.987 143.002) (width 0.508) (layer F.Cu) (net 21))
  (segment (start 275.844 141.859) (end 275.844 140.462) (width 0.508) (layer F.Cu) (net 21) (tstamp 568A8A67))
  (segment (start 276.987 143.002) (end 275.844 141.859) (width 0.508) (layer F.Cu) (net 21) (tstamp 568A8A64))
  (segment (start 261.112 118.8085) (end 261.874 118.8085) (width 0.508) (layer F.Cu) (net 22))
  (segment (start 263.144 117.5385) (end 263.144 116.332) (width 0.508) (layer F.Cu) (net 22) (tstamp 568A928C))
  (segment (start 261.874 118.8085) (end 263.144 117.5385) (width 0.508) (layer F.Cu) (net 22) (tstamp 568A928A))
  (segment (start 268.224 116.332) (end 268.224 126.746) (width 0.508) (layer F.Cu) (net 23))
  (segment (start 236.982 130.048) (end 236.982 131.953) (width 0.508) (layer F.Cu) (net 23) (tstamp 568A90FB))
  (segment (start 239.141 127.889) (end 236.982 130.048) (width 0.508) (layer F.Cu) (net 23) (tstamp 568A90F3))
  (segment (start 267.081 127.889) (end 239.141 127.889) (width 0.508) (layer F.Cu) (net 23) (tstamp 568A90EF))
  (segment (start 268.224 126.746) (end 267.081 127.889) (width 0.508) (layer F.Cu) (net 23) (tstamp 568A90EA))
  (segment (start 259.08 117.9195) (end 257.81 117.9195) (width 0.508) (layer F.Cu) (net 24))
  (segment (start 230.632 129.54) (end 230.632 131.953) (width 0.508) (layer F.Cu) (net 24) (tstamp 568A933C))
  (segment (start 234.5055 125.6665) (end 230.632 129.54) (width 0.508) (layer F.Cu) (net 24) (tstamp 568A9336))
  (segment (start 255.9685 125.6665) (end 234.5055 125.6665) (width 0.508) (layer F.Cu) (net 24) (tstamp 568A932E))
  (segment (start 257.048 124.587) (end 255.9685 125.6665) (width 0.508) (layer F.Cu) (net 24) (tstamp 568A932C))
  (segment (start 257.048 118.6815) (end 257.048 124.587) (width 0.508) (layer F.Cu) (net 24) (tstamp 568A9328))
  (segment (start 257.81 117.9195) (end 257.048 118.6815) (width 0.508) (layer F.Cu) (net 24) (tstamp 568A9326))
  (segment (start 268.224 140.462) (end 268.224 135.128) (width 0.508) (layer F.Cu) (net 25))
  (segment (start 246.38 135.128) (end 246.38 133.985) (width 0.508) (layer F.Cu) (net 25) (tstamp 568A8745))
  (segment (start 246.888 135.636) (end 246.38 135.128) (width 0.508) (layer F.Cu) (net 25) (tstamp 568A8743))
  (segment (start 259.588 135.636) (end 246.888 135.636) (width 0.508) (layer F.Cu) (net 25) (tstamp 568A8740))
  (segment (start 260.604 134.62) (end 259.588 135.636) (width 0.508) (layer F.Cu) (net 25) (tstamp 568A873A))
  (segment (start 267.716 134.62) (end 260.604 134.62) (width 0.508) (layer F.Cu) (net 25) (tstamp 568A8737))
  (segment (start 268.224 135.128) (end 267.716 134.62) (width 0.508) (layer F.Cu) (net 25) (tstamp 568A8735))
  (segment (start 278.511 116.078) (end 276.098 116.078) (width 0.508) (layer F.Cu) (net 26))
  (segment (start 276.098 116.078) (end 275.844 116.332) (width 0.508) (layer F.Cu) (net 26) (tstamp 568A8DC8))
  (segment (start 260.223 143.256) (end 260.35 143.256) (width 0.508) (layer F.Cu) (net 27))
  (segment (start 260.35 143.256) (end 263.144 140.462) (width 0.508) (layer F.Cu) (net 27) (tstamp 568A868A))
  (segment (start 265.684 140.462) (end 265.684 136.144) (width 0.508) (layer F.Cu) (net 28))
  (segment (start 260.223 136.525) (end 260.223 139.7) (width 0.508) (layer F.Cu) (net 28) (tstamp 568A86A2))
  (segment (start 261.112 135.636) (end 260.223 136.525) (width 0.508) (layer F.Cu) (net 28) (tstamp 568A86A1))
  (segment (start 265.176 135.636) (end 261.112 135.636) (width 0.508) (layer F.Cu) (net 28) (tstamp 568A86A0))
  (segment (start 265.684 136.144) (end 265.176 135.636) (width 0.508) (layer F.Cu) (net 28) (tstamp 568A869F))
  (segment (start 270.764 140.462) (end 270.764 134.62) (width 0.508) (layer F.Cu) (net 29))
  (segment (start 259.715 133.985) (end 249.428 133.985) (width 0.508) (layer F.Cu) (net 29) (tstamp 568A87BA))
  (segment (start 260.096 133.604) (end 259.715 133.985) (width 0.508) (layer F.Cu) (net 29) (tstamp 568A87B9))
  (segment (start 269.748 133.604) (end 260.096 133.604) (width 0.508) (layer F.Cu) (net 29) (tstamp 568A87B6))
  (segment (start 270.764 134.62) (end 269.748 133.604) (width 0.508) (layer F.Cu) (net 29) (tstamp 568A87B5))
  (segment (start 273.304 140.462) (end 273.304 134.366) (width 0.508) (layer F.Cu) (net 30))
  (segment (start 243.332 132.715) (end 243.332 133.985) (width 0.508) (layer F.Cu) (net 30) (tstamp 568A8A56))
  (segment (start 243.84 132.207) (end 243.332 132.715) (width 0.508) (layer F.Cu) (net 30) (tstamp 568A8A55))
  (segment (start 271.145 132.207) (end 243.84 132.207) (width 0.508) (layer F.Cu) (net 30) (tstamp 568A8A4A))
  (segment (start 273.304 134.366) (end 271.145 132.207) (width 0.508) (layer F.Cu) (net 30) (tstamp 568A8A48))
  (segment (start 259.334 113.665) (end 258.191 113.665) (width 0.508) (layer F.Cu) (net 31))
  (segment (start 227.457 128.524) (end 227.457 131.953) (width 0.508) (layer F.Cu) (net 31) (tstamp 568A948B))
  (segment (start 231.394 124.587) (end 227.457 128.524) (width 0.508) (layer F.Cu) (net 31) (tstamp 568A947D))
  (segment (start 255.524 124.587) (end 231.394 124.587) (width 0.508) (layer F.Cu) (net 31) (tstamp 568A9479))
  (segment (start 255.9685 124.1425) (end 255.524 124.587) (width 0.508) (layer F.Cu) (net 31) (tstamp 568A9477))
  (segment (start 255.9685 115.8875) (end 255.9685 124.1425) (width 0.508) (layer F.Cu) (net 31) (tstamp 568A9472))
  (segment (start 258.191 113.665) (end 255.9685 115.8875) (width 0.508) (layer F.Cu) (net 31) (tstamp 568A946C))
  (segment (start 281.178 114.046) (end 281.178 114.427) (width 0.508) (layer F.Cu) (net 32))
  (segment (start 281.813 115.062) (end 281.813 116.078) (width 0.508) (layer F.Cu) (net 32) (tstamp 568A8DF0))
  (segment (start 281.178 114.427) (end 281.813 115.062) (width 0.508) (layer F.Cu) (net 32) (tstamp 568A8DEE))
  (segment (start 281.813 143.891) (end 282.956 143.891) (width 0.508) (layer F.Cu) (net 33))
  (segment (start 283.21 140.335) (end 282.448 139.573) (width 0.508) (layer F.Cu) (net 33) (tstamp 568A8A71))
  (segment (start 283.21 143.637) (end 283.21 140.335) (width 0.508) (layer F.Cu) (net 33) (tstamp 568A8A70))
  (segment (start 282.956 143.891) (end 283.21 143.637) (width 0.508) (layer F.Cu) (net 33) (tstamp 568A8A6E))
  (segment (start 265.684 116.332) (end 265.684 125.857) (width 0.508) (layer F.Cu) (net 34))
  (segment (start 233.807 129.7305) (end 233.807 131.953) (width 0.508) (layer F.Cu) (net 34) (tstamp 568A91EB))
  (segment (start 236.7915 126.746) (end 233.807 129.7305) (width 0.508) (layer F.Cu) (net 34) (tstamp 568A91E3))
  (segment (start 264.795 126.746) (end 236.7915 126.746) (width 0.508) (layer F.Cu) (net 34) (tstamp 568A91DF))
  (segment (start 265.684 125.857) (end 264.795 126.746) (width 0.508) (layer F.Cu) (net 34) (tstamp 568A91DD))
  (segment (start 190.8175 139.573) (end 190.8175 139.6365) (width 0.508) (layer F.Cu) (net 35))
  (segment (start 203.6445 141.732) (end 205.74 141.732) (width 0.508) (layer F.Cu) (net 35) (tstamp 568A994B))
  (segment (start 202.6285 142.748) (end 203.6445 141.732) (width 0.508) (layer F.Cu) (net 35) (tstamp 568A994A))
  (segment (start 193.929 142.748) (end 202.6285 142.748) (width 0.508) (layer F.Cu) (net 35) (tstamp 568A9946))
  (segment (start 190.8175 139.6365) (end 193.929 142.748) (width 0.508) (layer F.Cu) (net 35) (tstamp 568A9943))

)
