EESchema Schematic File Version 2
LIBS:power
LIBS:device
LIBS:transistors
LIBS:conn
LIBS:linear
LIBS:regul
LIBS:74xx
LIBS:cmos4000
LIBS:adc-dac
LIBS:memory
LIBS:xilinx
LIBS:special
LIBS:microcontrollers
LIBS:dsp
LIBS:microchip
LIBS:analog_switches
LIBS:motorola
LIBS:texas
LIBS:intel
LIBS:audio
LIBS:interface
LIBS:digital-audio
LIBS:philips
LIBS:display
LIBS:cypress
LIBS:siliconi
LIBS:opto
LIBS:atmel
LIBS:contrib
LIBS:valves
LIBS:custom_components
EELAYER 27 0
EELAYER END
$Descr A4 11693 8268
encoding utf-8
Sheet 1 1
Title ""
Date "4 jan 2016"
Rev ""
Comp ""
Comment1 ""
Comment2 ""
Comment3 ""
Comment4 ""
$EndDescr
$Comp
L 4DIG7SEG D1
U 1 1 568A16F0
P 4550 4050
F 0 "D1" H 5200 3950 60  0000 C CNN
F 1 "4DIG7SEG" H 5350 4150 60  0000 C CNN
F 2 "~" H 4950 4150 60  0000 C CNN
F 3 "~" H 4950 4150 60  0000 C CNN
	1    4550 4050
	1    0    0    -1  
$EndComp
$Comp
L VALCODER VC1
U 1 1 568A1721
P 9100 3750
F 0 "VC1" H 9600 3650 60  0000 C CNN
F 1 "VALCODER" H 9750 3850 60  0000 C CNN
F 2 "~" H 9200 3750 60  0000 C CNN
F 3 "~" H 9200 3750 60  0000 C CNN
	1    9100 3750
	1    0    0    -1  
$EndComp
$Comp
L NPN Q1
U 1 1 568A1738
P 5900 4100
F 0 "Q1" H 5900 3950 50  0000 R CNN
F 1 "NPN" H 5900 4250 50  0000 R CNN
F 2 "~" H 5900 4100 60  0000 C CNN
F 3 "~" H 5900 4100 60  0000 C CNN
	1    5900 4100
	1    0    0    -1  
$EndComp
$Comp
L R R9
U 1 1 568A174D
P 5700 4450
F 0 "R9" V 5780 4450 40  0000 C CNN
F 1 "1k" H 5707 4451 40  0000 C CNN
F 2 "~" V 5630 4450 30  0000 C CNN
F 3 "~" H 5700 4450 30  0000 C CNN
	1    5700 4450
	-1   0    0    1   
$EndComp
$Comp
L SPEAKER SP1
U 1 1 568A1761
P 4100 6100
F 0 "SP1" H 4000 6350 70  0000 C CNN
F 1 "SPEAKER" H 4000 5850 70  0000 C CNN
F 2 "~" H 4100 6100 60  0000 C CNN
F 3 "~" H 4100 6100 60  0000 C CNN
	1    4100 6100
	1    0    0    -1  
$EndComp
$Comp
L GND #PWR01
U 1 1 568A191F
P 6500 4450
F 0 "#PWR01" H 6500 4450 30  0001 C CNN
F 1 "GND" H 6500 4380 30  0001 C CNN
F 2 "" H 6500 4450 60  0000 C CNN
F 3 "" H 6500 4450 60  0000 C CNN
	1    6500 4450
	1    0    0    -1  
$EndComp
$Comp
L PWR_FLAG #FLG02
U 1 1 568A192E
P 10800 2950
F 0 "#FLG02" H 10800 3045 30  0001 C CNN
F 1 "PWR_FLAG" H 10800 3130 30  0000 C CNN
F 2 "" H 10800 2950 60  0000 C CNN
F 3 "" H 10800 2950 60  0000 C CNN
	1    10800 2950
	1    0    0    -1  
$EndComp
$Comp
L VCC #PWR03
U 1 1 568A193D
P 10500 2900
F 0 "#PWR03" H 10500 3000 30  0001 C CNN
F 1 "VCC" H 10500 3000 30  0000 C CNN
F 2 "" H 10500 2900 60  0000 C CNN
F 3 "" H 10500 2900 60  0000 C CNN
	1    10500 2900
	1    0    0    -1  
$EndComp
$Comp
L NPN Q2
U 1 1 568A19AB
P 6400 4100
F 0 "Q2" H 6400 3950 50  0000 R CNN
F 1 "NPN" H 6400 4250 50  0000 R CNN
F 2 "~" H 6400 4100 60  0000 C CNN
F 3 "~" H 6400 4100 60  0000 C CNN
	1    6400 4100
	1    0    0    -1  
$EndComp
$Comp
L NPN Q3
U 1 1 568A19BB
P 6900 4100
F 0 "Q3" H 6900 3950 50  0000 R CNN
F 1 "NPN" H 6900 4250 50  0000 R CNN
F 2 "~" H 6900 4100 60  0000 C CNN
F 3 "~" H 6900 4100 60  0000 C CNN
	1    6900 4100
	1    0    0    -1  
$EndComp
$Comp
L NPN Q4
U 1 1 568A19C1
P 7400 4100
F 0 "Q4" H 7400 3950 50  0000 R CNN
F 1 "NPN" H 7400 4250 50  0000 R CNN
F 2 "~" H 7400 4100 60  0000 C CNN
F 3 "~" H 7400 4100 60  0000 C CNN
	1    7400 4100
	1    0    0    -1  
$EndComp
Wire Wire Line
	6000 3900 6000 3250
Wire Wire Line
	6000 3250 4150 3250
Wire Wire Line
	4150 3250 4150 3400
Wire Wire Line
	6500 3900 6500 3150
Wire Wire Line
	6500 3150 4600 3150
Wire Wire Line
	4600 3150 4600 3400
Wire Wire Line
	7000 3900 7000 3050
Wire Wire Line
	7000 3050 4750 3050
Wire Wire Line
	4750 3050 4750 3400
Wire Wire Line
	7500 3900 7500 2950
Wire Wire Line
	7500 2950 5200 2950
Wire Wire Line
	5200 2950 5200 4800
Wire Wire Line
	5200 4800 4900 4800
Wire Wire Line
	4900 4800 4900 4700
$Comp
L GND #PWR04
U 1 1 568A1A0E
P 6000 4450
F 0 "#PWR04" H 6000 4450 30  0001 C CNN
F 1 "GND" H 6000 4380 30  0001 C CNN
F 2 "" H 6000 4450 60  0000 C CNN
F 3 "" H 6000 4450 60  0000 C CNN
	1    6000 4450
	1    0    0    -1  
$EndComp
$Comp
L GND #PWR05
U 1 1 568A1A20
P 7000 4450
F 0 "#PWR05" H 7000 4450 30  0001 C CNN
F 1 "GND" H 7000 4380 30  0001 C CNN
F 2 "" H 7000 4450 60  0000 C CNN
F 3 "" H 7000 4450 60  0000 C CNN
	1    7000 4450
	1    0    0    -1  
$EndComp
$Comp
L GND #PWR06
U 1 1 568A1A26
P 7500 4450
F 0 "#PWR06" H 7500 4450 30  0001 C CNN
F 1 "GND" H 7500 4380 30  0001 C CNN
F 2 "" H 7500 4450 60  0000 C CNN
F 3 "" H 7500 4450 60  0000 C CNN
	1    7500 4450
	1    0    0    -1  
$EndComp
Wire Wire Line
	7500 4300 7500 4450
Wire Wire Line
	7000 4300 7000 4450
Wire Wire Line
	6500 4300 6500 4450
Wire Wire Line
	6000 4300 6000 4450
$Comp
L R R10
U 1 1 568A1A7F
P 6200 4450
F 0 "R10" V 6280 4450 40  0000 C CNN
F 1 "1k" H 6207 4451 40  0000 C CNN
F 2 "~" V 6130 4450 30  0000 C CNN
F 3 "~" H 6200 4450 30  0000 C CNN
	1    6200 4450
	-1   0    0    1   
$EndComp
$Comp
L R R11
U 1 1 568A1A85
P 6700 4450
F 0 "R11" V 6780 4450 40  0000 C CNN
F 1 "1k" H 6707 4451 40  0000 C CNN
F 2 "~" V 6630 4450 30  0000 C CNN
F 3 "~" H 6700 4450 30  0000 C CNN
	1    6700 4450
	-1   0    0    1   
$EndComp
$Comp
L R R12
U 1 1 568A1A8B
P 7200 4450
F 0 "R12" V 7280 4450 40  0000 C CNN
F 1 "1k" H 7207 4451 40  0000 C CNN
F 2 "~" V 7130 4450 30  0000 C CNN
F 3 "~" H 7200 4450 30  0000 C CNN
	1    7200 4450
	-1   0    0    1   
$EndComp
Wire Wire Line
	5700 4100 5700 4200
Wire Wire Line
	6200 4100 6200 4200
Wire Wire Line
	6700 4100 6700 4200
Wire Wire Line
	7200 4100 7200 4200
Text Label 5700 4800 3    60   ~ 0
digit1
Text Label 6200 4800 3    60   ~ 0
digit2
Text Label 6700 4800 3    60   ~ 0
digit3
Text Label 7200 4800 3    60   ~ 0
digit4
Wire Wire Line
	5700 4700 5700 4800
Wire Wire Line
	6200 4700 6200 4800
Wire Wire Line
	6700 4800 6700 4700
Wire Wire Line
	7200 4800 7200 4700
$Comp
L R R3
U 1 1 568A1BE2
P 3650 3200
F 0 "R3" V 3730 3200 40  0000 C CNN
F 1 "150" V 3657 3201 40  0000 C CNN
F 2 "~" V 3580 3200 30  0000 C CNN
F 3 "~" H 3650 3200 30  0000 C CNN
	1    3650 3200
	0    1    1    0   
$EndComp
Wire Wire Line
	3900 3200 4300 3200
Wire Wire Line
	4300 3200 4300 3400
$Comp
L R R2
U 1 1 568A1C12
P 3650 3050
F 0 "R2" V 3730 3050 40  0000 C CNN
F 1 "150" V 3657 3051 40  0000 C CNN
F 2 "~" V 3580 3050 30  0000 C CNN
F 3 "~" H 3650 3050 30  0000 C CNN
	1    3650 3050
	0    1    1    0   
$EndComp
Wire Wire Line
	3900 3050 4450 3050
Wire Wire Line
	4450 3050 4450 3400
$Comp
L R R1
U 1 1 568A1C35
P 3650 2900
F 0 "R1" V 3730 2900 40  0000 C CNN
F 1 "150" V 3657 2901 40  0000 C CNN
F 2 "~" V 3580 2900 30  0000 C CNN
F 3 "~" H 3650 2900 30  0000 C CNN
	1    3650 2900
	0    1    1    0   
$EndComp
Wire Wire Line
	3900 2900 4900 2900
Wire Wire Line
	4900 2900 4900 3400
$Comp
L R R4
U 1 1 568A1C5A
P 3650 4700
F 0 "R4" V 3730 4700 40  0000 C CNN
F 1 "150" V 3657 4701 40  0000 C CNN
F 2 "~" V 3580 4700 30  0000 C CNN
F 3 "~" H 3650 4700 30  0000 C CNN
	1    3650 4700
	0    1    1    0   
$EndComp
Wire Wire Line
	3900 4700 4150 4700
$Comp
L R R5
U 1 1 568A1C81
P 3650 4850
F 0 "R5" V 3730 4850 40  0000 C CNN
F 1 "150" V 3657 4851 40  0000 C CNN
F 2 "~" V 3580 4850 30  0000 C CNN
F 3 "~" H 3650 4850 30  0000 C CNN
	1    3650 4850
	0    1    1    0   
$EndComp
Wire Wire Line
	3900 4850 4300 4850
Wire Wire Line
	4300 4850 4300 4700
$Comp
L R R6
U 1 1 568A1CA9
P 3650 5000
F 0 "R6" V 3730 5000 40  0000 C CNN
F 1 "150" V 3657 5001 40  0000 C CNN
F 2 "~" V 3580 5000 30  0000 C CNN
F 3 "~" H 3650 5000 30  0000 C CNN
	1    3650 5000
	0    1    1    0   
$EndComp
Wire Wire Line
	3900 5000 4450 5000
Wire Wire Line
	4450 5000 4450 4700
$Comp
L R R7
U 1 1 568A1CD3
P 3650 5150
F 0 "R7" V 3730 5150 40  0000 C CNN
F 1 "150" V 3657 5151 40  0000 C CNN
F 2 "~" V 3580 5150 30  0000 C CNN
F 3 "~" H 3650 5150 30  0000 C CNN
	1    3650 5150
	0    1    1    0   
$EndComp
Wire Wire Line
	3900 5150 4600 5150
Wire Wire Line
	4600 5150 4600 4700
$Comp
L R R8
U 1 1 568A1CFF
P 3650 5300
F 0 "R8" V 3730 5300 40  0000 C CNN
F 1 "150" V 3657 5301 40  0000 C CNN
F 2 "~" V 3580 5300 30  0000 C CNN
F 3 "~" H 3650 5300 30  0000 C CNN
	1    3650 5300
	0    1    1    0   
$EndComp
Wire Wire Line
	3900 5300 4750 5300
Wire Wire Line
	4750 5300 4750 4700
Text Label 3300 2900 2    60   ~ 0
segB
Text Label 3300 3050 2    60   ~ 0
segF
Text Label 3300 3200 2    60   ~ 0
segA
Text Label 3300 4700 2    60   ~ 0
segE
Text Label 3300 4850 2    60   ~ 0
segD
Text Label 3300 5000 2    60   ~ 0
segDP
Text Label 3300 5150 2    60   ~ 0
segC
Text Label 3300 5300 2    60   ~ 0
segG
Wire Wire Line
	3400 2900 3300 2900
Wire Wire Line
	3400 3050 3300 3050
Wire Wire Line
	3400 3200 3300 3200
Wire Wire Line
	3400 4700 3300 4700
Wire Wire Line
	3400 4850 3300 4850
Wire Wire Line
	3400 5000 3300 5000
Wire Wire Line
	3400 5150 3300 5150
Wire Wire Line
	3400 5300 3300 5300
$Comp
L GND #PWR07
U 1 1 568A1F1F
P 9100 4450
F 0 "#PWR07" H 9100 4450 30  0001 C CNN
F 1 "GND" H 9100 4380 30  0001 C CNN
F 2 "" H 9100 4450 60  0000 C CNN
F 3 "" H 9100 4450 60  0000 C CNN
	1    9100 4450
	1    0    0    -1  
$EndComp
$Comp
L GND #PWR08
U 1 1 568A1F39
P 9550 4450
F 0 "#PWR08" H 9550 4450 30  0001 C CNN
F 1 "GND" H 9550 4380 30  0001 C CNN
F 2 "" H 9550 4450 60  0000 C CNN
F 3 "" H 9550 4450 60  0000 C CNN
	1    9550 4450
	1    0    0    -1  
$EndComp
Wire Wire Line
	9550 4450 9550 3050
Wire Wire Line
	9550 3050 9300 3050
Wire Wire Line
	9300 3050 9300 3200
Wire Wire Line
	9100 4450 9100 4350
Text Label 8450 3100 2    60   ~ 0
valc1
Text Label 8450 4500 2    60   ~ 0
valc2
Text Label 8450 4650 2    60   ~ 0
valc3
Wire Wire Line
	8450 3100 8900 3100
Wire Wire Line
	8900 3100 8900 3200
Wire Wire Line
	8450 4500 8850 4500
Wire Wire Line
	8850 4500 8850 4350
Wire Wire Line
	8450 4650 9350 4650
Wire Wire Line
	9350 4650 9350 4350
$Comp
L LED D2
U 1 1 568A2057
P 10500 4050
F 0 "D2" H 10500 4150 50  0000 C CNN
F 1 "LED" H 10500 3950 50  0000 C CNN
F 2 "~" H 10500 4050 60  0000 C CNN
F 3 "~" H 10500 4050 60  0000 C CNN
	1    10500 4050
	0    1    1    0   
$EndComp
$Comp
L GND #PWR09
U 1 1 568A207D
P 10500 4450
F 0 "#PWR09" H 10500 4450 30  0001 C CNN
F 1 "GND" H 10500 4380 30  0001 C CNN
F 2 "" H 10500 4450 60  0000 C CNN
F 3 "" H 10500 4450 60  0000 C CNN
	1    10500 4450
	1    0    0    -1  
$EndComp
$Comp
L R R13
U 1 1 568A2083
P 10500 3500
F 0 "R13" V 10580 3500 40  0000 C CNN
F 1 "1k" H 10507 3501 40  0000 C CNN
F 2 "~" V 10430 3500 30  0000 C CNN
F 3 "~" H 10500 3500 30  0000 C CNN
	1    10500 3500
	-1   0    0    1   
$EndComp
Wire Wire Line
	10500 3750 10500 3850
Wire Wire Line
	10500 4250 10500 4450
Wire Wire Line
	10500 2900 10500 3250
$Comp
L PWR_FLAG #FLG010
U 1 1 568A2154
P 10800 4250
F 0 "#FLG010" H 10800 4345 30  0001 C CNN
F 1 "PWR_FLAG" H 10800 4430 30  0000 C CNN
F 2 "" H 10800 4250 60  0000 C CNN
F 3 "" H 10800 4250 60  0000 C CNN
	1    10800 4250
	1    0    0    -1  
$EndComp
Wire Wire Line
	10800 2950 10800 3100
Wire Wire Line
	10800 3100 10500 3100
Connection ~ 10500 3100
Wire Wire Line
	10800 4250 10800 4350
Wire Wire Line
	10800 4350 10500 4350
Connection ~ 10500 4350
$Comp
L GND #PWR011
U 1 1 568A21E5
P 3700 6600
F 0 "#PWR011" H 3700 6600 30  0001 C CNN
F 1 "GND" H 3700 6530 30  0001 C CNN
F 2 "" H 3700 6600 60  0000 C CNN
F 3 "" H 3700 6600 60  0000 C CNN
	1    3700 6600
	1    0    0    -1  
$EndComp
Wire Wire Line
	3800 6200 3700 6200
Wire Wire Line
	3700 6200 3700 6600
Text Label 3200 6000 2    60   ~ 0
spk
Wire Wire Line
	3200 6000 3800 6000
$Comp
L VCC #PWR012
U 1 1 568A232A
P 2500 2750
F 0 "#PWR012" H 2500 2850 30  0001 C CNN
F 1 "VCC" H 2500 2850 30  0000 C CNN
F 2 "" H 2500 2750 60  0000 C CNN
F 3 "" H 2500 2750 60  0000 C CNN
	1    2500 2750
	1    0    0    -1  
$EndComp
$Comp
L GND #PWR013
U 1 1 568A2378
P 2500 3100
F 0 "#PWR013" H 2500 3100 30  0001 C CNN
F 1 "GND" H 2500 3030 30  0001 C CNN
F 2 "" H 2500 3100 60  0000 C CNN
F 3 "" H 2500 3100 60  0000 C CNN
	1    2500 3100
	1    0    0    -1  
$EndComp
Wire Wire Line
	1500 2950 2500 2950
Wire Wire Line
	2500 2950 2500 3100
Wire Wire Line
	1500 2850 2500 2850
Wire Wire Line
	2500 2850 2500 2750
Text Label 1700 3850 0    60   ~ 0
segA
Text Label 1700 4050 0    60   ~ 0
segB
Text Label 1700 4550 0    60   ~ 0
segC
Text Label 1700 4650 0    60   ~ 0
segD
Text Label 1700 4750 0    60   ~ 0
segE
Text Label 1700 3950 0    60   ~ 0
segF
Text Label 1700 4350 0    60   ~ 0
segG
Text Label 1700 4450 0    60   ~ 0
segDP
Text Label 1700 3750 0    60   ~ 0
digit1
Text Label 1700 3650 0    60   ~ 0
digit2
Text Label 1700 4150 0    60   ~ 0
digit3
Text Label 1700 4250 0    60   ~ 0
digit4
Text Label 1700 3050 0    60   ~ 0
valc1
Text Label 1700 3150 0    60   ~ 0
valc2
Text Label 1700 3250 0    60   ~ 0
valc3
Text Label 1700 3550 0    60   ~ 0
spk
Wire Wire Line
	1700 3050 1500 3050
Wire Wire Line
	1700 3150 1500 3150
Wire Wire Line
	1700 3250 1500 3250
Wire Wire Line
	1700 3350 1500 3350
Wire Wire Line
	1700 3550 1500 3550
Wire Wire Line
	1700 3650 1500 3650
Wire Wire Line
	1700 3750 1500 3750
Wire Wire Line
	1700 3850 1500 3850
Wire Wire Line
	1700 3950 1500 3950
Wire Wire Line
	1700 4050 1500 4050
Wire Wire Line
	1700 4150 1500 4150
Wire Wire Line
	1700 4250 1500 4250
Wire Wire Line
	1700 4350 1500 4350
Wire Wire Line
	1700 4450 1500 4450
Wire Wire Line
	1700 4550 1500 4550
NoConn ~ 8900 4750
$Comp
L CONN_20 P1
U 1 1 568A821D
P 1150 3800
F 0 "P1" V 1100 3800 60  0000 C CNN
F 1 "CONN_20" V 1200 3800 60  0000 C CNN
F 2 "" H 1150 3800 60  0000 C CNN
F 3 "" H 1150 3800 60  0000 C CNN
	1    1150 3800
	-1   0    0    -1  
$EndComp
NoConn ~ 1500 3450
Wire Wire Line
	1700 4750 1500 4750
Wire Wire Line
	1500 4650 1700 4650
NoConn ~ 1700 3350
$EndSCHEMATC
