(export (version D)
  (design
    (source "/home/max/kicad/soldering_station_teatro/soldering_station_teatro/вторая версия/плата индикации и управления.sch")
    (date "Пн 04 янв 2016 23:04:38")
    (tool "eeschema (22-Jun-2014 BZR 4027)-stable"))
  (components
    (comp (ref D1)
      (value 4DIG7SEG)
      (libsource (lib custom_components) (part 4DIG7SEG))
      (sheetpath (names /) (tstamps /))
      (tstamp 568A16F0))
    (comp (ref VC1)
      (value VALCODER)
      (libsource (lib custom_components) (part VALCODER))
      (sheetpath (names /) (tstamps /))
      (tstamp 568A1721))
    (comp (ref Q1)
      (value NPN)
      (libsource (lib device) (part NPN))
      (sheetpath (names /) (tstamps /))
      (tstamp 568A1738))
    (comp (ref R9)
      (value 1k)
      (libsource (lib device) (part R))
      (sheetpath (names /) (tstamps /))
      (tstamp 568A174D))
    (comp (ref SP1)
      (value SPEAKER)
      (libsource (lib device) (part SPEAKER))
      (sheetpath (names /) (tstamps /))
      (tstamp 568A1761))
    (comp (ref Q2)
      (value NPN)
      (libsource (lib device) (part NPN))
      (sheetpath (names /) (tstamps /))
      (tstamp 568A19AB))
    (comp (ref Q3)
      (value NPN)
      (libsource (lib device) (part NPN))
      (sheetpath (names /) (tstamps /))
      (tstamp 568A19BB))
    (comp (ref Q4)
      (value NPN)
      (libsource (lib device) (part NPN))
      (sheetpath (names /) (tstamps /))
      (tstamp 568A19C1))
    (comp (ref R10)
      (value 1k)
      (libsource (lib device) (part R))
      (sheetpath (names /) (tstamps /))
      (tstamp 568A1A7F))
    (comp (ref R11)
      (value 1k)
      (libsource (lib device) (part R))
      (sheetpath (names /) (tstamps /))
      (tstamp 568A1A85))
    (comp (ref R12)
      (value 1k)
      (libsource (lib device) (part R))
      (sheetpath (names /) (tstamps /))
      (tstamp 568A1A8B))
    (comp (ref R3)
      (value 150)
      (libsource (lib device) (part R))
      (sheetpath (names /) (tstamps /))
      (tstamp 568A1BE2))
    (comp (ref R2)
      (value 150)
      (libsource (lib device) (part R))
      (sheetpath (names /) (tstamps /))
      (tstamp 568A1C12))
    (comp (ref R1)
      (value 150)
      (libsource (lib device) (part R))
      (sheetpath (names /) (tstamps /))
      (tstamp 568A1C35))
    (comp (ref R4)
      (value 150)
      (libsource (lib device) (part R))
      (sheetpath (names /) (tstamps /))
      (tstamp 568A1C5A))
    (comp (ref R5)
      (value 150)
      (libsource (lib device) (part R))
      (sheetpath (names /) (tstamps /))
      (tstamp 568A1C81))
    (comp (ref R6)
      (value 150)
      (libsource (lib device) (part R))
      (sheetpath (names /) (tstamps /))
      (tstamp 568A1CA9))
    (comp (ref R7)
      (value 150)
      (libsource (lib device) (part R))
      (sheetpath (names /) (tstamps /))
      (tstamp 568A1CD3))
    (comp (ref R8)
      (value 150)
      (libsource (lib device) (part R))
      (sheetpath (names /) (tstamps /))
      (tstamp 568A1CFF))
    (comp (ref D2)
      (value LED)
      (libsource (lib device) (part LED))
      (sheetpath (names /) (tstamps /))
      (tstamp 568A2057))
    (comp (ref R13)
      (value 1k)
      (libsource (lib device) (part R))
      (sheetpath (names /) (tstamps /))
      (tstamp 568A2083))
    (comp (ref P1)
      (value CONN_20)
      (libsource (lib conn) (part CONN_20))
      (sheetpath (names /) (tstamps /))
      (tstamp 568A821D)))
  (libparts
    (libpart (lib device) (part LED)
      (footprints
        (fp LED-3MM)
        (fp LED-5MM)
        (fp LED-10MM)
        (fp LED-0603)
        (fp LED-0805)
        (fp LED-1206)
        (fp LEDV))
      (fields
        (field (name Reference) D)
        (field (name Value) LED)
        (field (name Footprint) ~)
        (field (name Datasheet) ~))
      (pins
        (pin (num 1) (name A) (type passive))
        (pin (num 2) (name K) (type passive))))
    (libpart (lib device) (part NPN)
      (docs transistors/bipolar/*.*)
      (fields
        (field (name Reference) Q)
        (field (name Value) NPN)
        (field (name Footprint) ~)
        (field (name Datasheet) ~))
      (pins
        (pin (num 1) (name E) (type passive))
        (pin (num 2) (name B) (type input))
        (pin (num 3) (name C) (type passive))))
    (libpart (lib device) (part R)
      (description Resistance)
      (footprints
        (fp R?)
        (fp SM0603)
        (fp SM0805)
        (fp R?-*)
        (fp SM1206))
      (fields
        (field (name Reference) R)
        (field (name Value) R)
        (field (name Footprint) ~)
        (field (name Datasheet) ~))
      (pins
        (pin (num 1) (name ~) (type passive))
        (pin (num 2) (name ~) (type passive))))
    (libpart (lib device) (part SPEAKER)
      (fields
        (field (name Reference) SP)
        (field (name Value) SPEAKER)
        (field (name Footprint) ~)
        (field (name Datasheet) ~))
      (pins
        (pin (num 1) (name 1) (type input))
        (pin (num 2) (name 2) (type input))))
    (libpart (lib conn) (part CONN_20)
      (description "Symbole general de connexion")
      (fields
        (field (name Reference) P)
        (field (name Value) CONN_20))
      (pins
        (pin (num 1) (name P1) (type passive))
        (pin (num 2) (name P2) (type passive))
        (pin (num 3) (name P3) (type passive))
        (pin (num 4) (name P4) (type passive))
        (pin (num 5) (name P5) (type passive))
        (pin (num 6) (name P6) (type passive))
        (pin (num 7) (name P7) (type passive))
        (pin (num 8) (name P8) (type passive))
        (pin (num 9) (name P9) (type passive))
        (pin (num 10) (name P10) (type passive))
        (pin (num 11) (name P11) (type passive))
        (pin (num 12) (name P12) (type passive))
        (pin (num 13) (name P13) (type passive))
        (pin (num 14) (name P14) (type passive))
        (pin (num 15) (name P15) (type passive))
        (pin (num 16) (name P16) (type passive))
        (pin (num 17) (name P17) (type passive))
        (pin (num 18) (name P18) (type passive))
        (pin (num 19) (name P19) (type passive))
        (pin (num 20) (name P20) (type passive))))
    (libpart (lib custom_components) (part VALCODER)
      (fields
        (field (name Reference) VC)
        (field (name Value) VALCODER)
        (field (name Footprint) ~)
        (field (name Datasheet) ~))
      (pins
        (pin (num 1) (name ~) (type input))
        (pin (num 2) (name ~) (type input))
        (pin (num 3) (name ~) (type input))
        (pin (num 4) (name ~) (type input))
        (pin (num 5) (name ~) (type input))))
    (libpart (lib custom_components) (part 4DIG7SEG)
      (fields
        (field (name Reference) D)
        (field (name Value) 4DIG7SEG)
        (field (name Footprint) ~)
        (field (name Datasheet) ~))
      (pins
        (pin (num 1) (name c1) (type input))
        (pin (num 2) (name A) (type input))
        (pin (num 3) (name F) (type input))
        (pin (num 4) (name c2) (type input))
        (pin (num 5) (name c3) (type input))
        (pin (num 6) (name B) (type input))
        (pin (num 7) (name c4) (type input))
        (pin (num 8) (name G) (type input))
        (pin (num 9) (name C) (type input))
        (pin (num 10) (name dp) (type input))
        (pin (num 11) (name D) (type input))
        (pin (num 12) (name E) (type input)))))
  (libraries
    (library (logical custom_components)
      (uri custom_components.lib))
    (library (logical conn)
      (uri /usr/share/kicad/library/conn.lib))
    (library (logical device)
      (uri /usr/share/kicad/library/device.lib)))
  (nets
    (net (code 1) (name "")
      (node (ref D2) (pin 1))
      (node (ref R13) (pin 1)))
    (net (code 2) (name GND)
      (node (ref Q4) (pin 1))
      (node (ref Q3) (pin 1))
      (node (ref P1) (pin 2))
      (node (ref D2) (pin 2))
      (node (ref SP1) (pin 2))
      (node (ref Q1) (pin 1))
      (node (ref Q2) (pin 1))
      (node (ref VC1) (pin 2))
      (node (ref VC1) (pin 4)))
    (net (code 3) (name /spk)
      (node (ref P1) (pin 8))
      (node (ref SP1) (pin 1)))
    (net (code 4) (name VCC)
      (node (ref R13) (pin 2))
      (node (ref P1) (pin 1)))
    (net (code 5) (name /segDP)
      (node (ref P1) (pin 17))
      (node (ref R6) (pin 2)))
    (net (code 6) (name /segC)
      (node (ref R7) (pin 2))
      (node (ref P1) (pin 18)))
    (net (code 7) (name /segG)
      (node (ref P1) (pin 16))
      (node (ref R8) (pin 2)))
    (net (code 8) (name /valc1)
      (node (ref VC1) (pin 1))
      (node (ref P1) (pin 3)))
    (net (code 9) (name /valc2)
      (node (ref VC1) (pin 5))
      (node (ref P1) (pin 4)))
    (net (code 10) (name /valc3)
      (node (ref VC1) (pin 3))
      (node (ref P1) (pin 5)))
    (net (code 11) (name /segE)
      (node (ref P1) (pin 20))
      (node (ref R4) (pin 2)))
    (net (code 13) (name "")
      (node (ref P1) (pin 7)))
    (net (code 14) (name /digit4)
      (node (ref P1) (pin 15))
      (node (ref R12) (pin 1)))
    (net (code 15) (name /segD)
      (node (ref R5) (pin 2))
      (node (ref P1) (pin 19)))
    (net (code 16) (name "")
      (node (ref P1) (pin 6)))
    (net (code 17) (name /segA)
      (node (ref R3) (pin 2))
      (node (ref P1) (pin 11)))
    (net (code 18) (name /segB)
      (node (ref R1) (pin 2))
      (node (ref P1) (pin 13)))
    (net (code 19) (name /segF)
      (node (ref R2) (pin 2))
      (node (ref P1) (pin 12)))
    (net (code 20) (name /digit1)
      (node (ref R9) (pin 1))
      (node (ref P1) (pin 10)))
    (net (code 21) (name /digit2)
      (node (ref R10) (pin 1))
      (node (ref P1) (pin 9)))
    (net (code 22) (name /digit3)
      (node (ref R11) (pin 1))
      (node (ref P1) (pin 14)))
    (net (code 23) (name "")
      (node (ref Q3) (pin 3))
      (node (ref D1) (pin 5)))
    (net (code 24) (name "")
      (node (ref D1) (pin 4))
      (node (ref Q2) (pin 3)))
    (net (code 25) (name "")
      (node (ref D1) (pin 7))
      (node (ref Q4) (pin 3)))
    (net (code 26) (name "")
      (node (ref Q1) (pin 3))
      (node (ref D1) (pin 1)))
    (net (code 27) (name "")
      (node (ref R2) (pin 1))
      (node (ref D1) (pin 3)))
    (net (code 28) (name "")
      (node (ref Q1) (pin 2))
      (node (ref R9) (pin 2)))
    (net (code 29) (name "")
      (node (ref D1) (pin 10))
      (node (ref R6) (pin 1)))
    (net (code 30) (name "")
      (node (ref D1) (pin 6))
      (node (ref R1) (pin 1)))
    (net (code 31) (name "")
      (node (ref R4) (pin 1))
      (node (ref D1) (pin 12)))
    (net (code 32) (name "")
      (node (ref D1) (pin 11))
      (node (ref R5) (pin 1)))
    (net (code 33) (name "")
      (node (ref R7) (pin 1))
      (node (ref D1) (pin 9)))
    (net (code 34) (name "")
      (node (ref R8) (pin 1))
      (node (ref D1) (pin 8)))
    (net (code 35) (name "")
      (node (ref R10) (pin 2))
      (node (ref Q2) (pin 2)))
    (net (code 36) (name "")
      (node (ref Q3) (pin 2))
      (node (ref R11) (pin 2)))
    (net (code 37) (name "")
      (node (ref Q4) (pin 2))
      (node (ref R12) (pin 2)))
    (net (code 38) (name "")
      (node (ref R3) (pin 1))
      (node (ref D1) (pin 2)))))