(export (version D)
  (design
    (source "/home/max/av/!мое/паяние/kicad/паяльная станция teatro/переходник для ОУ/perehodnik_ou.sch")
    (date "Вс 13 сен 2015 12:31:42")
    (tool "eeschema (22-Jun-2014 BZR 4027)-stable"))
  (components
    (comp (ref U1)
      (value LM358)
      (libsource (lib linear) (part LM358))
      (sheetpath (names /) (tstamps /))
      (tstamp 55F50918))
    (comp (ref P1)
      (value CONN_8)
      (libsource (lib conn) (part CONN_8))
      (sheetpath (names /) (tstamps /))
      (tstamp 55F5096A)))
  (libparts
    (libpart (lib conn) (part CONN_8)
      (description "Symbole general de connecteur")
      (fields
        (field (name Reference) P)
        (field (name Value) CONN_8))
      (pins
        (pin (num 1) (name P1) (type passive))
        (pin (num 2) (name P2) (type passive))
        (pin (num 3) (name P3) (type passive))
        (pin (num 4) (name P4) (type passive))
        (pin (num 5) (name P5) (type passive))
        (pin (num 6) (name P6) (type passive))
        (pin (num 7) (name P7) (type passive))
        (pin (num 8) (name P8) (type passive))))
    (libpart (lib linear) (part LM358)
      (description "Dual Op amp (low power)")
      (docs ns/lm158.pdf)
      (fields
        (field (name Reference) U)
        (field (name Value) LM358))
      (pins
        (pin (num 1) (name ~) (type output))
        (pin (num 2) (name -) (type input))
        (pin (num 3) (name +) (type input))
        (pin (num 4) (name V-) (type power_in))
        (pin (num 5) (name +) (type input))
        (pin (num 6) (name -) (type input))
        (pin (num 7) (name ~) (type output))
        (pin (num 8) (name V+) (type power_in)))))
  (libraries
    (library (logical conn)
      (uri /usr/share/kicad/library/conn.lib))
    (library (logical linear)
      (uri /usr/share/kicad/library/linear.lib)))
  (nets
    (net (code 1) (name "")
      (node (ref U1) (pin 6))
      (node (ref P1) (pin 6)))
    (net (code 2) (name "")
      (node (ref P1) (pin 1))
      (node (ref U1) (pin 1)))
    (net (code 3) (name "")
      (node (ref U1) (pin 2))
      (node (ref P1) (pin 2)))
    (net (code 4) (name "")
      (node (ref U1) (pin 3))
      (node (ref P1) (pin 3)))
    (net (code 5) (name "")
      (node (ref U1) (pin 5))
      (node (ref P1) (pin 5)))
    (net (code 6) (name "")
      (node (ref P1) (pin 7))
      (node (ref U1) (pin 7)))
    (net (code 7) (name +5V)
      (node (ref P1) (pin 8))
      (node (ref U1) (pin 8)))
    (net (code 8) (name GND)
      (node (ref U1) (pin 4))
      (node (ref P1) (pin 4)))))