(kicad_pcb (version 3) (host pcbnew "(22-Jun-2014 BZR 4027)-stable")

  (general
    (links 8)
    (no_connects 0)
    (area 357.101429 156.651 381.254001 182.626001)
    (thickness 1.6)
    (drawings 8)
    (tracks 29)
    (zones 0)
    (modules 2)
    (nets 9)
  )

  (page A4)
  (layers
    (15 F.Cu signal)
    (0 B.Cu signal)
    (16 B.Adhes user)
    (17 F.Adhes user)
    (18 B.Paste user)
    (19 F.Paste user)
    (20 B.SilkS user)
    (21 F.SilkS user)
    (22 B.Mask user)
    (23 F.Mask user)
    (24 Dwgs.User user)
    (25 Cmts.User user)
    (26 Eco1.User user)
    (27 Eco2.User user)
    (28 Edge.Cuts user)
  )

  (setup
    (last_trace_width 0.508)
    (trace_clearance 0.254)
    (zone_clearance 0.508)
    (zone_45_only no)
    (trace_min 0.254)
    (segment_width 0.2)
    (edge_width 0.1)
    (via_size 0.889)
    (via_drill 0.635)
    (via_min_size 0.889)
    (via_min_drill 0.508)
    (uvia_size 0.508)
    (uvia_drill 0.127)
    (uvias_allowed no)
    (uvia_min_size 0.508)
    (uvia_min_drill 0.127)
    (pcb_text_width 0.3)
    (pcb_text_size 1.5 1.5)
    (mod_edge_width 0.15)
    (mod_text_size 1 1)
    (mod_text_width 0.15)
    (pad_size 1.5 1.5)
    (pad_drill 0.6)
    (pad_to_mask_clearance 0)
    (aux_axis_origin 0 0)
    (visible_elements FFFFFFBF)
    (pcbplotparams
      (layerselection 1)
      (usegerberextensions false)
      (excludeedgelayer true)
      (linewidth 0.150000)
      (plotframeref false)
      (viasonmask false)
      (mode 1)
      (useauxorigin false)
      (hpglpennumber 1)
      (hpglpenspeed 20)
      (hpglpendiameter 15)
      (hpglpenoverlay 2)
      (psnegative false)
      (psa4output false)
      (plotreference true)
      (plotvalue true)
      (plotothertext true)
      (plotinvisibletext false)
      (padsonsilk false)
      (subtractmaskfromsilk false)
      (outputformat 2)
      (mirror false)
      (drillshape 0)
      (scaleselection 1)
      (outputdirectory ""))
  )

  (net 0 "")
  (net 1 +5V)
  (net 2 GND)
  (net 3 N-000001)
  (net 4 N-000002)
  (net 5 N-000003)
  (net 6 N-000004)
  (net 7 N-000005)
  (net 8 N-000006)

  (net_class Default "Это класс цепей по умолчанию."
    (clearance 0.254)
    (trace_width 0.508)
    (via_dia 0.889)
    (via_drill 0.635)
    (uvia_dia 0.508)
    (uvia_drill 0.127)
    (add_net "")
    (add_net +5V)
    (add_net GND)
    (add_net N-000001)
    (add_net N-000002)
    (add_net N-000003)
    (add_net N-000004)
    (add_net N-000005)
    (add_net N-000006)
  )

  (module SO8E (layer B.Cu) (tedit 4F33A5C7) (tstamp 55F50B9E)
    (at 250.19 88.392 90)
    (descr "module CMS SOJ 8 pins etroit")
    (tags "CMS SOJ")
    (path /55F50918)
    (attr smd)
    (fp_text reference U1 (at 0 0.889 90) (layer B.SilkS)
      (effects (font (size 1.143 1.143) (thickness 0.1524)) (justify mirror))
    )
    (fp_text value LM358 (at 0 -1.016 90) (layer B.SilkS)
      (effects (font (size 0.889 0.889) (thickness 0.1524)) (justify mirror))
    )
    (fp_line (start -2.667 -1.778) (end -2.667 -1.905) (layer B.SilkS) (width 0.127))
    (fp_line (start -2.667 -1.905) (end 2.667 -1.905) (layer B.SilkS) (width 0.127))
    (fp_line (start 2.667 1.905) (end -2.667 1.905) (layer B.SilkS) (width 0.127))
    (fp_line (start -2.667 1.905) (end -2.667 -1.778) (layer B.SilkS) (width 0.127))
    (fp_line (start -2.667 0.508) (end -2.159 0.508) (layer B.SilkS) (width 0.127))
    (fp_line (start -2.159 0.508) (end -2.159 -0.508) (layer B.SilkS) (width 0.127))
    (fp_line (start -2.159 -0.508) (end -2.667 -0.508) (layer B.SilkS) (width 0.127))
    (fp_line (start 2.667 1.905) (end 2.667 -1.905) (layer B.SilkS) (width 0.127))
    (pad 8 smd rect (at -1.905 2.667 90) (size 0.59944 1.39954)
      (layers B.Cu B.Paste B.Mask)
      (net 1 +5V)
    )
    (pad 1 smd rect (at -1.905 -2.667 90) (size 0.59944 1.39954)
      (layers B.Cu B.Paste B.Mask)
      (net 4 N-000002)
    )
    (pad 7 smd rect (at -0.635 2.667 90) (size 0.59944 1.39954)
      (layers B.Cu B.Paste B.Mask)
      (net 8 N-000006)
    )
    (pad 6 smd rect (at 0.635 2.667 90) (size 0.59944 1.39954)
      (layers B.Cu B.Paste B.Mask)
      (net 3 N-000001)
    )
    (pad 5 smd rect (at 1.905 2.667 90) (size 0.59944 1.39954)
      (layers B.Cu B.Paste B.Mask)
      (net 7 N-000005)
    )
    (pad 2 smd rect (at -0.635 -2.667 90) (size 0.59944 1.39954)
      (layers B.Cu B.Paste B.Mask)
      (net 5 N-000003)
    )
    (pad 3 smd rect (at 0.635 -2.667 90) (size 0.59944 1.39954)
      (layers B.Cu B.Paste B.Mask)
      (net 6 N-000004)
    )
    (pad 4 smd rect (at 1.905 -2.667 90) (size 0.59944 1.39954)
      (layers B.Cu B.Paste B.Mask)
      (net 2 GND)
    )
    (model smd/cms_so8.wrl
      (at (xyz 0 0 0))
      (scale (xyz 0.5 0.32 0.5))
      (rotate (xyz 0 0 0))
    )
  )

  (module mbm_conn8 (layer B.Cu) (tedit 55F50AFC) (tstamp 55F50BAA)
    (at 241.3 81.534)
    (path /55F5096A)
    (fp_text reference P1 (at 1.27 -2.54) (layer B.SilkS)
      (effects (font (size 1 1) (thickness 0.15)) (justify mirror))
    )
    (fp_text value CONN_8 (at 1.27 -3.81) (layer B.SilkS)
      (effects (font (size 1 1) (thickness 0.15)) (justify mirror))
    )
    (pad 1 thru_hole rect (at 0 0) (size 1.5 2.54) (drill 0.6)
      (layers *.Cu *.Mask B.SilkS)
      (net 4 N-000002)
    )
    (pad 2 thru_hole rect (at 2.54 0) (size 1.5 2.54) (drill 0.6)
      (layers *.Cu *.Mask B.SilkS)
      (net 5 N-000003)
    )
    (pad 3 thru_hole rect (at 5.08 0) (size 1.5 2.54) (drill 0.6)
      (layers *.Cu *.Mask B.SilkS)
      (net 6 N-000004)
    )
    (pad 4 thru_hole rect (at 7.62 0) (size 1.5 2.54) (drill 0.6)
      (layers *.Cu *.Mask B.SilkS)
      (net 2 GND)
    )
    (pad 5 thru_hole rect (at 10.16 0) (size 1.5 2.54) (drill 0.6)
      (layers *.Cu *.Mask B.SilkS)
      (net 7 N-000005)
    )
    (pad 6 thru_hole rect (at 12.7 0) (size 1.5 2.54) (drill 0.6)
      (layers *.Cu *.Mask B.SilkS)
      (net 3 N-000001)
    )
    (pad 7 thru_hole rect (at 15.24 0) (size 1.5 2.54) (drill 0.6)
      (layers *.Cu *.Mask B.SilkS)
      (net 8 N-000006)
    )
    (pad 8 thru_hole rect (at 17.78 0) (size 1.5 2.54) (drill 0.6)
      (layers *.Cu *.Mask B.SilkS)
      (net 1 +5V)
    )
  )

  (gr_text VCC (at 259.08 94.488 90) (layer B.Cu)
    (effects (font (size 1.5 1.5) (thickness 0.3)) (justify mirror))
  )
  (gr_text "OUT 2" (at 256.54 95.504 90) (layer B.Cu)
    (effects (font (size 1.5 1.5) (thickness 0.3)) (justify mirror))
  )
  (gr_text "INP 2 -" (at 254 97.028 90) (layer B.Cu)
    (effects (font (size 1.5 1.5) (thickness 0.3)) (justify mirror))
  )
  (gr_text "INP 2 +" (at 251.46 97.028 90) (layer B.Cu)
    (effects (font (size 1.5 1.5) (thickness 0.3)) (justify mirror))
  )
  (gr_text GND (at 248.92 94.488 90) (layer B.Cu)
    (effects (font (size 1.5 1.5) (thickness 0.3)) (justify mirror))
  )
  (gr_text "INP 1 +" (at 246.38 97.028 90) (layer B.Cu)
    (effects (font (size 1.5 1.5) (thickness 0.3)) (justify mirror))
  )
  (gr_text "INP 1 -" (at 243.84 97.028 90) (layer B.Cu)
    (effects (font (size 1.5 1.5) (thickness 0.3)) (justify mirror))
  )
  (gr_text "OUT 1" (at 241.3 95.504 90) (layer B.Cu)
    (effects (font (size 1.5 1.5) (thickness 0.3)) (justify mirror))
  )

  (segment (start 261.62 80.264) (end 261.62 102.616) (width 0.508) (layer B.Cu) (net 0))
  (segment (start 239.268 102.616) (end 239.268 80.264) (width 0.508) (layer B.Cu) (net 0) (tstamp 55F50E73))
  (segment (start 261.62 102.616) (end 239.268 102.616) (width 0.508) (layer B.Cu) (net 0) (tstamp 55F50E6F))
  (segment (start 259.08 81.534) (end 259.08 88.646) (width 0.508) (layer B.Cu) (net 1))
  (segment (start 257.429 90.297) (end 252.857 90.297) (width 0.508) (layer B.Cu) (net 1) (tstamp 55F50D17))
  (segment (start 259.08 88.646) (end 257.429 90.297) (width 0.508) (layer B.Cu) (net 1) (tstamp 55F50D14))
  (segment (start 248.92 81.534) (end 248.92 85.09) (width 0.508) (layer B.Cu) (net 2))
  (segment (start 248.92 85.09) (end 247.523 86.487) (width 0.508) (layer B.Cu) (net 2) (tstamp 55F50CDD))
  (segment (start 254 81.534) (end 254 83.566) (width 0.508) (layer B.Cu) (net 3))
  (segment (start 254.889 87.757) (end 252.857 87.757) (width 0.508) (layer B.Cu) (net 3) (tstamp 55F50D01))
  (segment (start 255.27 87.376) (end 254.889 87.757) (width 0.508) (layer B.Cu) (net 3) (tstamp 55F50D00))
  (segment (start 255.27 84.836) (end 255.27 87.376) (width 0.508) (layer B.Cu) (net 3) (tstamp 55F50CFF))
  (segment (start 254 83.566) (end 255.27 84.836) (width 0.508) (layer B.Cu) (net 3) (tstamp 55F50CFE))
  (segment (start 241.3 81.534) (end 241.3 88.646) (width 0.508) (layer B.Cu) (net 4))
  (segment (start 242.951 90.297) (end 247.523 90.297) (width 0.508) (layer B.Cu) (net 4) (tstamp 55F50D25))
  (segment (start 241.3 88.646) (end 242.951 90.297) (width 0.508) (layer B.Cu) (net 4) (tstamp 55F50D20))
  (segment (start 243.84 81.534) (end 243.84 88.646) (width 0.508) (layer B.Cu) (net 5))
  (segment (start 244.221 89.027) (end 247.523 89.027) (width 0.508) (layer B.Cu) (net 5) (tstamp 55F50D11))
  (segment (start 243.84 88.646) (end 244.221 89.027) (width 0.508) (layer B.Cu) (net 5) (tstamp 55F50D0F))
  (segment (start 246.38 81.534) (end 246.38 83.566) (width 0.508) (layer B.Cu) (net 6))
  (segment (start 245.491 87.757) (end 247.523 87.757) (width 0.508) (layer B.Cu) (net 6) (tstamp 55F50CF3))
  (segment (start 245.11 87.376) (end 245.491 87.757) (width 0.508) (layer B.Cu) (net 6) (tstamp 55F50CF1))
  (segment (start 245.11 84.836) (end 245.11 87.376) (width 0.508) (layer B.Cu) (net 6) (tstamp 55F50CEE))
  (segment (start 246.38 83.566) (end 245.11 84.836) (width 0.508) (layer B.Cu) (net 6) (tstamp 55F50CED))
  (segment (start 251.46 81.534) (end 251.46 85.09) (width 0.508) (layer B.Cu) (net 7))
  (segment (start 251.46 85.09) (end 252.857 86.487) (width 0.508) (layer B.Cu) (net 7) (tstamp 55F50CDA))
  (segment (start 256.54 81.534) (end 256.54 88.646) (width 0.508) (layer B.Cu) (net 8))
  (segment (start 256.159 89.027) (end 252.857 89.027) (width 0.508) (layer B.Cu) (net 8) (tstamp 55F50D0C))
  (segment (start 256.54 88.646) (end 256.159 89.027) (width 0.508) (layer B.Cu) (net 8) (tstamp 55F50D0A))

)
