%!PS-Adobe-3.0
%%Creator: PCBNEW
%%CreationDate: Sun Sep 13 12:53:14 2015
%%Title: /home/max/av/!мое/паяние/kicad/паяльная станция teatro/переходник для ОУ/perehodnik_ou-B_Cu.ps
%%Pages: 1
%%PageOrder: Ascend
%%BoundingBox: 0 0 596 842
%%DocumentMedia: A4 595 842 0 () ()
%%Orientation: Landscape
%%EndComments
%%BeginProlog
/line { newpath moveto lineto stroke } bind def
/cir0 { newpath 0 360 arc stroke } bind def
/cir1 { newpath 0 360 arc gsave fill grestore stroke } bind def
/cir2 { newpath 0 360 arc gsave fill grestore stroke } bind def
/arc0 { newpath arc stroke } bind def
/arc1 { newpath 4 index 4 index moveto arc closepath gsave fill
    grestore stroke } bind def
/arc2 { newpath 4 index 4 index moveto arc closepath gsave fill
    grestore stroke } bind def
/poly0 { stroke } bind def
/poly1 { closepath gsave fill grestore stroke } bind def
/poly2 { closepath gsave fill grestore stroke } bind def
/rect0 { rectstroke } bind def
/rect1 { rectfill } bind def
/rect2 { rectfill } bind def
/linemode0 { 0 setlinecap 0 setlinejoin 0 setlinewidth } bind def
/linemode1 { 1 setlinecap 1 setlinejoin } bind def
/dashedline { [200] 100 setdash } bind def
/solidline { [] 0 setdash } bind def
/phantomshow { moveto
    /KicadFont findfont 0.000001 scalefont setfont
    show } bind def
/textshow { gsave
    findfont exch scalefont setfont concat 1 scale 0 0 moveto show
    } bind def
/reencodefont {
  findfont dup length dict begin
  { 1 index /FID ne
    { def }
    { pop pop } ifelse
  } forall
  /Encoding ISOLatin1Encoding def
  currentdict
  end } bind def
/KicadFont /Helvetica reencodefont definefont pop
/KicadFont-Bold /Helvetica-Bold reencodefont definefont pop
/KicadFont-Oblique /Helvetica-Oblique reencodefont definefont pop
/KicadFont-BoldOblique /Helvetica-BoldOblique reencodefont definefont pop
%%EndProlog
%%Page: 1 1
%%BeginPageSetup
gsave
0.0072 0.0072 scale
linemode1
82680 0 translate 90 rotate
59.0551 setlinewidth
%%EndPageSetup
0 0 0 setrgbcolor
0 0 0 setrgbcolor
118.11 setlinewidth
(VCC) 102000 45480 phantomshow
newpath
101648 46267.4 moveto
102239 46070.6 lineto
101648 45873.7 lineto
stroke
newpath
102183 45339.4 moveto
102211 45367.5 lineto
102239 45451.9 lineto
102239 45508.1 lineto
102211 45592.5 lineto
102155 45648.7 lineto
102098 45676.9 lineto
101986 45705 lineto
101902 45705 lineto
101789 45676.9 lineto
101733 45648.7 lineto
101677 45592.5 lineto
101648 45508.1 lineto
101648 45451.9 lineto
101677 45367.5 lineto
101705 45339.4 lineto
stroke
newpath
102183 44748.8 moveto
102211 44777 lineto
102239 44861.3 lineto
102239 44917.6 lineto
102211 45001.9 lineto
102155 45058.2 lineto
102098 45086.3 lineto
101986 45114.4 lineto
101902 45114.4 lineto
101789 45086.3 lineto
101733 45058.2 lineto
101677 45001.9 lineto
101648 44917.6 lineto
101648 44861.3 lineto
101677 44777 lineto
101705 44748.8 lineto
stroke
0 0 0 setrgbcolor
(OUT 2) 101000 45080 phantomshow
newpath
100648 46176.7 moveto
100648 46064.3 lineto
100677 46008 lineto
100733 45951.8 lineto
100845 45923.6 lineto
101042 45923.6 lineto
101155 45951.8 lineto
101211 46008 lineto
101239 46064.3 lineto
101239 46176.7 lineto
101211 46233 lineto
101155 46289.2 lineto
101042 46317.3 lineto
100845 46317.3 lineto
100733 46289.2 lineto
100677 46233 lineto
100648 46176.7 lineto
stroke
newpath
100648 45670.6 moveto
101127 45670.6 lineto
101183 45642.4 lineto
101211 45614.3 lineto
101239 45558.1 lineto
101239 45445.6 lineto
101211 45389.3 lineto
101183 45361.2 lineto
101127 45333.1 lineto
100648 45333.1 lineto
stroke
newpath
100648 45136.2 moveto
100648 44798.8 lineto
stroke
newpath
101239 44967.5 moveto
100648 44967.5 lineto
stroke
newpath
100705 44180.1 moveto
100677 44152 lineto
100648 44095.7 lineto
100648 43955.1 lineto
100677 43898.9 lineto
100705 43870.8 lineto
100761 43842.7 lineto
100817 43842.7 lineto
100902 43870.8 lineto
101239 44208.2 lineto
101239 43842.7 lineto
stroke
0 0 0 setrgbcolor
(INP 2 -) 100000 44480 phantomshow
newpath
100239 46181.3 moveto
99648.5 46181.3 lineto
stroke
newpath
100239 45900.1 moveto
99648.5 45900.1 lineto
100239 45562.7 lineto
99648.5 45562.7 lineto
stroke
newpath
100239 45281.5 moveto
99648.5 45281.5 lineto
99648.5 45056.5 lineto
99676.6 45000.2 lineto
99704.7 44972.1 lineto
99761 44944 lineto
99845.3 44944 lineto
99901.6 44972.1 lineto
99929.7 45000.2 lineto
99957.8 45056.5 lineto
99957.8 45281.5 lineto
stroke
newpath
99704.7 44269.1 moveto
99676.6 44241 lineto
99648.5 44184.7 lineto
99648.5 44044.1 lineto
99676.6 43987.9 lineto
99704.7 43959.8 lineto
99761 43931.6 lineto
99817.2 43931.6 lineto
99901.6 43959.8 lineto
100239 44297.2 lineto
100239 43931.6 lineto
stroke
newpath
100014 43228.6 moveto
100014 42778.7 lineto
stroke
0 0 0 setrgbcolor
(INP 2 +) 99000 44480 phantomshow
newpath
99239 46181.3 moveto
98648.5 46181.3 lineto
stroke
newpath
99239 45900.1 moveto
98648.5 45900.1 lineto
99239 45562.7 lineto
98648.5 45562.7 lineto
stroke
newpath
99239 45281.5 moveto
98648.5 45281.5 lineto
98648.5 45056.5 lineto
98676.6 45000.2 lineto
98704.7 44972.1 lineto
98761 44944 lineto
98845.3 44944 lineto
98901.6 44972.1 lineto
98929.7 45000.2 lineto
98957.8 45056.5 lineto
98957.8 45281.5 lineto
stroke
newpath
98704.7 44269.1 moveto
98676.6 44241 lineto
98648.5 44184.7 lineto
98648.5 44044.1 lineto
98676.6 43987.9 lineto
98704.7 43959.8 lineto
98761 43931.6 lineto
98817.2 43931.6 lineto
98901.6 43959.8 lineto
99239 44297.2 lineto
99239 43931.6 lineto
stroke
newpath
99014.1 43228.6 moveto
99014.1 42778.7 lineto
stroke
newpath
99239 43003.6 moveto
98789.1 43003.6 lineto
stroke
0 0 0 setrgbcolor
(GND) 98000 45480 phantomshow
newpath
97676.6 45929.9 moveto
97648.5 45986.2 lineto
97648.5 46070.6 lineto
97676.6 46154.9 lineto
97732.8 46211.2 lineto
97789.1 46239.3 lineto
97901.6 46267.4 lineto
97985.9 46267.4 lineto
98098.4 46239.3 lineto
98154.7 46211.2 lineto
98210.9 46154.9 lineto
98239 46070.6 lineto
98239 46014.3 lineto
98210.9 45929.9 lineto
98182.8 45901.8 lineto
97985.9 45901.8 lineto
97985.9 46014.3 lineto
stroke
newpath
98239 45648.7 moveto
97648.5 45648.7 lineto
98239 45311.3 lineto
97648.5 45311.3 lineto
stroke
newpath
98239 45030.1 moveto
97648.5 45030.1 lineto
97648.5 44889.4 lineto
97676.6 44805.1 lineto
97732.8 44748.8 lineto
97789.1 44720.7 lineto
97901.6 44692.6 lineto
97985.9 44692.6 lineto
98098.4 44720.7 lineto
98154.7 44748.8 lineto
98210.9 44805.1 lineto
98239 44889.4 lineto
98239 45030.1 lineto
stroke
0 0 0 setrgbcolor
(INP 1 +) 97000 44480 phantomshow
newpath
97239 46181.3 moveto
96648.5 46181.3 lineto
stroke
newpath
97239 45900.1 moveto
96648.5 45900.1 lineto
97239 45562.7 lineto
96648.5 45562.7 lineto
stroke
newpath
97239 45281.5 moveto
96648.5 45281.5 lineto
96648.5 45056.5 lineto
96676.6 45000.2 lineto
96704.7 44972.1 lineto
96761 44944 lineto
96845.3 44944 lineto
96901.6 44972.1 lineto
96929.7 45000.2 lineto
96957.8 45056.5 lineto
96957.8 45281.5 lineto
stroke
newpath
97239 43931.6 moveto
97239 44269.1 lineto
stroke
newpath
97239 44100.4 moveto
96648.5 44100.4 lineto
96732.8 44156.6 lineto
96789.1 44212.8 lineto
96817.2 44269.1 lineto
stroke
newpath
97014.1 43228.6 moveto
97014.1 42778.7 lineto
stroke
newpath
97239 43003.6 moveto
96789.1 43003.6 lineto
stroke
0 0 0 setrgbcolor
(INP 1 -) 96000 44480 phantomshow
newpath
96239 46181.3 moveto
95648.5 46181.3 lineto
stroke
newpath
96239 45900.1 moveto
95648.5 45900.1 lineto
96239 45562.7 lineto
95648.5 45562.7 lineto
stroke
newpath
96239 45281.5 moveto
95648.5 45281.5 lineto
95648.5 45056.5 lineto
95676.6 45000.2 lineto
95704.7 44972.1 lineto
95761 44944 lineto
95845.3 44944 lineto
95901.6 44972.1 lineto
95929.7 45000.2 lineto
95957.8 45056.5 lineto
95957.8 45281.5 lineto
stroke
newpath
96239 43931.6 moveto
96239 44269.1 lineto
stroke
newpath
96239 44100.4 moveto
95648.5 44100.4 lineto
95732.8 44156.6 lineto
95789.1 44212.8 lineto
95817.2 44269.1 lineto
stroke
newpath
96014.1 43228.6 moveto
96014.1 42778.7 lineto
stroke
0 0 0 setrgbcolor
(OUT 1) 95000 45080 phantomshow
newpath
94648.5 46176.7 moveto
94648.5 46064.3 lineto
94676.6 46008 lineto
94732.8 45951.8 lineto
94845.3 45923.6 lineto
95042.2 45923.6 lineto
95154.7 45951.8 lineto
95210.9 46008 lineto
95239 46064.3 lineto
95239 46176.7 lineto
95210.9 46233 lineto
95154.7 46289.2 lineto
95042.2 46317.3 lineto
94845.3 46317.3 lineto
94732.8 46289.2 lineto
94676.6 46233 lineto
94648.5 46176.7 lineto
stroke
newpath
94648.5 45670.6 moveto
95126.5 45670.6 lineto
95182.8 45642.4 lineto
95210.9 45614.3 lineto
95239 45558.1 lineto
95239 45445.6 lineto
95210.9 45389.3 lineto
95182.8 45361.2 lineto
95126.5 45333.1 lineto
94648.5 45333.1 lineto
stroke
newpath
94648.5 45136.2 moveto
94648.5 44798.8 lineto
stroke
newpath
95239 44967.5 moveto
94648.5 44967.5 lineto
stroke
newpath
95239 43842.7 moveto
95239 44180.1 lineto
stroke
newpath
95239 44011.4 moveto
94648.5 44011.4 lineto
94732.8 44067.6 lineto
94789.1 44123.9 lineto
94817.2 44180.1 lineto
stroke
0 0 0 setrgbcolor
59.0551 setlinewidth
newpath
99796 47041.5 moveto
99304 47041.5 lineto
99304 47218.5 lineto
99796 47218.5 lineto
99796 47041.5 lineto
poly1
0 0 0 setrgbcolor
newpath
97696 47041.5 moveto
97204 47041.5 lineto
97204 47218.5 lineto
97696 47218.5 lineto
97696 47041.5 lineto
poly1
0 0 0 setrgbcolor
newpath
99796 47541.5 moveto
99304 47541.5 lineto
99304 47718.5 lineto
99796 47718.5 lineto
99796 47541.5 lineto
poly1
0 0 0 setrgbcolor
newpath
99796 48041.5 moveto
99304 48041.5 lineto
99304 48218.5 lineto
99796 48218.5 lineto
99796 48041.5 lineto
poly1
0 0 0 setrgbcolor
newpath
99796 48541.5 moveto
99304 48541.5 lineto
99304 48718.5 lineto
99796 48718.5 lineto
99796 48541.5 lineto
poly1
0 0 0 setrgbcolor
newpath
97696 47541.5 moveto
97204 47541.5 lineto
97204 47718.5 lineto
97696 47718.5 lineto
97696 47541.5 lineto
poly1
0 0 0 setrgbcolor
newpath
97696 48041.5 moveto
97204 48041.5 lineto
97204 48218.5 lineto
97696 48218.5 lineto
97696 48041.5 lineto
poly1
0 0 0 setrgbcolor
newpath
97696 48541.5 moveto
97204 48541.5 lineto
97204 48718.5 lineto
97696 48718.5 lineto
97696 48541.5 lineto
poly1
0 0 0 setrgbcolor
newpath
94734.3 50109.5 moveto
94734.3 51050.5 lineto
95265.7 51050.5 lineto
95265.7 50109.5 lineto
94734.3 50109.5 lineto
poly1
0 0 0 setrgbcolor
newpath
95734.3 50109.5 moveto
95734.3 51050.5 lineto
96265.7 51050.5 lineto
96265.7 50109.5 lineto
95734.3 50109.5 lineto
poly1
0 0 0 setrgbcolor
newpath
96734.3 50109.5 moveto
96734.3 51050.5 lineto
97265.7 51050.5 lineto
97265.7 50109.5 lineto
96734.3 50109.5 lineto
poly1
0 0 0 setrgbcolor
newpath
97734.3 50109.5 moveto
97734.3 51050.5 lineto
98265.7 51050.5 lineto
98265.7 50109.5 lineto
97734.3 50109.5 lineto
poly1
0 0 0 setrgbcolor
newpath
98734.3 50109.5 moveto
98734.3 51050.5 lineto
99265.7 51050.5 lineto
99265.7 50109.5 lineto
98734.3 50109.5 lineto
poly1
0 0 0 setrgbcolor
newpath
99734.3 50109.5 moveto
99734.3 51050.5 lineto
100266 51050.5 lineto
100266 50109.5 lineto
99734.3 50109.5 lineto
poly1
0 0 0 setrgbcolor
newpath
100734 50109.5 moveto
100734 51050.5 lineto
101266 51050.5 lineto
101266 50109.5 lineto
100734 50109.5 lineto
poly1
0 0 0 setrgbcolor
newpath
101734 50109.5 moveto
101734 51050.5 lineto
102266 51050.5 lineto
102266 50109.5 lineto
101734 50109.5 lineto
poly1
0 0 0 setrgbcolor
200 setlinewidth
newpath
103000 51080 moveto
103000 42280 lineto
stroke
0 0 0 setrgbcolor
newpath
94200 42280 moveto
94200 51080 lineto
stroke
0 0 0 setrgbcolor
newpath
103000 42280 moveto
94200 42280 lineto
stroke
0 0 0 setrgbcolor
newpath
102000 50580 moveto
102000 47780 lineto
stroke
0 0 0 setrgbcolor
newpath
101350 47130 moveto
99550 47130 lineto
stroke
0 0 0 setrgbcolor
newpath
102000 47780 moveto
101350 47130 lineto
stroke
0 0 0 setrgbcolor
newpath
98000 50580 moveto
98000 49180 lineto
stroke
0 0 0 setrgbcolor
newpath
98000 49180 moveto
97450 48630 lineto
stroke
0 0 0 setrgbcolor
newpath
100000 50580 moveto
100000 49780 lineto
stroke
0 0 0 setrgbcolor
newpath
100350 48130 moveto
99550 48130 lineto
stroke
0 0 0 setrgbcolor
newpath
100500 48280 moveto
100350 48130 lineto
stroke
0 0 0 setrgbcolor
newpath
100500 49280 moveto
100500 48280 lineto
stroke
0 0 0 setrgbcolor
newpath
100000 49780 moveto
100500 49280 lineto
stroke
0 0 0 setrgbcolor
newpath
95000 50580 moveto
95000 47780 lineto
stroke
0 0 0 setrgbcolor
newpath
95650 47130 moveto
97450 47130 lineto
stroke
0 0 0 setrgbcolor
newpath
95000 47780 moveto
95650 47130 lineto
stroke
0 0 0 setrgbcolor
newpath
96000 50580 moveto
96000 47780 lineto
stroke
0 0 0 setrgbcolor
newpath
96150 47630 moveto
97450 47630 lineto
stroke
0 0 0 setrgbcolor
newpath
96000 47780 moveto
96150 47630 lineto
stroke
0 0 0 setrgbcolor
newpath
97000 50580 moveto
97000 49780 lineto
stroke
0 0 0 setrgbcolor
newpath
96650 48130 moveto
97450 48130 lineto
stroke
0 0 0 setrgbcolor
newpath
96500 48280 moveto
96650 48130 lineto
stroke
0 0 0 setrgbcolor
newpath
96500 49280 moveto
96500 48280 lineto
stroke
0 0 0 setrgbcolor
newpath
97000 49780 moveto
96500 49280 lineto
stroke
0 0 0 setrgbcolor
newpath
99000 50580 moveto
99000 49180 lineto
stroke
0 0 0 setrgbcolor
newpath
99000 49180 moveto
99550 48630 lineto
stroke
0 0 0 setrgbcolor
newpath
101000 50580 moveto
101000 47780 lineto
stroke
0 0 0 setrgbcolor
newpath
100850 47630 moveto
99550 47630 lineto
stroke
0 0 0 setrgbcolor
newpath
101000 47780 moveto
100850 47630 lineto
stroke
showpage
grestore
%%EOF
