EESchema Schematic File Version 2
LIBS:power
LIBS:device
LIBS:transistors
LIBS:conn
LIBS:linear
LIBS:regul
LIBS:74xx
LIBS:cmos4000
LIBS:adc-dac
LIBS:memory
LIBS:xilinx
LIBS:special
LIBS:microcontrollers
LIBS:dsp
LIBS:microchip
LIBS:analog_switches
LIBS:motorola
LIBS:texas
LIBS:intel
LIBS:audio
LIBS:interface
LIBS:digital-audio
LIBS:philips
LIBS:display
LIBS:cypress
LIBS:siliconi
LIBS:opto
LIBS:atmel
LIBS:contrib
LIBS:valves
EELAYER 27 0
EELAYER END
$Descr A4 11693 8268
encoding utf-8
Sheet 1 1
Title ""
Date "13 sep 2015"
Rev ""
Comp ""
Comment1 ""
Comment2 ""
Comment3 ""
Comment4 ""
$EndDescr
$Comp
L LM358 U1
U 1 1 55F50918
P 3400 2200
F 0 "U1" H 3350 2400 60  0000 L CNN
F 1 "LM358" H 3350 1950 60  0000 L CNN
F 2 "" H 3400 2200 60  0000 C CNN
F 3 "" H 3400 2200 60  0000 C CNN
	1    3400 2200
	1    0    0    -1  
$EndComp
$Comp
L LM358 U1
U 2 1 55F5092A
P 3400 3650
F 0 "U1" H 3350 3850 60  0000 L CNN
F 1 "LM358" H 3350 3400 60  0000 L CNN
F 2 "" H 3400 3650 60  0000 C CNN
F 3 "" H 3400 3650 60  0000 C CNN
	2    3400 3650
	1    0    0    -1  
$EndComp
$Comp
L CONN_8 P1
U 1 1 55F5096A
P 5950 2800
F 0 "P1" V 5900 2800 60  0000 C CNN
F 1 "CONN_8" V 6000 2800 60  0000 C CNN
F 2 "" H 5950 2800 60  0000 C CNN
F 3 "" H 5950 2800 60  0000 C CNN
	1    5950 2800
	1    0    0    -1  
$EndComp
$Comp
L +5V #PWR01
U 1 1 55F5098D
P 3300 1650
F 0 "#PWR01" H 3300 1740 20  0001 C CNN
F 1 "+5V" H 3300 1740 30  0000 C CNN
F 2 "" H 3300 1650 60  0000 C CNN
F 3 "" H 3300 1650 60  0000 C CNN
	1    3300 1650
	1    0    0    -1  
$EndComp
$Comp
L +5V #PWR02
U 1 1 55F509A4
P 3300 3100
F 0 "#PWR02" H 3300 3190 20  0001 C CNN
F 1 "+5V" H 3300 3190 30  0000 C CNN
F 2 "" H 3300 3100 60  0000 C CNN
F 3 "" H 3300 3100 60  0000 C CNN
	1    3300 3100
	1    0    0    -1  
$EndComp
$Comp
L GND #PWR03
U 1 1 55F509AC
P 3300 2700
F 0 "#PWR03" H 3300 2700 30  0001 C CNN
F 1 "GND" H 3300 2630 30  0001 C CNN
F 2 "" H 3300 2700 60  0000 C CNN
F 3 "" H 3300 2700 60  0000 C CNN
	1    3300 2700
	1    0    0    -1  
$EndComp
$Comp
L GND #PWR04
U 1 1 55F509B9
P 3300 4200
F 0 "#PWR04" H 3300 4200 30  0001 C CNN
F 1 "GND" H 3300 4130 30  0001 C CNN
F 2 "" H 3300 4200 60  0000 C CNN
F 3 "" H 3300 4200 60  0000 C CNN
	1    3300 4200
	1    0    0    -1  
$EndComp
Wire Wire Line
	3300 1800 3300 1650
Wire Wire Line
	3300 2700 3300 2600
Wire Wire Line
	3300 3250 3300 3100
Wire Wire Line
	3300 4200 3300 4050
Wire Wire Line
	3900 2200 4050 2200
Wire Wire Line
	4050 2200 4050 2450
Wire Wire Line
	4050 2450 5600 2450
Wire Wire Line
	2900 2300 2900 2550
Wire Wire Line
	2900 2550 5600 2550
Wire Wire Line
	2900 2100 2750 2100
Wire Wire Line
	2750 2100 2750 2650
Wire Wire Line
	2750 2650 5600 2650
Wire Wire Line
	5600 2750 4050 2750
Wire Wire Line
	4050 2750 4050 4150
Wire Wire Line
	3300 4150 4300 4150
Connection ~ 3300 4150
Wire Wire Line
	2900 3550 2900 2850
Wire Wire Line
	2900 2850 5600 2850
Wire Wire Line
	2900 3750 2800 3750
Wire Wire Line
	2800 3750 2800 2950
Wire Wire Line
	2800 2950 5600 2950
Wire Wire Line
	3900 3650 4200 3650
Wire Wire Line
	4200 3650 4200 3050
Wire Wire Line
	4200 3050 5600 3050
Wire Wire Line
	5600 3150 3300 3150
Connection ~ 3300 3150
$Comp
L PWR_FLAG #FLG05
U 1 1 55F50AA7
P 3600 1700
F 0 "#FLG05" H 3600 1795 30  0001 C CNN
F 1 "PWR_FLAG" H 3600 1880 30  0000 C CNN
F 2 "" H 3600 1700 60  0000 C CNN
F 3 "" H 3600 1700 60  0000 C CNN
	1    3600 1700
	1    0    0    -1  
$EndComp
Wire Wire Line
	3600 1700 3300 1700
Connection ~ 3300 1700
$Comp
L PWR_FLAG #FLG06
U 1 1 55F50ACF
P 4300 4050
F 0 "#FLG06" H 4300 4145 30  0001 C CNN
F 1 "PWR_FLAG" H 4300 4230 30  0000 C CNN
F 2 "" H 4300 4050 60  0000 C CNN
F 3 "" H 4300 4050 60  0000 C CNN
	1    4300 4050
	1    0    0    -1  
$EndComp
Wire Wire Line
	4300 4150 4300 4050
Connection ~ 4050 4150
$EndSCHEMATC
