EESchema Schematic File Version 2
LIBS:power
LIBS:device
LIBS:transistors
LIBS:conn
LIBS:linear
LIBS:regul
LIBS:74xx
LIBS:cmos4000
LIBS:adc-dac
LIBS:memory
LIBS:xilinx
LIBS:special
LIBS:microcontrollers
LIBS:dsp
LIBS:microchip
LIBS:analog_switches
LIBS:motorola
LIBS:texas
LIBS:intel
LIBS:audio
LIBS:interface
LIBS:digital-audio
LIBS:philips
LIBS:display
LIBS:cypress
LIBS:siliconi
LIBS:opto
LIBS:atmel
LIBS:contrib
LIBS:valves
LIBS:custom_components
LIBS:control_plate-cache
EELAYER 27 0
EELAYER END
$Descr A4 11693 8268
encoding utf-8
Sheet 1 1
Title ""
Date "16 oct 2015"
Rev ""
Comp ""
Comment1 ""
Comment2 ""
Comment3 ""
Comment4 ""
$EndDescr
$Comp
L LM358 U1
U 1 1 561E06C6
P 2700 2700
F 0 "U1" H 2650 2900 60  0000 L CNN
F 1 "LM358" H 2650 2450 60  0000 L CNN
F 2 "" H 2700 2700 60  0000 C CNN
F 3 "" H 2700 2700 60  0000 C CNN
	1    2700 2700
	1    0    0    -1  
$EndComp
$Comp
L ATMEGA8-P IC1
U 1 1 561E12FC
P 6700 2450
F 0 "IC1" H 5950 3750 40  0000 L BNN
F 1 "ATMEGA8-P" H 7200 1000 40  0000 L BNN
F 2 "DIL28" H 6700 2450 30  0000 C CIN
F 3 "" H 6700 2450 60  0000 C CNN
	1    6700 2450
	1    0    0    -1  
$EndComp
$Comp
L 4DIG7SEG D1
U 1 1 561E1DF2
P 1700 5750
F 0 "D1" H 2350 5650 60  0000 C CNN
F 1 "4DIG7SEG" H 2500 5850 60  0000 C CNN
F 2 "~" H 2100 5850 60  0000 C CNN
F 3 "~" H 2100 5850 60  0000 C CNN
	1    1700 5750
	1    0    0    -1  
$EndComp
$Comp
L VALCODER VC1
U 1 1 561E1FFA
P 6600 6150
F 0 "VC1" H 7100 6050 60  0000 C CNN
F 1 "VALCODER" H 7250 6250 60  0000 C CNN
F 2 "" H 6700 6150 60  0000 C CNN
F 3 "" H 6700 6150 60  0000 C CNN
	1    6600 6150
	0    -1   -1   0   
$EndComp
$Comp
L SPEAKER SP1
U 1 1 561E204A
P 4500 4300
F 0 "SP1" H 4400 4550 70  0000 C CNN
F 1 "SPEAKER" H 4400 4050 70  0000 C CNN
F 2 "~" H 4500 4300 60  0000 C CNN
F 3 "~" H 4500 4300 60  0000 C CNN
	1    4500 4300
	1    0    0    -1  
$EndComp
$Comp
L BRIGE BR1
U 1 1 561E21E8
P 2300 1150
F 0 "BR1" H 2200 1000 60  0000 C CNN
F 1 "BRIGE" H 2200 1550 60  0000 C CNN
F 2 "" H 2300 1150 60  0000 C CNN
F 3 "" H 2300 1150 60  0000 C CNN
	1    2300 1150
	1    0    0    -1  
$EndComp
$Comp
L CONN_2 P1
U 1 1 561E2216
P 800 1000
F 0 "P1" V 750 1000 40  0000 C CNN
F 1 "CONN_2" V 850 1000 40  0000 C CNN
F 2 "" H 800 1000 60  0000 C CNN
F 3 "" H 800 1000 60  0000 C CNN
	1    800  1000
	-1   0    0    -1  
$EndComp
Text Notes 700  700  0    60   ~ 0
Питание управляющей платы
Text Notes 700  1350 0    60   ~ 0
24В от трансорматора
Wire Wire Line
	1700 900  1150 900 
Wire Wire Line
	1300 1150 1700 1150
Wire Wire Line
	1300 1150 1300 1100
Wire Wire Line
	1300 1100 1150 1100
$Comp
L GND #PWR01
U 1 1 561E2490
P 2700 1500
F 0 "#PWR01" H 2700 1500 30  0001 C CNN
F 1 "GND" H 2700 1430 30  0001 C CNN
F 2 "" H 2700 1500 60  0000 C CNN
F 3 "" H 2700 1500 60  0000 C CNN
	1    2700 1500
	1    0    0    -1  
$EndComp
$Comp
L VCC #PWR02
U 1 1 561E249F
P 4200 800
F 0 "#PWR02" H 4200 900 30  0001 C CNN
F 1 "VCC" H 4200 900 30  0000 C CNN
F 2 "" H 4200 800 60  0000 C CNN
F 3 "" H 4200 800 60  0000 C CNN
	1    4200 800 
	1    0    0    -1  
$EndComp
$Comp
L GND #PWR03
U 1 1 561E24C5
P 2950 1500
F 0 "#PWR03" H 2950 1500 30  0001 C CNN
F 1 "GND" H 2950 1430 30  0001 C CNN
F 2 "" H 2950 1500 60  0000 C CNN
F 3 "" H 2950 1500 60  0000 C CNN
	1    2950 1500
	1    0    0    -1  
$EndComp
$Comp
L GND #PWR04
U 1 1 561E24CB
P 3600 1500
F 0 "#PWR04" H 3600 1500 30  0001 C CNN
F 1 "GND" H 3600 1430 30  0001 C CNN
F 2 "" H 3600 1500 60  0000 C CNN
F 3 "" H 3600 1500 60  0000 C CNN
	1    3600 1500
	1    0    0    -1  
$EndComp
$Comp
L GND #PWR05
U 1 1 561E24E5
P 4800 1500
F 0 "#PWR05" H 4800 1500 30  0001 C CNN
F 1 "GND" H 4800 1430 30  0001 C CNN
F 2 "" H 4800 1500 60  0000 C CNN
F 3 "" H 4800 1500 60  0000 C CNN
	1    4800 1500
	1    0    0    -1  
$EndComp
$Comp
L PWR_FLAG #FLG06
U 1 1 561E24EB
P 4800 850
F 0 "#FLG06" H 4800 945 30  0001 C CNN
F 1 "PWR_FLAG" H 4800 1030 30  0000 C CNN
F 2 "" H 4800 850 60  0000 C CNN
F 3 "" H 4800 850 60  0000 C CNN
	1    4800 850 
	1    0    0    -1  
$EndComp
Wire Wire Line
	4800 850  4800 1500
Wire Wire Line
	2950 1300 2950 1500
Wire Wire Line
	2700 1150 2700 1500
Wire Notes Line
	5100 600  5100 1700
Wire Notes Line
	5100 1700 650  1700
Text Notes 700  1950 0    60   ~ 0
Усилитель термопары
$Comp
L CONN_2 P2
U 1 1 561E255B
P 850 2700
F 0 "P2" V 800 2700 40  0000 C CNN
F 1 "CONN_2" V 900 2700 40  0000 C CNN
F 2 "" H 850 2700 60  0000 C CNN
F 3 "" H 850 2700 60  0000 C CNN
	1    850  2700
	-1   0    0    -1  
$EndComp
Text Notes 750  2400 0    60   ~ 0
К термомаре
$Comp
L R R9
U 1 1 561E25CB
P 2000 2250
F 0 "R9" V 2080 2250 40  0000 C CNN
F 1 "100k" V 2007 2251 40  0000 C CNN
F 2 "~" V 1930 2250 30  0000 C CNN
F 3 "~" H 2000 2250 30  0000 C CNN
	1    2000 2250
	-1   0    0    1   
$EndComp
$Comp
L R R10
U 1 1 561E25FC
P 2000 3150
F 0 "R10" V 2080 3150 40  0000 C CNN
F 1 "1k" V 2007 3151 40  0000 C CNN
F 2 "~" V 1930 3150 30  0000 C CNN
F 3 "~" H 2000 3150 30  0000 C CNN
	1    2000 3150
	-1   0    0    1   
$EndComp
$Comp
L R R4
U 1 1 561E261D
P 1550 2600
F 0 "R4" V 1630 2600 40  0000 C CNN
F 1 "10k" V 1557 2601 40  0000 C CNN
F 2 "~" V 1480 2600 30  0000 C CNN
F 3 "~" H 1550 2600 30  0000 C CNN
	1    1550 2600
	0    1    1    0   
$EndComp
Text Notes 1150 2500 0    60   ~ 0
+
$Comp
L GND #PWR07
U 1 1 561E2641
P 1200 3600
F 0 "#PWR07" H 1200 3600 30  0001 C CNN
F 1 "GND" H 1200 3530 30  0001 C CNN
F 2 "" H 1200 3600 60  0000 C CNN
F 3 "" H 1200 3600 60  0000 C CNN
	1    1200 3600
	1    0    0    -1  
$EndComp
Wire Wire Line
	2000 2500 2000 2900
Wire Wire Line
	2200 2800 2000 2800
Connection ~ 2000 2800
$Comp
L VCC #PWR08
U 1 1 561E266E
P 2600 2200
F 0 "#PWR08" H 2600 2300 30  0001 C CNN
F 1 "VCC" H 2600 2300 30  0000 C CNN
F 2 "" H 2600 2200 60  0000 C CNN
F 3 "" H 2600 2200 60  0000 C CNN
	1    2600 2200
	1    0    0    -1  
$EndComp
Wire Wire Line
	2600 2200 2600 2300
$Comp
L GND #PWR09
U 1 1 561E2688
P 2600 3600
F 0 "#PWR09" H 2600 3600 30  0001 C CNN
F 1 "GND" H 2600 3530 30  0001 C CNN
F 2 "" H 2600 3600 60  0000 C CNN
F 3 "" H 2600 3600 60  0000 C CNN
	1    2600 3600
	1    0    0    -1  
$EndComp
Wire Wire Line
	2600 3100 2600 3600
$Comp
L GND #PWR010
U 1 1 561E26A3
P 2000 3600
F 0 "#PWR010" H 2000 3600 30  0001 C CNN
F 1 "GND" H 2000 3530 30  0001 C CNN
F 2 "" H 2000 3600 60  0000 C CNN
F 3 "" H 2000 3600 60  0000 C CNN
	1    2000 3600
	1    0    0    -1  
$EndComp
Wire Wire Line
	2000 3400 2000 3600
Wire Wire Line
	1200 2800 1200 3600
Wire Wire Line
	1200 2600 1300 2600
Wire Wire Line
	1800 2600 2200 2600
Text Label 3500 2700 0    60   ~ 0
to_ADC
Wire Wire Line
	3500 2700 3200 2700
Wire Wire Line
	2000 2000 2000 1900
Wire Wire Line
	2000 1900 3300 1900
Wire Wire Line
	3300 1900 3300 2700
Connection ~ 3300 2700
Wire Notes Line
	5100 1800 5100 3800
Wire Notes Line
	5100 3800 650  3800
Text Notes 700  4000 0    60   ~ 0
Индикаторная часть
$Comp
L NPN Q3
U 1 1 561E286F
P 2950 6450
F 0 "Q3" H 2950 6300 50  0000 R CNN
F 1 "NPN" H 2950 6600 50  0000 R CNN
F 2 "~" H 2950 6450 60  0000 C CNN
F 3 "~" H 2950 6450 60  0000 C CNN
	1    2950 6450
	-1   0    0    -1  
$EndComp
Text Label 3850 4950 0    60   ~ 0
digit1
Text Label 3850 5700 0    60   ~ 0
digit2
Text Label 3850 6450 0    60   ~ 0
digit3
$Comp
L R R15
U 1 1 561E2946
P 3500 6450
F 0 "R15" V 3580 6450 40  0000 C CNN
F 1 "1k" V 3507 6451 40  0000 C CNN
F 2 "~" V 3430 6450 30  0000 C CNN
F 3 "~" H 3500 6450 30  0000 C CNN
	1    3500 6450
	0    -1   1    0   
$EndComp
Wire Wire Line
	3150 6450 3250 6450
$Comp
L GND #PWR011
U 1 1 561E29D3
P 2850 6800
F 0 "#PWR011" H 2850 6800 30  0001 C CNN
F 1 "GND" H 2850 6730 30  0001 C CNN
F 2 "" H 2850 6800 60  0000 C CNN
F 3 "" H 2850 6800 60  0000 C CNN
	1    2850 6800
	-1   0    0    -1  
$EndComp
Wire Wire Line
	2850 6650 2850 6800
$Comp
L R R1
U 1 1 561E2A22
P 1300 6750
F 0 "R1" V 1380 6750 40  0000 C CNN
F 1 "150" V 1307 6751 40  0000 C CNN
F 2 "~" V 1230 6750 30  0000 C CNN
F 3 "~" H 1300 6750 30  0000 C CNN
	1    1300 6750
	1    0    0    -1  
$EndComp
$Comp
L R R3
U 1 1 561E2A41
P 1450 6750
F 0 "R3" V 1530 6750 40  0000 C CNN
F 1 "150" V 1457 6751 40  0000 C CNN
F 2 "~" V 1380 6750 30  0000 C CNN
F 3 "~" H 1450 6750 30  0000 C CNN
	1    1450 6750
	1    0    0    -1  
$EndComp
$Comp
L R R6
U 1 1 561E2A47
P 1600 6750
F 0 "R6" V 1680 6750 40  0000 C CNN
F 1 "150" V 1607 6751 40  0000 C CNN
F 2 "~" V 1530 6750 30  0000 C CNN
F 3 "~" H 1600 6750 30  0000 C CNN
	1    1600 6750
	1    0    0    -1  
$EndComp
$Comp
L R R7
U 1 1 561E2A4D
P 1750 6750
F 0 "R7" V 1830 6750 40  0000 C CNN
F 1 "150" V 1757 6751 40  0000 C CNN
F 2 "~" V 1680 6750 30  0000 C CNN
F 3 "~" H 1750 6750 30  0000 C CNN
	1    1750 6750
	1    0    0    -1  
$EndComp
$Comp
L R R8
U 1 1 561E2A53
P 1900 6750
F 0 "R8" V 1980 6750 40  0000 C CNN
F 1 "150" V 1907 6751 40  0000 C CNN
F 2 "~" V 1830 6750 30  0000 C CNN
F 3 "~" H 1900 6750 30  0000 C CNN
	1    1900 6750
	1    0    0    -1  
$EndComp
$Comp
L R R2
U 1 1 561E2A59
P 1450 4750
F 0 "R2" V 1530 4750 40  0000 C CNN
F 1 "150" V 1457 4751 40  0000 C CNN
F 2 "~" V 1380 4750 30  0000 C CNN
F 3 "~" H 1450 4750 30  0000 C CNN
	1    1450 4750
	1    0    0    -1  
$EndComp
$Comp
L R R5
U 1 1 561E2A5F
P 1600 4750
F 0 "R5" V 1680 4750 40  0000 C CNN
F 1 "150" V 1607 4751 40  0000 C CNN
F 2 "~" V 1530 4750 30  0000 C CNN
F 3 "~" H 1600 4750 30  0000 C CNN
	1    1600 4750
	1    0    0    -1  
$EndComp
$Comp
L R R11
U 1 1 561E2A65
P 2050 4750
F 0 "R11" V 2130 4750 40  0000 C CNN
F 1 "150" V 2057 4751 40  0000 C CNN
F 2 "~" V 1980 4750 30  0000 C CNN
F 3 "~" H 2050 4750 30  0000 C CNN
	1    2050 4750
	1    0    0    -1  
$EndComp
Wire Wire Line
	1300 6400 1300 6500
Wire Wire Line
	1450 6400 1450 6500
Wire Wire Line
	1600 6400 1600 6500
Wire Wire Line
	1750 6400 1750 6500
Wire Wire Line
	1900 6400 1900 6500
Wire Wire Line
	1450 5000 1450 5100
Wire Wire Line
	1600 5000 1600 5100
Wire Wire Line
	2050 5000 2050 5100
Text Label 1300 7100 3    60   ~ 0
E
Text Label 1450 7100 3    60   ~ 0
D
Text Label 1600 7100 3    60   ~ 0
dp
Text Label 1750 7100 3    60   ~ 0
C
Text Label 1900 7100 3    60   ~ 0
G
Text Label 1450 4400 1    60   ~ 0
A
Text Label 1600 4400 1    60   ~ 0
F
Text Label 2050 4400 1    60   ~ 0
B
Wire Wire Line
	1300 7100 1300 7000
Wire Wire Line
	1450 7100 1450 7000
Wire Wire Line
	1600 7100 1600 7000
Wire Wire Line
	1750 7100 1750 7000
Wire Wire Line
	1900 7100 1900 7000
Wire Wire Line
	1450 4500 1450 4400
Wire Wire Line
	1600 4500 1600 4400
Wire Wire Line
	2050 4500 2050 4400
$Comp
L NPN Q4
U 1 1 561E2D5B
P 2950 7200
F 0 "Q4" H 2950 7050 50  0000 R CNN
F 1 "NPN" H 2950 7350 50  0000 R CNN
F 2 "~" H 2950 7200 60  0000 C CNN
F 3 "~" H 2950 7200 60  0000 C CNN
	1    2950 7200
	-1   0    0    -1  
$EndComp
Text Label 3850 7200 0    60   ~ 0
digit4
$Comp
L R R16
U 1 1 561E2D62
P 3500 7200
F 0 "R16" V 3580 7200 40  0000 C CNN
F 1 "1k" V 3507 7201 40  0000 C CNN
F 2 "~" V 3430 7200 30  0000 C CNN
F 3 "~" H 3500 7200 30  0000 C CNN
	1    3500 7200
	0    -1   1    0   
$EndComp
Wire Wire Line
	3750 7200 3850 7200
Wire Wire Line
	3150 7200 3250 7200
$Comp
L GND #PWR012
U 1 1 561E2D6A
P 2850 7550
F 0 "#PWR012" H 2850 7550 30  0001 C CNN
F 1 "GND" H 2850 7480 30  0001 C CNN
F 2 "" H 2850 7550 60  0000 C CNN
F 3 "" H 2850 7550 60  0000 C CNN
	1    2850 7550
	-1   0    0    -1  
$EndComp
Wire Wire Line
	2850 7400 2850 7550
$Comp
L NPN Q1
U 1 1 561E2D71
P 2950 4950
F 0 "Q1" H 2950 4800 50  0000 R CNN
F 1 "NPN" H 2950 5100 50  0000 R CNN
F 2 "~" H 2950 4950 60  0000 C CNN
F 3 "~" H 2950 4950 60  0000 C CNN
	1    2950 4950
	-1   0    0    -1  
$EndComp
$Comp
L R R13
U 1 1 561E2D78
P 3500 4950
F 0 "R13" V 3580 4950 40  0000 C CNN
F 1 "1k" V 3507 4951 40  0000 C CNN
F 2 "~" V 3430 4950 30  0000 C CNN
F 3 "~" H 3500 4950 30  0000 C CNN
	1    3500 4950
	0    -1   1    0   
$EndComp
Wire Wire Line
	3150 4950 3250 4950
$Comp
L GND #PWR013
U 1 1 561E2D80
P 2850 5300
F 0 "#PWR013" H 2850 5300 30  0001 C CNN
F 1 "GND" H 2850 5230 30  0001 C CNN
F 2 "" H 2850 5300 60  0000 C CNN
F 3 "" H 2850 5300 60  0000 C CNN
	1    2850 5300
	-1   0    0    -1  
$EndComp
Wire Wire Line
	2850 5150 2850 5300
$Comp
L NPN Q2
U 1 1 561E2D87
P 2950 5700
F 0 "Q2" H 2950 5550 50  0000 R CNN
F 1 "NPN" H 2950 5850 50  0000 R CNN
F 2 "~" H 2950 5700 60  0000 C CNN
F 3 "~" H 2950 5700 60  0000 C CNN
	1    2950 5700
	-1   0    0    -1  
$EndComp
$Comp
L R R14
U 1 1 561E2D8E
P 3500 5700
F 0 "R14" V 3580 5700 40  0000 C CNN
F 1 "1k" V 3507 5701 40  0000 C CNN
F 2 "~" V 3430 5700 30  0000 C CNN
F 3 "~" H 3500 5700 30  0000 C CNN
	1    3500 5700
	0    -1   1    0   
$EndComp
Wire Wire Line
	3150 5700 3250 5700
$Comp
L GND #PWR014
U 1 1 561E2D96
P 2850 6050
F 0 "#PWR014" H 2850 6050 30  0001 C CNN
F 1 "GND" H 2850 5980 30  0001 C CNN
F 2 "" H 2850 6050 60  0000 C CNN
F 3 "" H 2850 6050 60  0000 C CNN
	1    2850 6050
	-1   0    0    -1  
$EndComp
Wire Wire Line
	2850 5900 2850 6050
Wire Wire Line
	2850 7000 2050 7000
Wire Wire Line
	2050 7000 2050 6400
Wire Wire Line
	2850 6250 2400 6250
Wire Wire Line
	2400 6250 2400 4300
Wire Wire Line
	2400 4300 1900 4300
Wire Wire Line
	1900 4300 1900 5100
Wire Wire Line
	3850 6450 3750 6450
Wire Wire Line
	2850 5500 2500 5500
Wire Wire Line
	2500 5500 2500 4200
Wire Wire Line
	2500 4200 1750 4200
Wire Wire Line
	1750 4200 1750 5100
Wire Wire Line
	3750 5700 3850 5700
Wire Wire Line
	2850 4750 2850 4100
Wire Wire Line
	2850 4100 1300 4100
Wire Wire Line
	1300 4100 1300 5100
Wire Wire Line
	3850 4950 3750 4950
$Comp
L GND #PWR015
U 1 1 561E2F7D
P 4000 4700
F 0 "#PWR015" H 4000 4700 30  0001 C CNN
F 1 "GND" H 4000 4630 30  0001 C CNN
F 2 "" H 4000 4700 60  0000 C CNN
F 3 "" H 4000 4700 60  0000 C CNN
	1    4000 4700
	-1   0    0    -1  
$EndComp
Wire Wire Line
	4200 4400 4000 4400
Wire Wire Line
	4000 4400 4000 4700
Text Label 3050 4200 2    60   ~ 0
Spk
Wire Notes Line
	5100 3900 5100 7700
$Comp
L GND #PWR016
U 1 1 561E30AD
P 6050 6750
F 0 "#PWR016" H 6050 6750 30  0001 C CNN
F 1 "GND" H 6050 6680 30  0001 C CNN
F 2 "" H 6050 6750 60  0000 C CNN
F 3 "" H 6050 6750 60  0000 C CNN
	1    6050 6750
	-1   0    0    -1  
$EndComp
$Comp
L GND #PWR017
U 1 1 561E30B3
P 7400 6750
F 0 "#PWR017" H 7400 6750 30  0001 C CNN
F 1 "GND" H 7400 6680 30  0001 C CNN
F 2 "" H 7400 6750 60  0000 C CNN
F 3 "" H 7400 6750 60  0000 C CNN
	1    7400 6750
	-1   0    0    -1  
$EndComp
Wire Wire Line
	6050 6350 6050 6750
Wire Wire Line
	7400 6750 7400 6150
Wire Wire Line
	7400 6150 7200 6150
Text Label 5900 5950 2    60   ~ 0
valcoder_btn
Wire Wire Line
	6050 5950 5900 5950
Text Label 7600 6400 0    60   ~ 0
valcoder_1
Text Label 7600 5900 0    60   ~ 0
valcoder_2
Wire Wire Line
	7600 6400 7200 6400
Wire Wire Line
	7600 5900 7200 5900
Text Notes 5300 5400 0    60   ~ 0
Управляющая часть
Wire Notes Line
	5200 5100 8250 5100
Wire Notes Line
	8250 5100 8250 7100
$Comp
L GND #PWR018
U 1 1 561E33A8
P 6700 4050
F 0 "#PWR018" H 6700 4050 30  0001 C CNN
F 1 "GND" H 6700 3980 30  0001 C CNN
F 2 "" H 6700 4050 60  0000 C CNN
F 3 "" H 6700 4050 60  0000 C CNN
	1    6700 4050
	-1   0    0    -1  
$EndComp
$Comp
L VCC #PWR019
U 1 1 561E33AE
P 6700 950
F 0 "#PWR019" H 6700 1050 30  0001 C CNN
F 1 "VCC" H 6700 1050 30  0000 C CNN
F 2 "" H 6700 950 60  0000 C CNN
F 3 "" H 6700 950 60  0000 C CNN
	1    6700 950 
	1    0    0    -1  
$EndComp
$Comp
L CONN_6 P3
U 1 1 561F283D
P 10200 6000
F 0 "P3" V 10150 6000 60  0000 C CNN
F 1 "CONN_6" V 10250 6000 60  0000 C CNN
F 2 "" H 10200 6000 60  0000 C CNN
F 3 "" H 10200 6000 60  0000 C CNN
	1    10200 6000
	1    0    0    -1  
$EndComp
$Comp
L GND #PWR020
U 1 1 561F28A6
P 9700 6400
F 0 "#PWR020" H 9700 6400 30  0001 C CNN
F 1 "GND" H 9700 6330 30  0001 C CNN
F 2 "" H 9700 6400 60  0000 C CNN
F 3 "" H 9700 6400 60  0000 C CNN
	1    9700 6400
	-1   0    0    -1  
$EndComp
$Comp
L VCC #PWR021
U 1 1 561F28AF
P 9550 5550
F 0 "#PWR021" H 9550 5650 30  0001 C CNN
F 1 "VCC" H 9550 5650 30  0000 C CNN
F 2 "" H 9550 5550 60  0000 C CNN
F 3 "" H 9550 5550 60  0000 C CNN
	1    9550 5550
	1    0    0    -1  
$EndComp
Wire Wire Line
	9850 5750 9700 5750
Wire Wire Line
	9700 5750 9700 6400
Wire Wire Line
	9850 5850 9550 5850
Wire Wire Line
	9550 5850 9550 5550
Text Label 9400 5950 2    60   ~ 0
RST
Text Label 9400 6050 2    60   ~ 0
SCK
Text Label 9400 6150 2    60   ~ 0
MISO
Text Label 9400 6250 2    60   ~ 0
MOSI
Wire Wire Line
	9850 5950 9400 5950
Wire Wire Line
	9850 6050 9400 6050
Wire Wire Line
	9850 6150 9400 6150
Wire Wire Line
	9850 6250 9400 6250
Text Notes 8450 5350 0    60   ~ 0
Разъем программатора\n\n
Wire Notes Line
	8400 5100 11100 5100
Wire Wire Line
	6700 3950 6700 4050
Wire Wire Line
	6700 1050 6700 950 
$Comp
L R R17
U 1 1 561F2C15
P 5650 1100
F 0 "R17" V 5730 1100 40  0000 C CNN
F 1 "10k" V 5657 1101 40  0000 C CNN
F 2 "~" V 5580 1100 30  0000 C CNN
F 3 "~" H 5650 1100 30  0000 C CNN
	1    5650 1100
	1    0    0    -1  
$EndComp
$Comp
L VCC #PWR022
U 1 1 561F2C1B
P 5650 800
F 0 "#PWR022" H 5650 900 30  0001 C CNN
F 1 "VCC" H 5650 900 30  0000 C CNN
F 2 "" H 5650 800 60  0000 C CNN
F 3 "" H 5650 800 60  0000 C CNN
	1    5650 800 
	1    0    0    -1  
$EndComp
Wire Wire Line
	5650 800  5650 850 
Wire Wire Line
	5500 1350 5800 1350
Text Label 5500 1350 2    60   ~ 0
RST
Connection ~ 5650 1350
$Comp
L VCC #PWR023
U 1 1 561F2D48
P 5250 800
F 0 "#PWR023" H 5250 900 30  0001 C CNN
F 1 "VCC" H 5250 900 30  0000 C CNN
F 2 "" H 5250 800 60  0000 C CNN
F 3 "" H 5250 800 60  0000 C CNN
	1    5250 800 
	1    0    0    -1  
$EndComp
Wire Wire Line
	5250 800  5250 1650
Wire Wire Line
	5250 1550 5800 1550
Wire Wire Line
	5250 1650 5800 1650
Connection ~ 5250 1550
$Comp
L GND #PWR024
U 1 1 561F2E18
P 5700 1900
F 0 "#PWR024" H 5700 1900 30  0001 C CNN
F 1 "GND" H 5700 1830 30  0001 C CNN
F 2 "" H 5700 1900 60  0000 C CNN
F 3 "" H 5700 1900 60  0000 C CNN
	1    5700 1900
	-1   0    0    -1  
$EndComp
Wire Wire Line
	5800 1750 5700 1750
Wire Wire Line
	5700 1750 5700 1900
Text Label 7800 3450 0    60   ~ 0
to_ADC
Wire Wire Line
	7800 3450 7700 3450
Text Label 7800 1850 0    60   ~ 0
SCK
Wire Wire Line
	7800 1850 7700 1850
Text Label 7800 1750 0    60   ~ 0
MISO
Wire Wire Line
	7800 1750 7700 1750
Text Label 7800 1650 0    60   ~ 0
MOSI
Wire Wire Line
	7800 1650 7700 1650
$Comp
L R R12
U 1 1 561F3147
P 3400 4200
F 0 "R12" V 3480 4200 40  0000 C CNN
F 1 "150" V 3407 4201 40  0000 C CNN
F 2 "~" V 3330 4200 30  0000 C CNN
F 3 "~" H 3400 4200 30  0000 C CNN
	1    3400 4200
	0    -1   -1   0   
$EndComp
$Comp
L C C2
U 1 1 561F314F
P 3950 4200
F 0 "C2" H 3950 4300 40  0000 L CNN
F 1 "1uF" H 3956 4115 40  0000 L CNN
F 2 "~" H 3988 4050 30  0000 C CNN
F 3 "~" H 3950 4200 60  0000 C CNN
	1    3950 4200
	0    -1   -1   0   
$EndComp
Wire Wire Line
	4200 4200 4150 4200
Wire Wire Line
	3750 4200 3650 4200
Wire Wire Line
	3150 4200 3050 4200
Text Label 7800 3350 0    60   ~ 0
valcoder_btn
Text Label 7800 3250 0    60   ~ 0
valcoder_2
Text Label 5650 2250 2    60   ~ 0
valcoder_1
Wire Wire Line
	7800 1550 7700 1550
Text Label 7800 1550 0    60   ~ 0
Spk
Text Label 5650 2050 2    60   ~ 0
digit1
Wire Wire Line
	7800 2150 7700 2150
Text Label 7800 2750 0    60   ~ 0
digit2
Wire Wire Line
	7800 2250 7700 2250
Text Label 7800 2550 0    60   ~ 0
digit3
Wire Wire Line
	7800 2350 7700 2350
Text Label 7800 2050 0    60   ~ 0
digit4
Wire Wire Line
	7800 2450 7700 2450
Text Label 7800 2350 0    60   ~ 0
A
Wire Wire Line
	7800 2550 7700 2550
Text Label 7800 2450 0    60   ~ 0
B
Wire Wire Line
	7800 2750 7700 2750
Text Label 7800 2150 0    60   ~ 0
C
Wire Wire Line
	7800 2850 7700 2850
Text Label 7800 2250 0    60   ~ 0
D
Wire Wire Line
	7800 2950 7700 2950
Text Label 7800 2950 0    60   ~ 0
E
Wire Wire Line
	7800 3050 7700 3050
Text Label 7800 2850 0    60   ~ 0
F
Wire Wire Line
	7800 3150 7700 3150
Text Label 7800 3150 0    60   ~ 0
G
Text Label 7800 3050 0    60   ~ 0
dp
$Comp
L CONN_2 P4
U 1 1 561F3CF9
P 10850 1150
F 0 "P4" V 10800 1150 40  0000 C CNN
F 1 "CONN_2" V 10900 1150 40  0000 C CNN
F 2 "" H 10850 1150 60  0000 C CNN
F 3 "" H 10850 1150 60  0000 C CNN
	1    10850 1150
	1    0    0    -1  
$EndComp
Text Label 7800 1450 0    60   ~ 0
heater
Wire Wire Line
	5800 2250 5650 2250
Text Label 10350 1050 2    60   ~ 0
heater
Wire Wire Line
	10500 1050 10350 1050
$Comp
L GND #PWR025
U 1 1 561F3E08
P 10400 1450
F 0 "#PWR025" H 10400 1450 30  0001 C CNN
F 1 "GND" H 10400 1380 30  0001 C CNN
F 2 "" H 10400 1450 60  0000 C CNN
F 3 "" H 10400 1450 60  0000 C CNN
	1    10400 1450
	-1   0    0    -1  
$EndComp
Wire Wire Line
	10500 1250 10400 1250
Wire Wire Line
	10400 1250 10400 1450
Text Notes 10950 900  2    60   ~ 0
Разъем на плату управления нагревателем
Wire Wire Line
	7800 1450 7700 1450
Wire Wire Line
	7800 2050 7700 2050
Wire Wire Line
	5800 2050 5650 2050
Wire Wire Line
	7800 3250 7700 3250
Wire Wire Line
	7800 3350 7700 3350
NoConn ~ 7700 1350
$Comp
L LM7805CT U2
U 1 1 562063E9
P 3600 950
F 0 "U2" H 3400 1150 40  0000 C CNN
F 1 "LM7805CT" H 3600 1150 40  0000 L CNN
F 2 "TO-220" H 3600 1050 30  0000 C CIN
F 3 "" H 3600 950 60  0000 C CNN
	1    3600 950 
	1    0    0    -1  
$EndComp
Wire Wire Line
	4000 900  4200 900 
Wire Wire Line
	4200 900  4200 800 
Wire Wire Line
	3600 1200 3600 1500
Wire Wire Line
	3200 900  2700 900 
$Comp
L CP1 C1
U 1 1 561E242D
P 2950 1100
F 0 "C1" H 3000 1200 50  0000 L CNN
F 1 "CP1" H 3000 1000 50  0000 L CNN
F 2 "~" H 2950 1100 60  0000 C CNN
F 3 "~" H 2950 1100 60  0000 C CNN
	1    2950 1100
	1    0    0    -1  
$EndComp
Connection ~ 2950 900 
$Comp
L R R18
U 1 1 56206C60
P 9700 3800
F 0 "R18" V 9780 3800 40  0000 C CNN
F 1 "0" V 9707 3801 40  0000 C CNN
F 2 "~" V 9630 3800 30  0000 C CNN
F 3 "~" H 9700 3800 30  0000 C CNN
	1    9700 3800
	0    -1   -1   0   
$EndComp
$Comp
L VCC #PWR026
U 1 1 56206C70
P 9450 3650
F 0 "#PWR026" H 9450 3750 30  0001 C CNN
F 1 "VCC" H 9450 3750 30  0000 C CNN
F 2 "" H 9450 3650 60  0000 C CNN
F 3 "" H 9450 3650 60  0000 C CNN
	1    9450 3650
	1    0    0    -1  
$EndComp
$Comp
L VCC #PWR027
U 1 1 56206C76
P 9950 3650
F 0 "#PWR027" H 9950 3750 30  0001 C CNN
F 1 "VCC" H 9950 3750 30  0000 C CNN
F 2 "" H 9950 3650 60  0000 C CNN
F 3 "" H 9950 3650 60  0000 C CNN
	1    9950 3650
	1    0    0    -1  
$EndComp
$Comp
L R R19
U 1 1 56206C7C
P 9700 4000
F 0 "R19" V 9780 4000 40  0000 C CNN
F 1 "0" V 9707 4001 40  0000 C CNN
F 2 "~" V 9630 4000 30  0000 C CNN
F 3 "~" H 9700 4000 30  0000 C CNN
	1    9700 4000
	0    -1   -1   0   
$EndComp
Wire Wire Line
	9450 3650 9450 4200
Connection ~ 9450 3800
Wire Wire Line
	9950 3650 9950 4200
Connection ~ 9950 3800
$Comp
L R R20
U 1 1 56206FF8
P 9700 4200
F 0 "R20" V 9780 4200 40  0000 C CNN
F 1 "0" V 9707 4201 40  0000 C CNN
F 2 "~" V 9630 4200 30  0000 C CNN
F 3 "~" H 9700 4200 30  0000 C CNN
	1    9700 4200
	0    -1   -1   0   
$EndComp
Connection ~ 9450 4000
Connection ~ 9950 4000
$Comp
L GND #PWR?
U 1 1 56206F2F
P 9950 4800
F 0 "#PWR?" H 9950 4800 30  0001 C CNN
F 1 "GND" H 9950 4730 30  0001 C CNN
F 2 "" H 9950 4800 60  0000 C CNN
F 3 "" H 9950 4800 60  0000 C CNN
	1    9950 4800
	-1   0    0    -1  
$EndComp
$Comp
L GND #PWR?
U 1 1 56206F49
P 9450 4800
F 0 "#PWR?" H 9450 4800 30  0001 C CNN
F 1 "GND" H 9450 4730 30  0001 C CNN
F 2 "" H 9450 4800 60  0000 C CNN
F 3 "" H 9450 4800 60  0000 C CNN
	1    9450 4800
	-1   0    0    -1  
$EndComp
$Comp
L R R21
U 1 1 56206F4F
P 9700 4600
F 0 "R21" V 9780 4600 40  0000 C CNN
F 1 "0" V 9707 4601 40  0000 C CNN
F 2 "~" V 9630 4600 30  0000 C CNN
F 3 "~" H 9700 4600 30  0000 C CNN
	1    9700 4600
	0    -1   -1   0   
$EndComp
Wire Wire Line
	9450 4800 9450 4600
Wire Wire Line
	9950 4800 9950 4600
$EndSCHEMATC
