%!PS-Adobe-3.0
%%Creator: PCBNEW
%%CreationDate: Mon Oct 19 11:29:30 2015
%%Title: /home/max/av/!мое/паяние/kicad/паяльная станция teatro/плата управления/control_plate-B_Cu.ps
%%Pages: 1
%%PageOrder: Ascend
%%BoundingBox: 0 0 596 842
%%DocumentMedia: A4 595 842 0 () ()
%%Orientation: Landscape
%%EndComments
%%BeginProlog
/line { newpath moveto lineto stroke } bind def
/cir0 { newpath 0 360 arc stroke } bind def
/cir1 { newpath 0 360 arc gsave fill grestore stroke } bind def
/cir2 { newpath 0 360 arc gsave fill grestore stroke } bind def
/arc0 { newpath arc stroke } bind def
/arc1 { newpath 4 index 4 index moveto arc closepath gsave fill
    grestore stroke } bind def
/arc2 { newpath 4 index 4 index moveto arc closepath gsave fill
    grestore stroke } bind def
/poly0 { stroke } bind def
/poly1 { closepath gsave fill grestore stroke } bind def
/poly2 { closepath gsave fill grestore stroke } bind def
/rect0 { rectstroke } bind def
/rect1 { rectfill } bind def
/rect2 { rectfill } bind def
/linemode0 { 0 setlinecap 0 setlinejoin 0 setlinewidth } bind def
/linemode1 { 1 setlinecap 1 setlinejoin } bind def
/dashedline { [200] 100 setdash } bind def
/solidline { [] 0 setdash } bind def
/phantomshow { moveto
    /KicadFont findfont 0.000001 scalefont setfont
    show } bind def
/textshow { gsave
    findfont exch scalefont setfont concat 1 scale 0 0 moveto show
    } bind def
/reencodefont {
  findfont dup length dict begin
  { 1 index /FID ne
    { def }
    { pop pop } ifelse
  } forall
  /Encoding ISOLatin1Encoding def
  currentdict
  end } bind def
/KicadFont /Helvetica reencodefont definefont pop
/KicadFont-Bold /Helvetica-Bold reencodefont definefont pop
/KicadFont-Oblique /Helvetica-Oblique reencodefont definefont pop
/KicadFont-BoldOblique /Helvetica-BoldOblique reencodefont definefont pop
%%EndProlog
%%Page: 1 1
%%BeginPageSetup
gsave
0.0072 0.0072 scale
linemode1
82680 0 translate 90 rotate
59.0551 setlinewidth
%%EndPageSetup
0 0 0 setrgbcolor
0 0 0 setrgbcolor
59.0551 setlinewidth
newpath
97034.3 38509.5 moveto
97034.3 41450.5 lineto
97565.7 41450.5 lineto
97565.7 38509.5 lineto
97034.3 38509.5 lineto
poly1
0 0 0 setrgbcolor
newpath
99034.3 38509.5 moveto
99034.3 41450.5 lineto
99565.7 41450.5 lineto
99565.7 38509.5 lineto
99034.3 38509.5 lineto
poly1
0 0 0 setrgbcolor
newpath
99034.3 47009.5 moveto
99034.3 49950.5 lineto
99565.7 49950.5 lineto
99565.7 47009.5 lineto
99034.3 47009.5 lineto
poly1
0 0 0 setrgbcolor
newpath
98034.3 47009.5 moveto
98034.3 49950.5 lineto
98565.7 49950.5 lineto
98565.7 47009.5 lineto
98034.3 47009.5 lineto
poly1
0 0 0 setrgbcolor
newpath
97034.3 47009.5 moveto
97034.3 49950.5 lineto
97565.7 49950.5 lineto
97565.7 47009.5 lineto
97034.3 47009.5 lineto
poly1
0 0 0 setrgbcolor
newpath
100830 43009.5 moveto
100830 44950.5 lineto
102770 44950.5 lineto
102770 43009.5 lineto
100830 43009.5 lineto
poly1
0 0 0 setrgbcolor
newpath
93829.5 43009.5 moveto
93829.5 44950.5 lineto
95770.5 44950.5 lineto
95770.5 43009.5 lineto
93829.5 43009.5 lineto
poly1
0 0 0 setrgbcolor
newpath
108470 47000.5 moveto
108470 45759.5 lineto
108030 45759.5 lineto
108030 47000.5 lineto
108470 47000.5 lineto
poly1
0 0 0 setrgbcolor
newpath
105570 47000.5 moveto
105570 45759.5 lineto
105130 45759.5 lineto
105130 47000.5 lineto
105570 47000.5 lineto
poly1
0 0 0 setrgbcolor
newpath
66079.5 42209.5 moveto
66079.5 42950.5 lineto
66620.5 42950.5 lineto
66620.5 42209.5 lineto
66079.5 42209.5 lineto
poly1
0 0 0 setrgbcolor
newpath
67379.5 42209.5 moveto
67379.5 42950.5 lineto
67920.5 42950.5 lineto
67920.5 42209.5 lineto
67379.5 42209.5 lineto
poly1
0 0 0 setrgbcolor
newpath
88220.5 41250.5 moveto
88220.5 40509.5 lineto
87679.5 40509.5 lineto
87679.5 41250.5 lineto
88220.5 41250.5 lineto
poly1
0 0 0 setrgbcolor
newpath
86920.5 41250.5 moveto
86920.5 40509.5 lineto
86379.5 40509.5 lineto
86379.5 41250.5 lineto
86920.5 41250.5 lineto
poly1
0 0 0 setrgbcolor
newpath
75420.5 39050.5 moveto
75420.5 38309.5 lineto
74879.5 38309.5 lineto
74879.5 39050.5 lineto
75420.5 39050.5 lineto
poly1
0 0 0 setrgbcolor
newpath
74120.5 39050.5 moveto
74120.5 38309.5 lineto
73579.5 38309.5 lineto
73579.5 39050.5 lineto
74120.5 39050.5 lineto
poly1
0 0 0 setrgbcolor
newpath
86379.5 44109.5 moveto
86379.5 44850.5 lineto
86920.5 44850.5 lineto
86920.5 44109.5 lineto
86379.5 44109.5 lineto
poly1
0 0 0 setrgbcolor
newpath
87679.5 44109.5 moveto
87679.5 44850.5 lineto
88220.5 44850.5 lineto
88220.5 44109.5 lineto
87679.5 44109.5 lineto
poly1
0 0 0 setrgbcolor
newpath
75679.5 40709.5 moveto
75679.5 41450.5 lineto
76220.5 41450.5 lineto
76220.5 40709.5 lineto
75679.5 40709.5 lineto
poly1
0 0 0 setrgbcolor
newpath
76979.5 40709.5 moveto
76979.5 41450.5 lineto
77520.5 41450.5 lineto
77520.5 40709.5 lineto
76979.5 40709.5 lineto
poly1
0 0 0 setrgbcolor
newpath
86379.5 42909.5 moveto
86379.5 43650.5 lineto
86920.5 43650.5 lineto
86920.5 42909.5 lineto
86379.5 42909.5 lineto
poly1
0 0 0 setrgbcolor
newpath
87679.5 42909.5 moveto
87679.5 43650.5 lineto
88220.5 43650.5 lineto
88220.5 42909.5 lineto
87679.5 42909.5 lineto
poly1
0 0 0 setrgbcolor
newpath
73529.5 41500.5 moveto
74270.5 41500.5 lineto
74270.5 40959.5 lineto
73529.5 40959.5 lineto
73529.5 41500.5 lineto
poly1
0 0 0 setrgbcolor
newpath
73529.5 40200.5 moveto
74270.5 40200.5 lineto
74270.5 39659.5 lineto
73529.5 39659.5 lineto
73529.5 40200.5 lineto
poly1
0 0 0 setrgbcolor
newpath
86379.5 41709.5 moveto
86379.5 42450.5 lineto
86920.5 42450.5 lineto
86920.5 41709.5 lineto
86379.5 41709.5 lineto
poly1
0 0 0 setrgbcolor
newpath
87679.5 41709.5 moveto
87679.5 42450.5 lineto
88220.5 42450.5 lineto
88220.5 41709.5 lineto
87679.5 41709.5 lineto
poly1
0 0 0 setrgbcolor
newpath
83679.5 37809.5 moveto
83679.5 38550.5 lineto
84220.5 38550.5 lineto
84220.5 37809.5 lineto
83679.5 37809.5 lineto
poly1
0 0 0 setrgbcolor
newpath
84979.5 37809.5 moveto
84979.5 38550.5 lineto
85520.5 38550.5 lineto
85520.5 37809.5 lineto
84979.5 37809.5 lineto
poly1
0 0 0 setrgbcolor
newpath
82429.5 40300.5 moveto
83170.5 40300.5 lineto
83170.5 39759.5 lineto
82429.5 39759.5 lineto
82429.5 40300.5 lineto
poly1
0 0 0 setrgbcolor
newpath
82429.5 39000.5 moveto
83170.5 39000.5 lineto
83170.5 38459.5 lineto
82429.5 38459.5 lineto
82429.5 39000.5 lineto
poly1
0 0 0 setrgbcolor
newpath
67920.5 44350.5 moveto
67920.5 43609.5 lineto
67379.5 43609.5 lineto
67379.5 44350.5 lineto
67920.5 44350.5 lineto
poly1
0 0 0 setrgbcolor
newpath
66620.5 44350.5 moveto
66620.5 43609.5 lineto
66079.5 43609.5 lineto
66079.5 44350.5 lineto
66620.5 44350.5 lineto
poly1
0 0 0 setrgbcolor
newpath
68279.5 45509.5 moveto
68279.5 46250.5 lineto
68820.5 46250.5 lineto
68820.5 45509.5 lineto
68279.5 45509.5 lineto
poly1
0 0 0 setrgbcolor
newpath
69579.5 45509.5 moveto
69579.5 46250.5 lineto
70120.5 46250.5 lineto
70120.5 45509.5 lineto
69579.5 45509.5 lineto
poly1
0 0 0 setrgbcolor
newpath
79129.5 45700.5 moveto
79870.5 45700.5 lineto
79870.5 45159.5 lineto
79129.5 45159.5 lineto
79129.5 45700.5 lineto
poly1
0 0 0 setrgbcolor
newpath
79129.5 44400.5 moveto
79870.5 44400.5 lineto
79870.5 43859.5 lineto
79129.5 43859.5 lineto
79129.5 44400.5 lineto
poly1
0 0 0 setrgbcolor
newpath
89079.5 36009.5 moveto
89079.5 36750.5 lineto
89620.5 36750.5 lineto
89620.5 36009.5 lineto
89079.5 36009.5 lineto
poly1
0 0 0 setrgbcolor
newpath
90379.5 36009.5 moveto
90379.5 36750.5 lineto
90920.5 36750.5 lineto
90920.5 36009.5 lineto
90379.5 36009.5 lineto
poly1
0 0 0 setrgbcolor
newpath
89079.5 37809.5 moveto
89079.5 38550.5 lineto
89620.5 38550.5 lineto
89620.5 37809.5 lineto
89079.5 37809.5 lineto
poly1
0 0 0 setrgbcolor
newpath
90379.5 37809.5 moveto
90379.5 38550.5 lineto
90920.5 38550.5 lineto
90920.5 37809.5 lineto
90379.5 37809.5 lineto
poly1
0 0 0 setrgbcolor
newpath
86379.5 46809.5 moveto
86379.5 47550.5 lineto
86920.5 47550.5 lineto
86920.5 46809.5 lineto
86379.5 46809.5 lineto
poly1
0 0 0 setrgbcolor
newpath
87679.5 46809.5 moveto
87679.5 47550.5 lineto
88220.5 47550.5 lineto
88220.5 46809.5 lineto
87679.5 46809.5 lineto
poly1
0 0 0 setrgbcolor
newpath
81829.5 53100.5 moveto
82570.5 53100.5 lineto
82570.5 52559.5 lineto
81829.5 52559.5 lineto
81829.5 53100.5 lineto
poly1
0 0 0 setrgbcolor
newpath
81829.5 51800.5 moveto
82570.5 51800.5 lineto
82570.5 51259.5 lineto
81829.5 51259.5 lineto
81829.5 51800.5 lineto
poly1
0 0 0 setrgbcolor
newpath
80770.5 51259.5 moveto
80029.5 51259.5 lineto
80029.5 51800.5 lineto
80770.5 51800.5 lineto
80770.5 51259.5 lineto
poly1
0 0 0 setrgbcolor
newpath
80770.5 52559.5 moveto
80029.5 52559.5 lineto
80029.5 53100.5 lineto
80770.5 53100.5 lineto
80770.5 52559.5 lineto
poly1
0 0 0 setrgbcolor
newpath
91070.5 39259.5 moveto
89129.5 39259.5 lineto
89129.5 39700.5 lineto
91070.5 39700.5 lineto
91070.5 39259.5 lineto
poly1
0 0 0 setrgbcolor
newpath
91070.5 40259.5 moveto
89129.5 40259.5 lineto
89129.5 40700.5 lineto
91070.5 40700.5 lineto
91070.5 40259.5 lineto
poly1
0 0 0 setrgbcolor
newpath
91070.5 41259.5 moveto
89129.5 41259.5 lineto
89129.5 41700.5 lineto
91070.5 41700.5 lineto
91070.5 41259.5 lineto
poly1
0 0 0 setrgbcolor
newpath
91070.5 42259.5 moveto
89129.5 42259.5 lineto
89129.5 42700.5 lineto
91070.5 42700.5 lineto
91070.5 42259.5 lineto
poly1
0 0 0 setrgbcolor
newpath
91070.5 43259.5 moveto
89129.5 43259.5 lineto
89129.5 43700.5 lineto
91070.5 43700.5 lineto
91070.5 43259.5 lineto
poly1
0 0 0 setrgbcolor
newpath
91070.5 44259.5 moveto
89129.5 44259.5 lineto
89129.5 44700.5 lineto
91070.5 44700.5 lineto
91070.5 44259.5 lineto
poly1
0 0 0 setrgbcolor
newpath
91070.5 45259.5 moveto
89129.5 45259.5 lineto
89129.5 45700.5 lineto
91070.5 45700.5 lineto
91070.5 45259.5 lineto
poly1
0 0 0 setrgbcolor
newpath
91070.5 46259.5 moveto
89129.5 46259.5 lineto
89129.5 46700.5 lineto
91070.5 46700.5 lineto
91070.5 46259.5 lineto
poly1
0 0 0 setrgbcolor
newpath
91070.5 47259.5 moveto
89129.5 47259.5 lineto
89129.5 47700.5 lineto
91070.5 47700.5 lineto
91070.5 47259.5 lineto
poly1
0 0 0 setrgbcolor
newpath
91070.5 48259.5 moveto
89129.5 48259.5 lineto
89129.5 48700.5 lineto
91070.5 48700.5 lineto
91070.5 48259.5 lineto
poly1
0 0 0 setrgbcolor
newpath
91070.5 49259.5 moveto
89129.5 49259.5 lineto
89129.5 49700.5 lineto
91070.5 49700.5 lineto
91070.5 49259.5 lineto
poly1
0 0 0 setrgbcolor
newpath
91070.5 50259.5 moveto
89129.5 50259.5 lineto
89129.5 50700.5 lineto
91070.5 50700.5 lineto
91070.5 50259.5 lineto
poly1
0 0 0 setrgbcolor
newpath
91070.5 51259.5 moveto
89129.5 51259.5 lineto
89129.5 51700.5 lineto
91070.5 51700.5 lineto
91070.5 51259.5 lineto
poly1
0 0 0 setrgbcolor
newpath
91070.5 52259.5 moveto
89129.5 52259.5 lineto
89129.5 52700.5 lineto
91070.5 52700.5 lineto
91070.5 52259.5 lineto
poly1
0 0 0 setrgbcolor
newpath
85570.5 52259.5 moveto
83629.5 52259.5 lineto
83629.5 52700.5 lineto
85570.5 52700.5 lineto
85570.5 52259.5 lineto
poly1
0 0 0 setrgbcolor
newpath
85570.5 51259.5 moveto
83629.5 51259.5 lineto
83629.5 51700.5 lineto
85570.5 51700.5 lineto
85570.5 51259.5 lineto
poly1
0 0 0 setrgbcolor
newpath
85570.5 50259.5 moveto
83629.5 50259.5 lineto
83629.5 50700.5 lineto
85570.5 50700.5 lineto
85570.5 50259.5 lineto
poly1
0 0 0 setrgbcolor
newpath
85570.5 49259.5 moveto
83629.5 49259.5 lineto
83629.5 49700.5 lineto
85570.5 49700.5 lineto
85570.5 49259.5 lineto
poly1
0 0 0 setrgbcolor
newpath
85570.5 48259.5 moveto
83629.5 48259.5 lineto
83629.5 48700.5 lineto
85570.5 48700.5 lineto
85570.5 48259.5 lineto
poly1
0 0 0 setrgbcolor
newpath
85570.5 47259.5 moveto
83629.5 47259.5 lineto
83629.5 47700.5 lineto
85570.5 47700.5 lineto
85570.5 47259.5 lineto
poly1
0 0 0 setrgbcolor
newpath
85570.5 46259.5 moveto
83629.5 46259.5 lineto
83629.5 46700.5 lineto
85570.5 46700.5 lineto
85570.5 46259.5 lineto
poly1
0 0 0 setrgbcolor
newpath
85570.5 45259.5 moveto
83629.5 45259.5 lineto
83629.5 45700.5 lineto
85570.5 45700.5 lineto
85570.5 45259.5 lineto
poly1
0 0 0 setrgbcolor
newpath
85570.5 44259.5 moveto
83629.5 44259.5 lineto
83629.5 44700.5 lineto
85570.5 44700.5 lineto
85570.5 44259.5 lineto
poly1
0 0 0 setrgbcolor
newpath
85570.5 43259.5 moveto
83629.5 43259.5 lineto
83629.5 43700.5 lineto
85570.5 43700.5 lineto
85570.5 43259.5 lineto
poly1
0 0 0 setrgbcolor
newpath
85570.5 42259.5 moveto
83629.5 42259.5 lineto
83629.5 42700.5 lineto
85570.5 42700.5 lineto
85570.5 42259.5 lineto
poly1
0 0 0 setrgbcolor
newpath
85570.5 41259.5 moveto
83629.5 41259.5 lineto
83629.5 41700.5 lineto
85570.5 41700.5 lineto
85570.5 41259.5 lineto
poly1
0 0 0 setrgbcolor
newpath
85570.5 40259.5 moveto
83629.5 40259.5 lineto
83629.5 40700.5 lineto
85570.5 40700.5 lineto
85570.5 40259.5 lineto
poly1
0 0 0 setrgbcolor
newpath
85570.5 39259.5 moveto
83629.5 39259.5 lineto
83629.5 39700.5 lineto
85570.5 39700.5 lineto
85570.5 39259.5 lineto
poly1
0 0 0 setrgbcolor
newpath
108266 55550.5 moveto
108266 53609.5 lineto
107734 53609.5 lineto
107734 55550.5 lineto
108266 55550.5 lineto
poly1
0 0 0 setrgbcolor
newpath
105766 55550.5 moveto
105766 53609.5 lineto
105234 53609.5 lineto
105234 55550.5 lineto
105766 55550.5 lineto
poly1
0 0 0 setrgbcolor
newpath
105766 50050.5 moveto
105766 48109.5 lineto
105234 48109.5 lineto
105234 50050.5 lineto
105766 50050.5 lineto
poly1
0 0 0 setrgbcolor
newpath
108266 50050.5 moveto
108266 48109.5 lineto
107734 48109.5 lineto
107734 50050.5 lineto
108266 50050.5 lineto
poly1
0 0 0 setrgbcolor
newpath
68265.7 41150.5 moveto
68265.7 39209.5 lineto
67734.3 39209.5 lineto
67734.3 41150.5 lineto
68265.7 41150.5 lineto
poly1
0 0 0 setrgbcolor
newpath
67265.7 41150.5 moveto
67265.7 39209.5 lineto
66734.3 39209.5 lineto
66734.3 41150.5 lineto
67265.7 41150.5 lineto
poly1
0 0 0 setrgbcolor
newpath
66265.7 41150.5 moveto
66265.7 39209.5 lineto
65734.3 39209.5 lineto
65734.3 41150.5 lineto
66265.7 41150.5 lineto
poly1
0 0 0 setrgbcolor
newpath
65265.7 41150.5 moveto
65265.7 39209.5 lineto
64734.3 39209.5 lineto
64734.3 41150.5 lineto
65265.7 41150.5 lineto
poly1
0 0 0 setrgbcolor
newpath
65265.7 35650.5 moveto
65265.7 33709.5 lineto
64734.3 33709.5 lineto
64734.3 35650.5 lineto
65265.7 35650.5 lineto
poly1
0 0 0 setrgbcolor
newpath
66265.7 35650.5 moveto
66265.7 33709.5 lineto
65734.3 33709.5 lineto
65734.3 35650.5 lineto
66265.7 35650.5 lineto
poly1
0 0 0 setrgbcolor
newpath
67265.7 35650.5 moveto
67265.7 33709.5 lineto
66734.3 33709.5 lineto
66734.3 35650.5 lineto
67265.7 35650.5 lineto
poly1
0 0 0 setrgbcolor
newpath
68265.7 35650.5 moveto
68265.7 33709.5 lineto
67734.3 33709.5 lineto
67734.3 35650.5 lineto
68265.7 35650.5 lineto
poly1
0 0 0 setrgbcolor
newpath
72634.3 33809.5 moveto
72634.3 36750.5 lineto
73165.7 36750.5 lineto
73165.7 33809.5 lineto
72634.3 33809.5 lineto
poly1
0 0 0 setrgbcolor
newpath
73634.3 33809.5 moveto
73634.3 36750.5 lineto
74165.7 36750.5 lineto
74165.7 33809.5 lineto
73634.3 33809.5 lineto
poly1
0 0 0 setrgbcolor
newpath
74634.3 33809.5 moveto
74634.3 36750.5 lineto
75165.7 36750.5 lineto
75165.7 33809.5 lineto
74634.3 33809.5 lineto
poly1
0 0 0 setrgbcolor
newpath
75634.3 33809.5 moveto
75634.3 36750.5 lineto
76165.7 36750.5 lineto
76165.7 33809.5 lineto
75634.3 33809.5 lineto
poly1
0 0 0 setrgbcolor
newpath
76634.3 33809.5 moveto
76634.3 36750.5 lineto
77165.7 36750.5 lineto
77165.7 33809.5 lineto
76634.3 33809.5 lineto
poly1
0 0 0 setrgbcolor
newpath
77634.3 33809.5 moveto
77634.3 36750.5 lineto
78165.7 36750.5 lineto
78165.7 33809.5 lineto
77634.3 33809.5 lineto
poly1
0 0 0 setrgbcolor
newpath
77634.3 43309.5 moveto
77634.3 46250.5 lineto
78165.7 46250.5 lineto
78165.7 43309.5 lineto
77634.3 43309.5 lineto
poly1
0 0 0 setrgbcolor
newpath
76634.3 43309.5 moveto
76634.3 46250.5 lineto
77165.7 46250.5 lineto
77165.7 43309.5 lineto
76634.3 43309.5 lineto
poly1
0 0 0 setrgbcolor
newpath
75634.3 43309.5 moveto
75634.3 46250.5 lineto
76165.7 46250.5 lineto
76165.7 43309.5 lineto
75634.3 43309.5 lineto
poly1
0 0 0 setrgbcolor
newpath
74634.3 43309.5 moveto
74634.3 46250.5 lineto
75165.7 46250.5 lineto
75165.7 43309.5 lineto
74634.3 43309.5 lineto
poly1
0 0 0 setrgbcolor
newpath
73634.3 43309.5 moveto
73634.3 46250.5 lineto
74165.7 46250.5 lineto
74165.7 43309.5 lineto
73634.3 43309.5 lineto
poly1
0 0 0 setrgbcolor
newpath
72634.3 43309.5 moveto
72634.3 46250.5 lineto
73165.7 46250.5 lineto
73165.7 43309.5 lineto
72634.3 43309.5 lineto
poly1
0 0 0 setrgbcolor
newpath
90920.5 54009.5 moveto
90479.5 54009.5 lineto
90479.5 55950.5 lineto
90920.5 55950.5 lineto
90920.5 54009.5 lineto
poly1
0 0 0 setrgbcolor
newpath
89920.5 54009.5 moveto
89479.5 54009.5 lineto
89479.5 55950.5 lineto
89920.5 55950.5 lineto
89920.5 54009.5 lineto
poly1
0 0 0 setrgbcolor
newpath
88920.5 54009.5 moveto
88479.5 54009.5 lineto
88479.5 55950.5 lineto
88920.5 55950.5 lineto
88920.5 54009.5 lineto
poly1
0 0 0 setrgbcolor
newpath
87920.5 54009.5 moveto
87479.5 54009.5 lineto
87479.5 55950.5 lineto
87920.5 55950.5 lineto
87920.5 54009.5 lineto
poly1
0 0 0 setrgbcolor
newpath
86920.5 54009.5 moveto
86479.5 54009.5 lineto
86479.5 55950.5 lineto
86920.5 55950.5 lineto
86920.5 54009.5 lineto
poly1
0 0 0 setrgbcolor
newpath
85920.5 54009.5 moveto
85479.5 54009.5 lineto
85479.5 55950.5 lineto
85920.5 55950.5 lineto
85920.5 54009.5 lineto
poly1
0 0 0 setrgbcolor
newpath
65570.5 43600.5 moveto
65570.5 43159.5 lineto
63629.5 43159.5 lineto
63629.5 43600.5 lineto
65570.5 43600.5 lineto
poly1
0 0 0 setrgbcolor
newpath
65570.5 42600.5 moveto
65570.5 42159.5 lineto
63629.5 42159.5 lineto
63629.5 42600.5 lineto
65570.5 42600.5 lineto
poly1
0 0 0 setrgbcolor
newpath
100480 55950.5 moveto
100920 55950.5 lineto
100920 54009.5 lineto
100480 54009.5 lineto
100480 55950.5 lineto
poly1
0 0 0 setrgbcolor
newpath
101480 55950.5 moveto
101920 55950.5 lineto
101920 54009.5 lineto
101480 54009.5 lineto
101480 55950.5 lineto
poly1
0 0 0 setrgbcolor
newpath
81520.5 54009.5 moveto
81079.5 54009.5 lineto
81079.5 55950.5 lineto
81520.5 55950.5 lineto
81520.5 54009.5 lineto
poly1
0 0 0 setrgbcolor
newpath
80520.5 54009.5 moveto
80079.5 54009.5 lineto
80079.5 55950.5 lineto
80520.5 55950.5 lineto
80520.5 54009.5 lineto
poly1
0 0 0 setrgbcolor
newpath
84120.5 54009.5 moveto
83679.5 54009.5 lineto
83679.5 55950.5 lineto
84120.5 55950.5 lineto
84120.5 54009.5 lineto
poly1
0 0 0 setrgbcolor
newpath
83120.5 54009.5 moveto
82679.5 54009.5 lineto
82679.5 55950.5 lineto
83120.5 55950.5 lineto
83120.5 54009.5 lineto
poly1
0 0 0 setrgbcolor
newpath
83150.5 36879.5 moveto
82849.5 36879.5 lineto
82849.5 37180.5 lineto
83150.5 37180.5 lineto
83150.5 36879.5 lineto
poly1
0 0 0 setrgbcolor
newpath
83150.5 37579.5 moveto
82849.5 37579.5 lineto
82849.5 37880.5 lineto
83150.5 37880.5 lineto
83150.5 37579.5 lineto
poly1
0 0 0 setrgbcolor
newpath
82350.5 37229.5 moveto
82049.5 37229.5 lineto
82049.5 37530.5 lineto
82350.5 37530.5 lineto
82350.5 37229.5 lineto
poly1
0 0 0 setrgbcolor
newpath
81950.5 44279.5 moveto
81649.5 44279.5 lineto
81649.5 44580.5 lineto
81950.5 44580.5 lineto
81950.5 44279.5 lineto
poly1
0 0 0 setrgbcolor
newpath
81950.5 44979.5 moveto
81649.5 44979.5 lineto
81649.5 45280.5 lineto
81950.5 45280.5 lineto
81950.5 44979.5 lineto
poly1
0 0 0 setrgbcolor
newpath
81150.5 44629.5 moveto
80849.5 44629.5 lineto
80849.5 44930.5 lineto
81150.5 44930.5 lineto
81150.5 44629.5 lineto
poly1
0 0 0 setrgbcolor
newpath
86899.5 35229.5 moveto
86899.5 35530.5 lineto
87200.5 35530.5 lineto
87200.5 35229.5 lineto
86899.5 35229.5 lineto
poly1
0 0 0 setrgbcolor
newpath
87599.5 35229.5 moveto
87599.5 35530.5 lineto
87900.5 35530.5 lineto
87900.5 35229.5 lineto
87599.5 35229.5 lineto
poly1
0 0 0 setrgbcolor
newpath
87249.5 36029.5 moveto
87249.5 36330.5 lineto
87550.5 36330.5 lineto
87550.5 36029.5 lineto
87249.5 36029.5 lineto
poly1
0 0 0 setrgbcolor
newpath
86899.5 37229.5 moveto
86899.5 37530.5 lineto
87200.5 37530.5 lineto
87200.5 37229.5 lineto
86899.5 37229.5 lineto
poly1
0 0 0 setrgbcolor
newpath
87599.5 37229.5 moveto
87599.5 37530.5 lineto
87900.5 37530.5 lineto
87900.5 37229.5 lineto
87599.5 37229.5 lineto
poly1
0 0 0 setrgbcolor
newpath
87249.5 38029.5 moveto
87249.5 38330.5 lineto
87550.5 38330.5 lineto
87550.5 38029.5 lineto
87249.5 38029.5 lineto
poly1
0 0 0 setrgbcolor
newpath
87779.5 52909.5 moveto
87779.5 53650.5 lineto
88320.5 53650.5 lineto
88320.5 52909.5 lineto
87779.5 52909.5 lineto
poly1
0 0 0 setrgbcolor
newpath
89079.5 52909.5 moveto
89079.5 53650.5 lineto
89620.5 53650.5 lineto
89620.5 52909.5 lineto
89079.5 52909.5 lineto
poly1
0 0 0 setrgbcolor
newpath
87429.5 52400.5 moveto
88170.5 52400.5 lineto
88170.5 51859.5 lineto
87429.5 51859.5 lineto
87429.5 52400.5 lineto
poly1
0 0 0 setrgbcolor
newpath
87429.5 51100.5 moveto
88170.5 51100.5 lineto
88170.5 50559.5 lineto
87429.5 50559.5 lineto
87429.5 51100.5 lineto
poly1
0 0 0 setrgbcolor
newpath
94229.5 40700.5 moveto
94970.5 40700.5 lineto
94970.5 40159.5 lineto
94229.5 40159.5 lineto
94229.5 40700.5 lineto
poly1
0 0 0 setrgbcolor
newpath
94229.5 39400.5 moveto
94970.5 39400.5 lineto
94970.5 38859.5 lineto
94229.5 38859.5 lineto
94229.5 39400.5 lineto
poly1
0 0 0 setrgbcolor
newpath
95579.5 34159.5 moveto
95579.5 34800.5 lineto
96220.5 34800.5 lineto
96220.5 34159.5 lineto
95579.5 34159.5 lineto
poly1
0 0 0 setrgbcolor
newpath
100680 33759.5 moveto
100680 37200.5 lineto
104120 37200.5 lineto
104120 33759.5 lineto
100680 33759.5 lineto
poly1
0 0 0 setrgbcolor
newpath
95579.5 35159.5 moveto
95579.5 35800.5 lineto
96220.5 35800.5 lineto
96220.5 35159.5 lineto
95579.5 35159.5 lineto
poly1
0 0 0 setrgbcolor
newpath
95579.5 36159.5 moveto
95579.5 36800.5 lineto
96220.5 36800.5 lineto
96220.5 36159.5 lineto
95579.5 36159.5 lineto
poly1
0 0 0 setrgbcolor
200 setlinewidth
newpath
100000 56080 moveto
91400 56080 lineto
stroke
0 0 0 setrgbcolor
newpath
72400 32380 moveto
63500 32380 lineto
stroke
0 0 0 setrgbcolor
newpath
63500 32380 moveto
63500 41680 lineto
stroke
0 0 0 setrgbcolor
newpath
63500 44080 moveto
63500 56080 lineto
stroke
0 0 0 setrgbcolor
newpath
63500 56080 moveto
78800 56080 lineto
stroke
0 0 0 setrgbcolor
newpath
102400 56080 moveto
109100 56080 lineto
stroke
0 0 0 setrgbcolor
newpath
109100 32380 moveto
79400 32380 lineto
stroke
0 0 0 setrgbcolor
newpath
109100 56080 moveto
109100 32380 lineto
stroke
0 0 0 setrgbcolor
newpath
75150 38680 moveto
76000 38680 lineto
stroke
0 0 0 setrgbcolor
newpath
82400 41480 moveto
84600 41480 lineto
stroke
0 0 0 setrgbcolor
newpath
79900 38980 moveto
82400 41480 lineto
stroke
0 0 0 setrgbcolor
newpath
76300 38980 moveto
79900 38980 lineto
stroke
0 0 0 setrgbcolor
newpath
76000 38680 moveto
76300 38980 lineto
stroke
0 0 0 setrgbcolor
newpath
84600 40480 moveto
83250 40480 lineto
stroke
0 0 0 setrgbcolor
newpath
83250 40480 moveto
82800 40030 lineto
stroke
0 0 0 setrgbcolor
newpath
77250 41080 moveto
79400 41080 lineto
stroke
0 0 0 setrgbcolor
newpath
83400 43480 moveto
84600 43480 lineto
stroke
0 0 0 setrgbcolor
newpath
83100 43180 moveto
83400 43480 lineto
stroke
0 0 0 setrgbcolor
newpath
81500 43180 moveto
83100 43180 lineto
stroke
0 0 0 setrgbcolor
newpath
79400 41080 moveto
81500 43180 lineto
stroke
0 0 0 setrgbcolor
newpath
73900 39930 moveto
79550 39930 lineto
stroke
0 0 0 setrgbcolor
newpath
84500 42380 moveto
84600 42480 lineto
stroke
0 0 0 setrgbcolor
newpath
82000 42380 moveto
84500 42380 lineto
stroke
0 0 0 setrgbcolor
newpath
79550 39930 moveto
82000 42380 lineto
stroke
0 0 0 setrgbcolor
newpath
90100 42480 moveto
89100 42480 lineto
stroke
0 0 0 setrgbcolor
newpath
88700 42080 moveto
87950 42080 lineto
stroke
0 0 0 setrgbcolor
newpath
89100 42480 moveto
88700 42080 lineto
stroke
0 0 0 setrgbcolor
newpath
90100 41480 moveto
89200 41480 lineto
stroke
0 0 0 setrgbcolor
newpath
88600 40880 moveto
87950 40880 lineto
stroke
0 0 0 setrgbcolor
newpath
89200 41480 moveto
88600 40880 lineto
stroke
0 0 0 setrgbcolor
newpath
87950 44480 moveto
90100 44480 lineto
stroke
0 0 0 setrgbcolor
newpath
86700 54980 moveto
86700 53680 lineto
stroke
0 0 0 setrgbcolor
newpath
85700 49480 moveto
84600 49480 lineto
stroke
0 0 0 setrgbcolor
newpath
86000 49780 moveto
85700 49480 lineto
stroke
0 0 0 setrgbcolor
newpath
86000 50180 moveto
86000 49780 lineto
stroke
0 0 0 setrgbcolor
newpath
86300 50480 moveto
86000 50180 lineto
stroke
0 0 0 setrgbcolor
newpath
86300 53280 moveto
86300 50480 lineto
stroke
0 0 0 setrgbcolor
newpath
86700 53680 moveto
86300 53280 lineto
stroke
0 0 0 setrgbcolor
newpath
85700 54980 moveto
85700 53180 lineto
stroke
0 0 0 setrgbcolor
newpath
85700 50480 moveto
84600 50480 lineto
stroke
0 0 0 setrgbcolor
newpath
85900 50680 moveto
85700 50480 lineto
stroke
0 0 0 setrgbcolor
newpath
85900 52980 moveto
85900 50680 lineto
stroke
0 0 0 setrgbcolor
newpath
85700 53180 moveto
85900 52980 lineto
stroke
0 0 0 setrgbcolor
newpath
91100 51980 moveto
91300 51980 lineto
stroke
0 0 0 setrgbcolor
newpath
88700 52180 moveto
88900 51980 lineto
stroke
0 0 0 setrgbcolor
newpath
88900 51980 moveto
91100 51980 lineto
stroke
0 0 0 setrgbcolor
newpath
88700 54980 moveto
88700 52180 lineto
stroke
0 0 0 setrgbcolor
newpath
87950 49230 moveto
87950 47180 lineto
stroke
0 0 0 setrgbcolor
newpath
88600 49880 moveto
87950 49230 lineto
stroke
0 0 0 setrgbcolor
newpath
88600 50780 moveto
88600 49880 lineto
stroke
0 0 0 setrgbcolor
newpath
88800 50980 moveto
88600 50780 lineto
stroke
0 0 0 setrgbcolor
newpath
91300 50980 moveto
88800 50980 lineto
stroke
0 0 0 setrgbcolor
newpath
91400 51080 moveto
91300 50980 lineto
stroke
0 0 0 setrgbcolor
newpath
91400 51880 moveto
91400 51080 lineto
stroke
0 0 0 setrgbcolor
newpath
91300 51980 moveto
91400 51880 lineto
stroke
0 0 0 setrgbcolor
newpath
87950 47180 moveto
87950 46430 lineto
stroke
0 0 0 setrgbcolor
newpath
87700 39480 moveto
90100 39480 lineto
stroke
0 0 0 setrgbcolor
newpath
87300 39880 moveto
87700 39480 lineto
stroke
0 0 0 setrgbcolor
newpath
87300 45780 moveto
87300 39880 lineto
stroke
0 0 0 setrgbcolor
newpath
87950 46430 moveto
87300 45780 lineto
stroke
0 0 0 setrgbcolor
newpath
87700 54980 moveto
87700 54080 lineto
stroke
0 0 0 setrgbcolor
newpath
85700 48480 moveto
84600 48480 lineto
stroke
0 0 0 setrgbcolor
newpath
85900 48680 moveto
85700 48480 lineto
stroke
0 0 0 setrgbcolor
newpath
85900 49080 moveto
85900 48680 lineto
stroke
0 0 0 setrgbcolor
newpath
86400 49580 moveto
85900 49080 lineto
stroke
0 0 0 setrgbcolor
newpath
86400 49980 moveto
86400 49580 lineto
stroke
0 0 0 setrgbcolor
newpath
86700 50280 moveto
86400 49980 lineto
stroke
0 0 0 setrgbcolor
newpath
86700 53080 moveto
86700 50280 lineto
stroke
0 0 0 setrgbcolor
newpath
87700 54080 moveto
86700 53080 lineto
stroke
0 0 0 setrgbcolor
newpath
84600 51480 moveto
83600 51480 lineto
stroke
0 0 0 setrgbcolor
newpath
82950 52830 moveto
82200 52830 lineto
stroke
0 0 0 setrgbcolor
newpath
83100 52680 moveto
82950 52830 lineto
stroke
0 0 0 setrgbcolor
newpath
83100 51980 moveto
83100 52680 lineto
stroke
0 0 0 setrgbcolor
newpath
83600 51480 moveto
83100 51980 lineto
stroke
0 0 0 setrgbcolor
newpath
90100 47480 moveto
88900 47480 lineto
stroke
0 0 0 setrgbcolor
newpath
91600 36380 moveto
90650 36380 lineto
stroke
0 0 0 setrgbcolor
newpath
92000 36780 moveto
91600 36380 lineto
stroke
0 0 0 setrgbcolor
newpath
92000 40580 moveto
92000 36780 lineto
stroke
0 0 0 setrgbcolor
newpath
91400 41180 moveto
92000 40580 lineto
stroke
0 0 0 setrgbcolor
newpath
91400 44780 moveto
91400 41180 lineto
stroke
0 0 0 setrgbcolor
newpath
91200 44980 moveto
91400 44780 lineto
stroke
0 0 0 setrgbcolor
newpath
89000 44980 moveto
91200 44980 lineto
stroke
0 0 0 setrgbcolor
newpath
88800 45180 moveto
89000 44980 lineto
stroke
0 0 0 setrgbcolor
newpath
88800 47380 moveto
88800 45180 lineto
stroke
0 0 0 setrgbcolor
newpath
88900 47480 moveto
88800 47380 lineto
stroke
0 0 0 setrgbcolor
newpath
90650 38180 moveto
91200 38180 lineto
stroke
0 0 0 setrgbcolor
newpath
91500 40480 moveto
90100 40480 lineto
stroke
0 0 0 setrgbcolor
newpath
91600 40380 moveto
91500 40480 lineto
stroke
0 0 0 setrgbcolor
newpath
91600 38580 moveto
91600 40380 lineto
stroke
0 0 0 setrgbcolor
newpath
91200 38180 moveto
91600 38580 lineto
stroke
0 0 0 setrgbcolor
newpath
85250 38180 moveto
85250 38830 lineto
stroke
0 0 0 setrgbcolor
newpath
85250 38830 moveto
84600 39480 lineto
stroke
0 0 0 setrgbcolor
newpath
79500 44130 moveto
80950 44130 lineto
stroke
0 0 0 setrgbcolor
newpath
83300 44480 moveto
84600 44480 lineto
stroke
0 0 0 setrgbcolor
newpath
82800 43980 moveto
83300 44480 lineto
stroke
0 0 0 setrgbcolor
newpath
81100 43980 moveto
82800 43980 lineto
stroke
0 0 0 setrgbcolor
newpath
80950 44130 moveto
81100 43980 lineto
stroke
0 0 0 setrgbcolor
newpath
90100 43480 moveto
88600 43480 lineto
stroke
0 0 0 setrgbcolor
newpath
88400 43280 moveto
87950 43280 lineto
stroke
0 0 0 setrgbcolor
newpath
88600 43480 moveto
88400 43280 lineto
stroke
0 0 0 setrgbcolor
newpath
84600 52480 moveto
84600 54280 lineto
stroke
0 0 0 setrgbcolor
newpath
84600 54280 moveto
83900 54980 lineto
stroke
0 0 0 setrgbcolor
newpath
83000 47980 moveto
71700 47980 lineto
stroke
0 0 0 setrgbcolor
newpath
87300 51480 moveto
87100 51280 lineto
stroke
0 0 0 setrgbcolor
newpath
87100 51280 moveto
87100 50080 lineto
stroke
0 0 0 setrgbcolor
newpath
87100 50080 moveto
86800 49780 lineto
stroke
0 0 0 setrgbcolor
newpath
86800 49780 moveto
86800 49380 lineto
stroke
0 0 0 setrgbcolor
newpath
86800 49380 moveto
86300 48880 lineto
stroke
0 0 0 setrgbcolor
newpath
86300 48880 moveto
86300 48480 lineto
stroke
0 0 0 setrgbcolor
newpath
86300 48480 moveto
85800 47980 lineto
stroke
0 0 0 setrgbcolor
newpath
85800 47980 moveto
83000 47980 lineto
stroke
0 0 0 setrgbcolor
newpath
90100 51480 moveto
87300 51480 lineto
stroke
0 0 0 setrgbcolor
newpath
70200 46230 moveto
69850 45880 lineto
stroke
0 0 0 setrgbcolor
newpath
70200 46480 moveto
70200 46230 lineto
stroke
0 0 0 setrgbcolor
newpath
71700 47980 moveto
70200 46480 lineto
stroke
0 0 0 setrgbcolor
newpath
69850 45880 moveto
69850 41530 lineto
stroke
0 0 0 setrgbcolor
newpath
68500 40180 moveto
68000 40180 lineto
stroke
0 0 0 setrgbcolor
newpath
69850 41530 moveto
68500 40180 lineto
stroke
0 0 0 setrgbcolor
newpath
97300 48480 moveto
90100 48480 lineto
stroke
0 0 0 setrgbcolor
newpath
90100 49480 moveto
94900 49480 lineto
stroke
0 0 0 setrgbcolor
newpath
99300 50280 moveto
99300 48480 lineto
stroke
0 0 0 setrgbcolor
newpath
98800 50780 moveto
99300 50280 lineto
stroke
0 0 0 setrgbcolor
newpath
96200 50780 moveto
98800 50780 lineto
stroke
0 0 0 setrgbcolor
newpath
94900 49480 moveto
96200 50780 lineto
stroke
0 0 0 setrgbcolor
newpath
90100 50480 moveto
94700 50480 lineto
stroke
0 0 0 setrgbcolor
newpath
102800 39980 moveto
99300 39980 lineto
stroke
0 0 0 setrgbcolor
newpath
103600 40780 moveto
102800 39980 lineto
stroke
0 0 0 setrgbcolor
newpath
103600 46980 moveto
103600 40780 lineto
stroke
0 0 0 setrgbcolor
newpath
99000 51580 moveto
103600 46980 lineto
stroke
0 0 0 setrgbcolor
newpath
95800 51580 moveto
99000 51580 lineto
stroke
0 0 0 setrgbcolor
newpath
94700 50480 moveto
95800 51580 lineto
stroke
0 0 0 setrgbcolor
newpath
105350 46380 moveto
105350 39330 lineto
stroke
0 0 0 setrgbcolor
newpath
96500 35480 moveto
95900 35480 lineto
stroke
0 0 0 setrgbcolor
newpath
96900 35880 moveto
96500 35480 lineto
stroke
0 0 0 setrgbcolor
newpath
96900 36880 moveto
96900 35880 lineto
stroke
0 0 0 setrgbcolor
newpath
97700 37680 moveto
96900 36880 lineto
stroke
0 0 0 setrgbcolor
newpath
103700 37680 moveto
97700 37680 lineto
stroke
0 0 0 setrgbcolor
newpath
105350 39330 moveto
103700 37680 lineto
stroke
0 0 0 setrgbcolor
newpath
95900 35480 moveto
95100 35480 lineto
stroke
0 0 0 setrgbcolor
newpath
95100 35480 moveto
94600 35980 lineto
stroke
0 0 0 setrgbcolor
newpath
94600 35980 moveto
94600 39130 lineto
stroke
0 0 0 setrgbcolor
newpath
87050 35380 moveto
87050 34930 lineto
stroke
0 0 0 setrgbcolor
newpath
93050 39130 moveto
94600 39130 lineto
stroke
0 0 0 setrgbcolor
newpath
92500 38580 moveto
93050 39130 lineto
stroke
0 0 0 setrgbcolor
newpath
92500 35380 moveto
92500 38580 lineto
stroke
0 0 0 setrgbcolor
newpath
91900 34780 moveto
92500 35380 lineto
stroke
0 0 0 setrgbcolor
newpath
87200 34780 moveto
91900 34780 lineto
stroke
0 0 0 setrgbcolor
newpath
87050 34930 moveto
87200 34780 lineto
stroke
0 0 0 setrgbcolor
newpath
94600 40430 moveto
96850 40430 lineto
stroke
0 0 0 setrgbcolor
newpath
96850 40430 moveto
97300 39980 lineto
stroke
0 0 0 setrgbcolor
newpath
90700 54980 moveto
91100 54980 lineto
stroke
0 0 0 setrgbcolor
newpath
103200 49080 moveto
105500 49080 lineto
stroke
0 0 0 setrgbcolor
newpath
98400 53880 moveto
103200 49080 lineto
stroke
0 0 0 setrgbcolor
newpath
92200 53880 moveto
98400 53880 lineto
stroke
0 0 0 setrgbcolor
newpath
91100 54980 moveto
92200 53880 lineto
stroke
0 0 0 setrgbcolor
newpath
69800 32980 moveto
72500 32980 lineto
stroke
0 0 0 setrgbcolor
newpath
81800 35380 moveto
87050 35380 lineto
stroke
0 0 0 setrgbcolor
newpath
79000 32580 moveto
81800 35380 lineto
stroke
0 0 0 setrgbcolor
newpath
72900 32580 moveto
79000 32580 lineto
stroke
0 0 0 setrgbcolor
newpath
72500 32980 moveto
72900 32580 lineto
stroke
0 0 0 setrgbcolor
newpath
105350 46380 moveto
105350 48930 lineto
stroke
0 0 0 setrgbcolor
newpath
105350 48930 moveto
105500 49080 lineto
stroke
0 0 0 setrgbcolor
newpath
90100 46480 moveto
98300 46480 lineto
stroke
0 0 0 setrgbcolor
newpath
98200 46580 moveto
98300 46580 lineto
stroke
0 0 0 setrgbcolor
newpath
98300 46480 moveto
98200 46580 lineto
stroke
0 0 0 setrgbcolor
newpath
98300 48480 moveto
98300 46580 lineto
stroke
0 0 0 setrgbcolor
newpath
98300 46580 moveto
98300 44280 lineto
stroke
0 0 0 setrgbcolor
newpath
98300 44280 moveto
97300 43280 lineto
stroke
0 0 0 setrgbcolor
newpath
97300 43280 moveto
97300 39980 lineto
stroke
0 0 0 setrgbcolor
newpath
87050 37380 moveto
87050 36930 lineto
stroke
0 0 0 setrgbcolor
newpath
87050 36930 moveto
87200 36780 lineto
stroke
0 0 0 setrgbcolor
newpath
87200 36780 moveto
88000 36780 lineto
stroke
0 0 0 setrgbcolor
newpath
88000 36780 moveto
88200 36580 lineto
stroke
0 0 0 setrgbcolor
newpath
88200 36580 moveto
88200 35980 lineto
stroke
0 0 0 setrgbcolor
newpath
88200 35980 moveto
88000 35780 lineto
stroke
0 0 0 setrgbcolor
newpath
88000 35780 moveto
87200 35780 lineto
stroke
0 0 0 setrgbcolor
newpath
87200 35780 moveto
87050 35630 lineto
stroke
0 0 0 setrgbcolor
newpath
87050 35630 moveto
87050 35380 lineto
stroke
0 0 0 setrgbcolor
newpath
84600 45480 moveto
83100 45480 lineto
stroke
0 0 0 setrgbcolor
newpath
64600 40180 moveto
65000 40180 lineto
stroke
0 0 0 setrgbcolor
newpath
64000 39580 moveto
64600 40180 lineto
stroke
0 0 0 setrgbcolor
newpath
64000 33380 moveto
64000 39580 lineto
stroke
0 0 0 setrgbcolor
newpath
64400 32980 moveto
64000 33380 lineto
stroke
0 0 0 setrgbcolor
newpath
69800 32980 moveto
64400 32980 lineto
stroke
0 0 0 setrgbcolor
newpath
71200 34380 moveto
69800 32980 lineto
stroke
0 0 0 setrgbcolor
newpath
71200 45380 moveto
71200 34380 lineto
stroke
0 0 0 setrgbcolor
newpath
72800 46980 moveto
71200 45380 lineto
stroke
0 0 0 setrgbcolor
newpath
81600 46980 moveto
72800 46980 lineto
stroke
0 0 0 setrgbcolor
newpath
83100 45480 moveto
81600 46980 lineto
stroke
0 0 0 setrgbcolor
newpath
81800 44430 moveto
82550 44430 lineto
stroke
0 0 0 setrgbcolor
newpath
83600 45480 moveto
84600 45480 lineto
stroke
0 0 0 setrgbcolor
newpath
82550 44430 moveto
83600 45480 lineto
stroke
0 0 0 setrgbcolor
newpath
69200 45180 moveto
69200 42880 lineto
stroke
0 0 0 setrgbcolor
newpath
69200 42880 moveto
67900 41580 lineto
stroke
0 0 0 setrgbcolor
newpath
67900 41580 moveto
67700 41580 lineto
stroke
0 0 0 setrgbcolor
newpath
67700 41580 moveto
67500 41380 lineto
stroke
0 0 0 setrgbcolor
newpath
67500 41380 moveto
67500 38780 lineto
stroke
0 0 0 setrgbcolor
newpath
67500 38780 moveto
67200 38480 lineto
stroke
0 0 0 setrgbcolor
newpath
67200 38480 moveto
65300 38480 lineto
stroke
0 0 0 setrgbcolor
newpath
65300 38480 moveto
65000 38780 lineto
stroke
0 0 0 setrgbcolor
newpath
65000 38780 moveto
65000 40180 lineto
stroke
0 0 0 setrgbcolor
newpath
79500 52380 moveto
79500 48880 lineto
stroke
0 0 0 setrgbcolor
newpath
69200 46580 moveto
69200 45180 lineto
stroke
0 0 0 setrgbcolor
newpath
71200 48580 moveto
69200 46580 lineto
stroke
0 0 0 setrgbcolor
newpath
79200 48580 moveto
71200 48580 lineto
stroke
0 0 0 setrgbcolor
newpath
79500 48880 moveto
79200 48580 lineto
stroke
0 0 0 setrgbcolor
newpath
83000 37030 moveto
85450 37030 lineto
stroke
0 0 0 setrgbcolor
newpath
87050 37630 moveto
87050 37380 lineto
stroke
0 0 0 setrgbcolor
newpath
87200 37780 moveto
87050 37630 lineto
stroke
0 0 0 setrgbcolor
newpath
88000 37780 moveto
87200 37780 lineto
stroke
0 0 0 setrgbcolor
newpath
88200 37980 moveto
88000 37780 lineto
stroke
0 0 0 setrgbcolor
newpath
88200 38580 moveto
88200 37980 lineto
stroke
0 0 0 setrgbcolor
newpath
87800 38980 moveto
88200 38580 lineto
stroke
0 0 0 setrgbcolor
newpath
86200 38980 moveto
87800 38980 lineto
stroke
0 0 0 setrgbcolor
newpath
86000 38780 moveto
86200 38980 lineto
stroke
0 0 0 setrgbcolor
newpath
86000 37580 moveto
86000 38780 lineto
stroke
0 0 0 setrgbcolor
newpath
85450 37030 moveto
86000 37580 lineto
stroke
0 0 0 setrgbcolor
newpath
66350 42580 moveto
64800 42580 lineto
stroke
0 0 0 setrgbcolor
newpath
64800 42580 moveto
64600 42380 lineto
stroke
0 0 0 setrgbcolor
newpath
65000 40180 moveto
65000 40880 lineto
stroke
0 0 0 setrgbcolor
newpath
64600 41280 moveto
64600 42380 lineto
stroke
0 0 0 setrgbcolor
newpath
65000 40880 moveto
64600 41280 lineto
stroke
0 0 0 setrgbcolor
newpath
82900 54980 moveto
82900 54580 lineto
stroke
0 0 0 setrgbcolor
newpath
80300 54780 moveto
80300 54980 lineto
stroke
0 0 0 setrgbcolor
newpath
79500 53980 moveto
80300 54780 lineto
stroke
0 0 0 setrgbcolor
newpath
79500 52380 moveto
79500 53980 lineto
stroke
0 0 0 setrgbcolor
newpath
79700 52180 moveto
79500 52380 lineto
stroke
0 0 0 setrgbcolor
newpath
81100 52180 moveto
79700 52180 lineto
stroke
0 0 0 setrgbcolor
newpath
81300 52380 moveto
81100 52180 lineto
stroke
0 0 0 setrgbcolor
newpath
81300 53280 moveto
81300 52380 lineto
stroke
0 0 0 setrgbcolor
newpath
81500 53480 moveto
81300 53280 lineto
stroke
0 0 0 setrgbcolor
newpath
81800 53480 moveto
81500 53480 lineto
stroke
0 0 0 setrgbcolor
newpath
82900 54580 moveto
81800 53480 lineto
stroke
0 0 0 setrgbcolor
newpath
82200 37380 moveto
81600 37380 lineto
stroke
0 0 0 setrgbcolor
newpath
76900 37680 moveto
76900 35280 lineto
stroke
0 0 0 setrgbcolor
newpath
77400 38180 moveto
76900 37680 lineto
stroke
0 0 0 setrgbcolor
newpath
80800 38180 moveto
77400 38180 lineto
stroke
0 0 0 setrgbcolor
newpath
81600 37380 moveto
80800 38180 lineto
stroke
0 0 0 setrgbcolor
newpath
81000 44780 moveto
77900 44780 lineto
stroke
0 0 0 setrgbcolor
newpath
87750 37380 moveto
89000 37380 lineto
stroke
0 0 0 setrgbcolor
newpath
89350 37730 moveto
89350 38180 lineto
stroke
0 0 0 setrgbcolor
newpath
89000 37380 moveto
89350 37730 lineto
stroke
0 0 0 setrgbcolor
newpath
108250 46380 moveto
108250 33830 lineto
stroke
0 0 0 setrgbcolor
newpath
95900 33580 moveto
95900 34480 lineto
stroke
0 0 0 setrgbcolor
newpath
96500 32980 moveto
95900 33580 lineto
stroke
0 0 0 setrgbcolor
newpath
107400 32980 moveto
96500 32980 lineto
stroke
0 0 0 setrgbcolor
newpath
108250 33830 moveto
107400 32980 lineto
stroke
0 0 0 setrgbcolor
newpath
108000 49080 moveto
108000 46630 lineto
stroke
0 0 0 setrgbcolor
newpath
108000 46630 moveto
108250 46380 lineto
stroke
0 0 0 setrgbcolor
newpath
82200 51530 moveto
80400 51530 lineto
stroke
0 0 0 setrgbcolor
newpath
80400 52830 moveto
80400 52980 lineto
stroke
0 0 0 setrgbcolor
newpath
81300 53880 moveto
81300 54980 lineto
stroke
0 0 0 setrgbcolor
newpath
80400 52980 moveto
81300 53880 lineto
stroke
0 0 0 setrgbcolor
newpath
108000 54580 moveto
107800 54580 lineto
stroke
0 0 0 setrgbcolor
newpath
100700 53480 moveto
100700 54980 lineto
stroke
0 0 0 setrgbcolor
newpath
101200 52980 moveto
100700 53480 lineto
stroke
0 0 0 setrgbcolor
newpath
106200 52980 moveto
101200 52980 lineto
stroke
0 0 0 setrgbcolor
newpath
107800 54580 moveto
106200 52980 lineto
stroke
0 0 0 setrgbcolor
newpath
101700 54980 moveto
105100 54980 lineto
stroke
0 0 0 setrgbcolor
newpath
105100 54980 moveto
105500 54580 lineto
stroke
0 0 0 setrgbcolor
newpath
68550 45880 moveto
68550 42830 lineto
stroke
0 0 0 setrgbcolor
newpath
68300 42580 moveto
67650 42580 lineto
stroke
0 0 0 setrgbcolor
newpath
68550 42830 moveto
68300 42580 lineto
stroke
0 0 0 setrgbcolor
newpath
67650 42580 moveto
67650 42030 lineto
stroke
0 0 0 setrgbcolor
newpath
67000 41380 moveto
67000 40180 lineto
stroke
0 0 0 setrgbcolor
newpath
67650 42030 moveto
67000 41380 lineto
stroke
0 0 0 setrgbcolor
newpath
66350 43980 moveto
64900 43980 lineto
stroke
0 0 0 setrgbcolor
newpath
64600 43680 moveto
64600 43380 lineto
stroke
0 0 0 setrgbcolor
newpath
64900 43980 moveto
64600 43680 lineto
stroke
0 0 0 setrgbcolor
newpath
67650 43980 moveto
67500 43980 lineto
stroke
0 0 0 setrgbcolor
newpath
66000 41480 moveto
66000 40180 lineto
stroke
0 0 0 setrgbcolor
newpath
66200 41680 moveto
66000 41480 lineto
stroke
0 0 0 setrgbcolor
newpath
66700 41680 moveto
66200 41680 lineto
stroke
0 0 0 setrgbcolor
newpath
67000 41980 moveto
66700 41680 lineto
stroke
0 0 0 setrgbcolor
newpath
67000 43480 moveto
67000 41980 lineto
stroke
0 0 0 setrgbcolor
newpath
67500 43980 moveto
67000 43480 lineto
stroke
0 0 0 setrgbcolor
newpath
73900 35280 moveto
73900 38630 lineto
stroke
0 0 0 setrgbcolor
newpath
73900 38630 moveto
73850 38680 lineto
stroke
0 0 0 setrgbcolor
newpath
72900 44780 moveto
72900 39680 lineto
stroke
0 0 0 setrgbcolor
newpath
86550 41980 moveto
86650 42080 lineto
stroke
0 0 0 setrgbcolor
newpath
82300 41980 moveto
86550 41980 lineto
stroke
0 0 0 setrgbcolor
newpath
79700 39380 moveto
82300 41980 lineto
stroke
0 0 0 setrgbcolor
newpath
75100 39380 moveto
79700 39380 lineto
stroke
0 0 0 setrgbcolor
newpath
73200 39380 moveto
75100 39380 lineto
stroke
0 0 0 setrgbcolor
newpath
72900 39680 moveto
73200 39380 lineto
stroke
0 0 0 setrgbcolor
newpath
73900 44780 moveto
73900 41230 lineto
stroke
0 0 0 setrgbcolor
newpath
86650 43280 moveto
86200 43280 lineto
stroke
0 0 0 setrgbcolor
newpath
74900 40880 moveto
74900 44780 lineto
stroke
0 0 0 setrgbcolor
newpath
75400 40380 moveto
74900 40880 lineto
stroke
0 0 0 setrgbcolor
newpath
79300 40380 moveto
75400 40380 lineto
stroke
0 0 0 setrgbcolor
newpath
81700 42780 moveto
79300 40380 lineto
stroke
0 0 0 setrgbcolor
newpath
83200 42780 moveto
81700 42780 lineto
stroke
0 0 0 setrgbcolor
newpath
83400 42980 moveto
83200 42780 lineto
stroke
0 0 0 setrgbcolor
newpath
85900 42980 moveto
83400 42980 lineto
stroke
0 0 0 setrgbcolor
newpath
86200 43280 moveto
85900 42980 lineto
stroke
0 0 0 setrgbcolor
newpath
75900 44780 moveto
75900 41130 lineto
stroke
0 0 0 setrgbcolor
newpath
75900 41130 moveto
75950 41080 lineto
stroke
0 0 0 setrgbcolor
newpath
76900 44780 moveto
76900 42380 lineto
stroke
0 0 0 setrgbcolor
newpath
86150 43980 moveto
86650 44480 lineto
stroke
0 0 0 setrgbcolor
newpath
83400 43980 moveto
86150 43980 lineto
stroke
0 0 0 setrgbcolor
newpath
83000 43580 moveto
83400 43980 lineto
stroke
0 0 0 setrgbcolor
newpath
81300 43580 moveto
83000 43580 lineto
stroke
0 0 0 setrgbcolor
newpath
79800 42080 moveto
81300 43580 lineto
stroke
0 0 0 setrgbcolor
newpath
77200 42080 moveto
79800 42080 lineto
stroke
0 0 0 setrgbcolor
newpath
76900 42380 moveto
77200 42080 lineto
stroke
0 0 0 setrgbcolor
newpath
77900 35280 moveto
77900 35480 lineto
stroke
0 0 0 setrgbcolor
newpath
82600 38530 moveto
82800 38730 lineto
stroke
0 0 0 setrgbcolor
newpath
82600 36980 moveto
82600 38530 lineto
stroke
0 0 0 setrgbcolor
newpath
82400 36780 moveto
82600 36980 lineto
stroke
0 0 0 setrgbcolor
newpath
79200 36780 moveto
82400 36780 lineto
stroke
0 0 0 setrgbcolor
newpath
77900 35480 moveto
79200 36780 lineto
stroke
0 0 0 setrgbcolor
newpath
74900 35280 moveto
74900 37480 lineto
stroke
0 0 0 setrgbcolor
newpath
86550 40980 moveto
86650 40880 lineto
stroke
0 0 0 setrgbcolor
newpath
82500 40980 moveto
86550 40980 lineto
stroke
0 0 0 setrgbcolor
newpath
80100 38580 moveto
82500 40980 lineto
stroke
0 0 0 setrgbcolor
newpath
76500 38580 moveto
80100 38580 lineto
stroke
0 0 0 setrgbcolor
newpath
75900 37980 moveto
76500 38580 lineto
stroke
0 0 0 setrgbcolor
newpath
75400 37980 moveto
75900 37980 lineto
stroke
0 0 0 setrgbcolor
newpath
74900 37480 moveto
75400 37980 lineto
stroke
0 0 0 setrgbcolor
newpath
87750 35380 moveto
89200 35380 lineto
stroke
0 0 0 setrgbcolor
newpath
89350 35530 moveto
89350 36380 lineto
stroke
0 0 0 setrgbcolor
newpath
89200 35380 moveto
89350 35530 lineto
stroke
0 0 0 setrgbcolor
newpath
79500 45430 moveto
81500 45430 lineto
stroke
0 0 0 setrgbcolor
newpath
81500 45430 moveto
81800 45130 lineto
stroke
0 0 0 setrgbcolor
newpath
83000 37730 moveto
83500 37730 lineto
stroke
0 0 0 setrgbcolor
newpath
83500 37730 moveto
83950 38180 lineto
stroke
0 0 0 setrgbcolor
newpath
87400 36180 moveto
86000 36180 lineto
stroke
0 0 0 setrgbcolor
newpath
72900 33280 moveto
72900 35280 lineto
stroke
0 0 0 setrgbcolor
newpath
73200 32980 moveto
72900 33280 lineto
stroke
0 0 0 setrgbcolor
newpath
78800 32980 moveto
73200 32980 lineto
stroke
0 0 0 setrgbcolor
newpath
79200 33380 moveto
78800 32980 lineto
stroke
0 0 0 setrgbcolor
newpath
79200 34780 moveto
79200 33380 lineto
stroke
0 0 0 setrgbcolor
newpath
80200 35780 moveto
79200 34780 lineto
stroke
0 0 0 setrgbcolor
newpath
85600 35780 moveto
80200 35780 lineto
stroke
0 0 0 setrgbcolor
newpath
86000 36180 moveto
85600 35780 lineto
stroke
0 0 0 setrgbcolor
newpath
87400 38180 moveto
86600 38180 lineto
stroke
0 0 0 setrgbcolor
newpath
75900 33480 moveto
75900 35280 lineto
stroke
0 0 0 setrgbcolor
newpath
76000 33380 moveto
75900 33480 lineto
stroke
0 0 0 setrgbcolor
newpath
78600 33380 moveto
76000 33380 lineto
stroke
0 0 0 setrgbcolor
newpath
78800 33580 moveto
78600 33380 lineto
stroke
0 0 0 setrgbcolor
newpath
78800 35380 moveto
78800 33580 lineto
stroke
0 0 0 setrgbcolor
newpath
79800 36380 moveto
78800 35380 lineto
stroke
0 0 0 setrgbcolor
newpath
85400 36380 moveto
79800 36380 lineto
stroke
0 0 0 setrgbcolor
newpath
86400 37380 moveto
85400 36380 lineto
stroke
0 0 0 setrgbcolor
newpath
86400 37980 moveto
86400 37380 lineto
stroke
0 0 0 setrgbcolor
newpath
86600 38180 moveto
86400 37980 lineto
stroke
0 0 0 setrgbcolor
newpath
89350 53280 moveto
98200 53280 lineto
stroke
0 0 0 setrgbcolor
newpath
102900 38080 moveto
95900 38080 lineto
stroke
0 0 0 setrgbcolor
newpath
104300 39480 moveto
102900 38080 lineto
stroke
0 0 0 setrgbcolor
newpath
104300 47180 moveto
104300 39480 lineto
stroke
0 0 0 setrgbcolor
newpath
98200 53280 moveto
104300 47180 lineto
stroke
0 0 0 setrgbcolor
newpath
95900 38080 moveto
96000 38080 lineto
stroke
0 0 0 setrgbcolor
newpath
96000 38080 moveto
95900 38080 lineto
stroke
0 0 0 setrgbcolor
newpath
95900 36480 moveto
95900 38080 lineto
stroke
0 0 0 setrgbcolor
newpath
95900 38080 moveto
95900 39180 lineto
stroke
0 0 0 setrgbcolor
newpath
95900 39180 moveto
95300 39780 lineto
stroke
0 0 0 setrgbcolor
newpath
95300 39780 moveto
93500 39780 lineto
stroke
0 0 0 setrgbcolor
newpath
93500 39780 moveto
92400 40880 lineto
stroke
0 0 0 setrgbcolor
newpath
92400 40880 moveto
92400 44880 lineto
stroke
0 0 0 setrgbcolor
newpath
92400 44880 moveto
91800 45480 lineto
stroke
0 0 0 setrgbcolor
newpath
91800 45480 moveto
90100 45480 lineto
stroke
0 0 0 setrgbcolor
newpath
89700 54980 moveto
89700 53630 lineto
stroke
0 0 0 setrgbcolor
newpath
89700 53630 moveto
89350 53280 lineto
stroke
0 0 0 setrgbcolor
newpath
87800 52130 moveto
87800 53030 lineto
stroke
0 0 0 setrgbcolor
newpath
87800 53030 moveto
88050 53280 lineto
stroke
0 0 0 setrgbcolor
newpath
87800 50830 moveto
87800 50180 lineto
stroke
0 0 0 setrgbcolor
newpath
86700 47230 moveto
86650 47180 lineto
stroke
0 0 0 setrgbcolor
newpath
86700 48680 moveto
86700 47230 lineto
stroke
0 0 0 setrgbcolor
newpath
87200 49180 moveto
86700 48680 lineto
stroke
0 0 0 setrgbcolor
newpath
87200 49580 moveto
87200 49180 lineto
stroke
0 0 0 setrgbcolor
newpath
87800 50180 moveto
87200 49580 lineto
stroke
0 0 0 setrgbcolor
newpath
84600 47480 moveto
72500 47480 lineto
stroke
0 0 0 setrgbcolor
newpath
68000 36980 moveto
68000 34680 lineto
stroke
0 0 0 setrgbcolor
newpath
70600 39580 moveto
68000 36980 lineto
stroke
0 0 0 setrgbcolor
newpath
70600 45580 moveto
70600 39580 lineto
stroke
0 0 0 setrgbcolor
newpath
72500 47480 moveto
70600 45580 lineto
stroke
0 0 0 setrgbcolor
newpath
86650 47180 moveto
86200 47180 lineto
stroke
0 0 0 setrgbcolor
newpath
85900 47480 moveto
84600 47480 lineto
stroke
0 0 0 setrgbcolor
newpath
86200 47180 moveto
85900 47480 lineto
stroke
0 0 0 setrgbcolor
newpath
84600 46480 moveto
84600 47480 lineto
stroke
showpage
grestore
%%EOF
