(export (version D)
  (design
    (source "/home/max/av/!мое/паяние/kicad/паяльная станция teatro/плата управления/control_plate.sch")
    (date "Пт 16 окт 2015 10:22:59")
    (tool "eeschema (22-Jun-2014 BZR 4027)-stable"))
  (components
    (comp (ref U1)
      (value LM358)
      (libsource (lib linear) (part LM358))
      (sheetpath (names /) (tstamps /))
      (tstamp 561E06C6))
    (comp (ref IC1)
      (value ATMEGA8-P)
      (footprint DIL28)
      (libsource (lib atmel) (part ATMEGA8-P))
      (sheetpath (names /) (tstamps /))
      (tstamp 561E12FC))
    (comp (ref D1)
      (value 4DIG7SEG)
      (libsource (lib custom_components) (part 4DIG7SEG))
      (sheetpath (names /) (tstamps /))
      (tstamp 561E1DF2))
    (comp (ref VC1)
      (value VALCODER)
      (libsource (lib custom_components) (part VALCODER))
      (sheetpath (names /) (tstamps /))
      (tstamp 561E1FFA))
    (comp (ref SP1)
      (value SPEAKER)
      (libsource (lib device) (part SPEAKER))
      (sheetpath (names /) (tstamps /))
      (tstamp 561E204A))
    (comp (ref BR1)
      (value BRIGE)
      (libsource (lib custom_components) (part BRIGE))
      (sheetpath (names /) (tstamps /))
      (tstamp 561E21E8))
    (comp (ref P1)
      (value CONN_2)
      (libsource (lib conn) (part CONN_2))
      (sheetpath (names /) (tstamps /))
      (tstamp 561E2216))
    (comp (ref P2)
      (value CONN_2)
      (libsource (lib conn) (part CONN_2))
      (sheetpath (names /) (tstamps /))
      (tstamp 561E255B))
    (comp (ref R9)
      (value 100k)
      (libsource (lib device) (part R))
      (sheetpath (names /) (tstamps /))
      (tstamp 561E25CB))
    (comp (ref R10)
      (value 1k)
      (libsource (lib device) (part R))
      (sheetpath (names /) (tstamps /))
      (tstamp 561E25FC))
    (comp (ref R4)
      (value 10k)
      (libsource (lib device) (part R))
      (sheetpath (names /) (tstamps /))
      (tstamp 561E261D))
    (comp (ref Q3)
      (value NPN)
      (libsource (lib device) (part NPN))
      (sheetpath (names /) (tstamps /))
      (tstamp 561E286F))
    (comp (ref R15)
      (value 1k)
      (libsource (lib device) (part R))
      (sheetpath (names /) (tstamps /))
      (tstamp 561E2946))
    (comp (ref R1)
      (value 150)
      (libsource (lib device) (part R))
      (sheetpath (names /) (tstamps /))
      (tstamp 561E2A22))
    (comp (ref R3)
      (value 150)
      (libsource (lib device) (part R))
      (sheetpath (names /) (tstamps /))
      (tstamp 561E2A41))
    (comp (ref R6)
      (value 150)
      (libsource (lib device) (part R))
      (sheetpath (names /) (tstamps /))
      (tstamp 561E2A47))
    (comp (ref R7)
      (value 150)
      (libsource (lib device) (part R))
      (sheetpath (names /) (tstamps /))
      (tstamp 561E2A4D))
    (comp (ref R8)
      (value 150)
      (libsource (lib device) (part R))
      (sheetpath (names /) (tstamps /))
      (tstamp 561E2A53))
    (comp (ref R2)
      (value 150)
      (libsource (lib device) (part R))
      (sheetpath (names /) (tstamps /))
      (tstamp 561E2A59))
    (comp (ref R5)
      (value 150)
      (libsource (lib device) (part R))
      (sheetpath (names /) (tstamps /))
      (tstamp 561E2A5F))
    (comp (ref R11)
      (value 150)
      (libsource (lib device) (part R))
      (sheetpath (names /) (tstamps /))
      (tstamp 561E2A65))
    (comp (ref Q4)
      (value NPN)
      (libsource (lib device) (part NPN))
      (sheetpath (names /) (tstamps /))
      (tstamp 561E2D5B))
    (comp (ref R16)
      (value 1k)
      (libsource (lib device) (part R))
      (sheetpath (names /) (tstamps /))
      (tstamp 561E2D62))
    (comp (ref Q1)
      (value NPN)
      (libsource (lib device) (part NPN))
      (sheetpath (names /) (tstamps /))
      (tstamp 561E2D71))
    (comp (ref R13)
      (value 1k)
      (libsource (lib device) (part R))
      (sheetpath (names /) (tstamps /))
      (tstamp 561E2D78))
    (comp (ref Q2)
      (value NPN)
      (libsource (lib device) (part NPN))
      (sheetpath (names /) (tstamps /))
      (tstamp 561E2D87))
    (comp (ref R14)
      (value 1k)
      (libsource (lib device) (part R))
      (sheetpath (names /) (tstamps /))
      (tstamp 561E2D8E))
    (comp (ref P3)
      (value CONN_6)
      (libsource (lib conn) (part CONN_6))
      (sheetpath (names /) (tstamps /))
      (tstamp 561F283D))
    (comp (ref R17)
      (value 10k)
      (libsource (lib device) (part R))
      (sheetpath (names /) (tstamps /))
      (tstamp 561F2C15))
    (comp (ref R12)
      (value 150)
      (libsource (lib device) (part R))
      (sheetpath (names /) (tstamps /))
      (tstamp 561F3147))
    (comp (ref C2)
      (value 1uF)
      (libsource (lib device) (part C))
      (sheetpath (names /) (tstamps /))
      (tstamp 561F314F))
    (comp (ref P4)
      (value CONN_2)
      (libsource (lib conn) (part CONN_2))
      (sheetpath (names /) (tstamps /))
      (tstamp 561F3CF9))
    (comp (ref U2)
      (value LM7805CT)
      (footprint TO-220)
      (libsource (lib regul) (part LM7805CT))
      (sheetpath (names /) (tstamps /))
      (tstamp 562063E9))
    (comp (ref C1)
      (value CP1)
      (libsource (lib device) (part CP1))
      (sheetpath (names /) (tstamps /))
      (tstamp 561E242D))
    (comp (ref R18)
      (value 0)
      (libsource (lib device) (part R))
      (sheetpath (names /) (tstamps /))
      (tstamp 56206C60))
    (comp (ref R19)
      (value 0)
      (libsource (lib device) (part R))
      (sheetpath (names /) (tstamps /))
      (tstamp 56206C7C))
    (comp (ref R20)
      (value 0)
      (libsource (lib device) (part R))
      (sheetpath (names /) (tstamps /))
      (tstamp 56206FF8))
    (comp (ref R21)
      (value 0)
      (libsource (lib device) (part R))
      (sheetpath (names /) (tstamps /))
      (tstamp 56206F4F)))
  (libparts
    (libpart (lib device) (part C)
      (description "Condensateur non polarise")
      (footprints
        (fp SM*)
        (fp C?)
        (fp C1-1))
      (fields
        (field (name Reference) C)
        (field (name Value) C)
        (field (name Footprint) ~)
        (field (name Datasheet) ~))
      (pins
        (pin (num 1) (name ~) (type passive))
        (pin (num 2) (name ~) (type passive))))
    (libpart (lib device) (part CP1)
      (description "Condensateur polarise")
      (footprints
        (fp CP*)
        (fp SM*))
      (fields
        (field (name Reference) C)
        (field (name Value) CP1)
        (field (name Footprint) ~)
        (field (name Datasheet) ~))
      (pins
        (pin (num 1) (name ~) (type passive))
        (pin (num 2) (name ~) (type passive))))
    (libpart (lib device) (part NPN)
      (docs transistors/bipolar/*.*)
      (fields
        (field (name Reference) Q)
        (field (name Value) NPN)
        (field (name Footprint) ~)
        (field (name Datasheet) ~))
      (pins
        (pin (num 1) (name E) (type passive))
        (pin (num 2) (name B) (type input))
        (pin (num 3) (name C) (type passive))))
    (libpart (lib device) (part R)
      (description Resistance)
      (footprints
        (fp R?)
        (fp SM0603)
        (fp SM0805)
        (fp R?-*)
        (fp SM1206))
      (fields
        (field (name Reference) R)
        (field (name Value) R)
        (field (name Footprint) ~)
        (field (name Datasheet) ~))
      (pins
        (pin (num 1) (name ~) (type passive))
        (pin (num 2) (name ~) (type passive))))
    (libpart (lib device) (part SPEAKER)
      (fields
        (field (name Reference) SP)
        (field (name Value) SPEAKER)
        (field (name Footprint) ~)
        (field (name Datasheet) ~))
      (pins
        (pin (num 1) (name 1) (type input))
        (pin (num 2) (name 2) (type input))))
    (libpart (lib conn) (part CONN_2)
      (description "Symbole general de connecteur")
      (fields
        (field (name Reference) P)
        (field (name Value) CONN_2))
      (pins
        (pin (num 1) (name P1) (type passive))
        (pin (num 2) (name PM) (type passive))))
    (libpart (lib conn) (part CONN_6)
      (description "ymbole general de connecteur")
      (fields
        (field (name Reference) P)
        (field (name Value) CONN_6))
      (pins
        (pin (num 1) (name 1) (type passive))
        (pin (num 2) (name 2) (type passive))
        (pin (num 3) (name 3) (type passive))
        (pin (num 4) (name 4) (type passive))
        (pin (num 5) (name 5) (type passive))
        (pin (num 6) (name 6) (type passive))))
    (libpart (lib linear) (part LM358)
      (description "Dual Op amp (low power)")
      (docs ns/lm158.pdf)
      (fields
        (field (name Reference) U)
        (field (name Value) LM358))
      (pins
        (pin (num 1) (name ~) (type output))
        (pin (num 2) (name -) (type input))
        (pin (num 3) (name +) (type input))
        (pin (num 4) (name V-) (type power_in))
        (pin (num 5) (name +) (type input))
        (pin (num 6) (name -) (type input))
        (pin (num 7) (name ~) (type output))
        (pin (num 8) (name V+) (type power_in))))
    (libpart (lib regul) (part LM7805CT)
      (description "LM7805CT, Positive 1A 35V Linear Regulator, Fixed Output 5V, TO-220")
      (docs http://www.fairchildsemi.com/ds/LM/LM7805.pdf)
      (footprints
        (fp TO*))
      (fields
        (field (name Reference) U)
        (field (name Value) LM7805CT)
        (field (name Footprint) TO-220))
      (pins
        (pin (num 1) (name IN) (type input))
        (pin (num 2) (name GND) (type power_in))
        (pin (num 3) (name OUT) (type power_out))))
    (libpart (lib atmel) (part ATMEGA8-P)
      (description "ATMEGA8, PDIP28 Narrow, 8k Flash, 1k SRAM, 512B EEPROM")
      (docs http://www.atmel.com/dyn/resources/prod_documents/doc2486.pdf)
      (footprints
        (fp 28DIP-ELL600)
        (fp 28dip600))
      (fields
        (field (name Reference) IC)
        (field (name Value) ATMEGA8-P)
        (field (name Footprint) DIL28))
      (pins
        (pin (num 1) (name "PC6(~RESET~)") (type BiDi))
        (pin (num 2) (name "(RXD)PD0") (type BiDi))
        (pin (num 3) (name "(TXD)PD1") (type BiDi))
        (pin (num 4) (name "(INT0)PD2") (type BiDi))
        (pin (num 5) (name "(INT1)PD3") (type BiDi))
        (pin (num 6) (name "(XCK/T0)PD4") (type BiDi))
        (pin (num 7) (name VCC) (type power_in))
        (pin (num 8) (name GND) (type power_in))
        (pin (num 9) (name "PB6(XTAL1/TOSC1)") (type BiDi))
        (pin (num 10) (name "PB7(XTAL2/TOSC2)") (type BiDi))
        (pin (num 11) (name "(T1)PD5") (type BiDi))
        (pin (num 12) (name "(AIN0)PD6") (type BiDi))
        (pin (num 13) (name "(AIN1)PD7") (type BiDi))
        (pin (num 14) (name "(ICP)PB0") (type BiDi))
        (pin (num 15) (name "(OC1A)PB1") (type BiDi))
        (pin (num 16) (name "(~SS~/OC1B)PB2") (type BiDi))
        (pin (num 17) (name "(MOSI/OC2)PB3") (type BiDi))
        (pin (num 18) (name "(MISO)PB4") (type BiDi))
        (pin (num 19) (name "(SCK)PB5") (type BiDi))
        (pin (num 20) (name AVCC) (type power_in))
        (pin (num 21) (name AREF) (type BiDi))
        (pin (num 22) (name AGND) (type power_in))
        (pin (num 23) (name "(ADC0)PC0") (type BiDi))
        (pin (num 24) (name "(ADC1)PC1") (type BiDi))
        (pin (num 25) (name "(ADC2)PC2") (type BiDi))
        (pin (num 26) (name "(ADC3)PC3") (type BiDi))
        (pin (num 27) (name "(ADC4/SDA)PC4") (type BiDi))
        (pin (num 28) (name "(ADC5/SCL)PC5") (type BiDi))))
    (libpart (lib custom_components) (part 4DIG7SEG)
      (fields
        (field (name Reference) D)
        (field (name Value) 4DIG7SEG)
        (field (name Footprint) ~)
        (field (name Datasheet) ~))
      (pins
        (pin (num 1) (name c1) (type input))
        (pin (num 2) (name A) (type input))
        (pin (num 3) (name F) (type input))
        (pin (num 4) (name c2) (type input))
        (pin (num 5) (name c3) (type input))
        (pin (num 6) (name B) (type input))
        (pin (num 7) (name c4) (type input))
        (pin (num 8) (name G) (type input))
        (pin (num 9) (name C) (type input))
        (pin (num 10) (name dp) (type input))
        (pin (num 11) (name D) (type input))
        (pin (num 12) (name E) (type input))))
    (libpart (lib custom_components) (part BRIGE)
      (fields
        (field (name Reference) BR)
        (field (name Value) BRIGE)
        (field (name Footprint) ~)
        (field (name Datasheet) ~))
      (pins
        (pin (num 1) (name ~) (type input))
        (pin (num 2) (name ~) (type input))
        (pin (num 3) (name -) (type input))
        (pin (num 4) (name +) (type input))))
    (libpart (lib custom_components) (part VALCODER)
      (fields
        (field (name Reference) VC)
        (field (name Value) VALCODER)
        (field (name Footprint) ~)
        (field (name Datasheet) ~))
      (pins
        (pin (num 1) (name ~) (type input))
        (pin (num 2) (name ~) (type input))
        (pin (num 3) (name ~) (type input))
        (pin (num 4) (name ~) (type input))
        (pin (num 5) (name ~) (type input)))))
  (libraries
    (library (logical device)
      (uri /usr/share/kicad/library/device.lib))
    (library (logical conn)
      (uri /usr/share/kicad/library/conn.lib))
    (library (logical linear)
      (uri /usr/share/kicad/library/linear.lib))
    (library (logical regul)
      (uri /usr/share/kicad/library/regul.lib))
    (library (logical atmel)
      (uri /usr/share/kicad/library/atmel.lib))
    (library (logical custom_components)
      (uri custom_components.lib)))
  (nets
    (net (code 1) (name GND)
      (node (ref Q1) (pin 1))
      (node (ref BR1) (pin 3))
      (node (ref SP1) (pin 2))
      (node (ref VC1) (pin 4))
      (node (ref Q2) (pin 1))
      (node (ref R10) (pin 1))
      (node (ref VC1) (pin 1))
      (node (ref Q4) (pin 1))
      (node (ref Q3) (pin 1))
      (node (ref P4) (pin 2))
      (node (ref IC1) (pin 8))
      (node (ref U1) (pin 4))
      (node (ref P3) (pin 1))
      (node (ref R21) (pin 2))
      (node (ref R21) (pin 1))
      (node (ref P2) (pin 2))
      (node (ref C1) (pin 2))
      (node (ref U2) (pin 2))
      (node (ref IC1) (pin 22)))
    (net (code 2) (name /MOSI)
      (node (ref IC1) (pin 17))
      (node (ref P3) (pin 6)))
    (net (code 3) (name /MISO)
      (node (ref IC1) (pin 18))
      (node (ref P3) (pin 5)))
    (net (code 4) (name /SCK)
      (node (ref IC1) (pin 19))
      (node (ref P3) (pin 4)))
    (net (code 5) (name /RST)
      (node (ref P3) (pin 3))
      (node (ref IC1) (pin 1))
      (node (ref R17) (pin 2)))
    (net (code 6) (name VCC)
      (node (ref R19) (pin 1))
      (node (ref R19) (pin 2))
      (node (ref U1) (pin 8))
      (node (ref IC1) (pin 20))
      (node (ref IC1) (pin 21))
      (node (ref IC1) (pin 7))
      (node (ref U2) (pin 3))
      (node (ref R17) (pin 1))
      (node (ref R18) (pin 1))
      (node (ref R18) (pin 2))
      (node (ref R20) (pin 1))
      (node (ref R20) (pin 2))
      (node (ref P3) (pin 2)))
    (net (code 7) (name /to_ADC)
      (node (ref R9) (pin 2))
      (node (ref IC1) (pin 13))
      (node (ref U1) (pin 1)))
    (net (code 8) (name "")
      (node (ref Q1) (pin 3))
      (node (ref D1) (pin 1)))
    (net (code 9) (name "")
      (node (ref Q2) (pin 3))
      (node (ref D1) (pin 4)))
    (net (code 10) (name "")
      (node (ref Q3) (pin 3))
      (node (ref D1) (pin 5)))
    (net (code 11) (name "")
      (node (ref D1) (pin 7))
      (node (ref Q4) (pin 3)))
    (net (code 12) (name "")
      (node (ref R14) (pin 1))
      (node (ref Q2) (pin 2)))
    (net (code 13) (name /valcoder_2)
      (node (ref VC1) (pin 3))
      (node (ref IC1) (pin 11)))
    (net (code 14) (name /valcoder_1)
      (node (ref VC1) (pin 5))
      (node (ref IC1) (pin 10)))
    (net (code 15) (name /valcoder_btn)
      (node (ref IC1) (pin 12))
      (node (ref VC1) (pin 2)))
    (net (code 16) (name /Spk)
      (node (ref R12) (pin 1))
      (node (ref IC1) (pin 16)))
    (net (code 17) (name "")
      (node (ref U2) (pin 1))
      (node (ref C1) (pin 1))
      (node (ref BR1) (pin 4)))
    (net (code 18) (name "")
      (node (ref IC1) (pin 14)))
    (net (code 19) (name /digit1)
      (node (ref IC1) (pin 9))
      (node (ref R13) (pin 2)))
    (net (code 20) (name /digit4)
      (node (ref IC1) (pin 23))
      (node (ref R16) (pin 2)))
    (net (code 21) (name /heater)
      (node (ref P4) (pin 1))
      (node (ref IC1) (pin 15)))
    (net (code 22) (name "")
      (node (ref C2) (pin 1))
      (node (ref R12) (pin 2)))
    (net (code 23) (name /digit3)
      (node (ref IC1) (pin 28))
      (node (ref R15) (pin 2)))
    (net (code 24) (name /D)
      (node (ref IC1) (pin 25))
      (node (ref R3) (pin 2)))
    (net (code 25) (name /digit2)
      (node (ref IC1) (pin 2))
      (node (ref R14) (pin 2)))
    (net (code 26) (name /C)
      (node (ref IC1) (pin 24))
      (node (ref R7) (pin 2)))
    (net (code 27) (name /A)
      (node (ref IC1) (pin 26))
      (node (ref R2) (pin 1)))
    (net (code 28) (name "")
      (node (ref SP1) (pin 1))
      (node (ref C2) (pin 2)))
    (net (code 29) (name /E)
      (node (ref R1) (pin 2))
      (node (ref IC1) (pin 4)))
    (net (code 30) (name /dp)
      (node (ref R6) (pin 2))
      (node (ref IC1) (pin 5)))
    (net (code 31) (name /G)
      (node (ref R8) (pin 2))
      (node (ref IC1) (pin 6)))
    (net (code 32) (name /F)
      (node (ref R5) (pin 1))
      (node (ref IC1) (pin 3)))
    (net (code 33) (name /B)
      (node (ref R11) (pin 1))
      (node (ref IC1) (pin 27)))
    (net (code 34) (name "")
      (node (ref BR1) (pin 1))
      (node (ref P1) (pin 1)))
    (net (code 35) (name "")
      (node (ref P1) (pin 2))
      (node (ref BR1) (pin 2)))
    (net (code 36) (name "")
      (node (ref R10) (pin 2))
      (node (ref R9) (pin 1))
      (node (ref U1) (pin 2)))
    (net (code 37) (name "")
      (node (ref P2) (pin 1))
      (node (ref R4) (pin 2)))
    (net (code 38) (name "")
      (node (ref R4) (pin 1))
      (node (ref U1) (pin 3)))
    (net (code 39) (name "")
      (node (ref D1) (pin 2))
      (node (ref R2) (pin 2)))
    (net (code 40) (name "")
      (node (ref D1) (pin 12))
      (node (ref R1) (pin 1)))
    (net (code 41) (name "")
      (node (ref D1) (pin 11))
      (node (ref R3) (pin 1)))
    (net (code 42) (name "")
      (node (ref R6) (pin 1))
      (node (ref D1) (pin 10)))
    (net (code 43) (name "")
      (node (ref R7) (pin 1))
      (node (ref D1) (pin 9)))
    (net (code 44) (name "")
      (node (ref D1) (pin 8))
      (node (ref R8) (pin 1)))
    (net (code 45) (name "")
      (node (ref R11) (pin 2))
      (node (ref D1) (pin 6)))
    (net (code 46) (name "")
      (node (ref D1) (pin 3))
      (node (ref R5) (pin 2)))
    (net (code 47) (name "")
      (node (ref Q1) (pin 2))
      (node (ref R13) (pin 1)))
    (net (code 48) (name "")
      (node (ref Q4) (pin 2))
      (node (ref R16) (pin 1)))
    (net (code 49) (name "")
      (node (ref R15) (pin 1))
      (node (ref Q3) (pin 2)))))