PCBNEW-LibModule-V1  Пн 19 окт 2015 11:24:08
# encoding utf-8
Units mm
$INDEX
2pin_conn_smd
6pin_conn_smd
7dig_smd
TO220_123_smd
dip8_smd
dip_smd_brige
mega8_dip
valcoder_smd
$EndINDEX
$MODULE 2pin_conn_smd
Po 0 0 0 15 561F5C76 00000000 ~~
Li 2pin_conn_smd
Sc 0
AR 
Op 0 0 0
T0 2.54 -3.81 1 1 0 0.15 N V 21 N "2pin_conn_smd"
T1 0 3.81 1 1 0 0.15 N V 21 N "VAL**"
$PAD
Sh "1" R 5.08 1.27 0 0 0
Dr 0 0 0
At SMD N 00888000
Ne 0 ""
Po 0 -1.27
$EndPAD
$PAD
Sh "2" R 5.08 1.27 0 0 0
Dr 0 0 0
At SMD N 00888000
Ne 0 ""
Po 0 1.27
$EndPAD
$EndMODULE 2pin_conn_smd
$MODULE 6pin_conn_smd
Po 0 0 0 15 561F5C95 00000000 ~~
Li 6pin_conn_smd
Sc 0
AR 
Op 0 0 0
T0 2.54 -8.89 1 1 0 0.15 N V 21 N "6pin_conn_smd"
T1 0 8.89 1 1 0 0.15 N V 21 N "VAL**"
$PAD
Sh "1" R 5.08 1.27 0 0 0
Dr 0 0 0
At SMD N 00888000
Ne 0 ""
Po 0 -6.35
$EndPAD
$PAD
Sh "2" R 5.08 1.27 0 0 0
Dr 0 0 0
At SMD N 00888000
Ne 0 ""
Po 0 -3.81
$EndPAD
$PAD
Sh "3" R 5.08 1.27 0 0 0
Dr 0 0 0
At SMD N 00888000
Ne 0 ""
Po 0 -1.27
$EndPAD
$PAD
Sh "4" R 5.08 1.27 0 0 0
Dr 0 0 0
At SMD N 00888000
Ne 0 ""
Po 0 1.27
$EndPAD
$PAD
Sh "5" R 5.08 1.27 0 0 0
Dr 0 0 0
At SMD N 00888000
Ne 0 ""
Po 0 3.81
$EndPAD
$PAD
Sh "6" R 5.08 1.27 0 0 0
Dr 0 0 0
At SMD N 00888000
Ne 0 ""
Po 0 6.35
$EndPAD
$EndMODULE 6pin_conn_smd
$MODULE 7dig_smd
Po 0 0 0 15 561F5D8D 00000000 ~~
Li 7dig_smd
Sc 0
AR 
Op 0 0 0
T0 12.7 -10.16 1 1 0 0.15 N V 21 N "7dig_smd"
T1 11.43 8.89 1 1 0 0.15 N V 21 N "VAL**"
DS -12.7 6.35 16.51 6.35 0.15 21
DS 16.51 6.35 16.51 -7.62 0.15 21
DS 16.51 -7.62 -12.7 -7.62 0.15 21
DS -12.7 -7.62 -12.7 6.35 0.15 21
DS -6.35 2.54 -6.35 -5.08 0.15 21
DS -6.35 -5.08 -10.16 -5.08 0.15 21
DS -10.16 -5.08 -10.16 2.54 0.15 21
DS -10.16 2.54 -6.35 2.54 0.15 21
DS -6.35 2.54 -6.35 -1.27 0.15 21
DS -6.35 -1.27 -10.16 -1.27 0.15 21
DS -5.08 2.54 -5.08 1.27 0.15 21
DS 13.97 2.54 13.97 1.27 0.15 21
DS 8.89 2.54 8.89 -5.08 0.15 21
DS 8.89 -5.08 12.7 -5.08 0.15 21
DS 12.7 -5.08 12.7 2.54 0.15 21
DS 12.7 2.54 8.89 2.54 0.15 21
DS 8.89 2.54 8.89 -1.27 0.15 21
DS 8.89 -1.27 12.7 -1.27 0.15 21
DS 7.62 2.54 7.62 1.27 0.15 21
DS 2.54 2.54 2.54 -5.08 0.15 21
DS 2.54 -5.08 6.35 -5.08 0.15 21
DS 6.35 -5.08 6.35 2.54 0.15 21
DS 6.35 2.54 2.54 2.54 0.15 21
DS 2.54 2.54 2.54 -1.27 0.15 21
DS 2.54 -1.27 6.35 -1.27 0.15 21
DS 1.27 2.54 1.27 1.27 0.15 21
DS -3.81 -1.27 -3.81 2.54 0.15 21
DS -3.81 2.54 0 2.54 0.15 21
DS 0 2.54 0 -1.27 0.15 21
DS -3.81 -5.08 -3.81 -1.27 0.15 21
DS -3.81 -1.27 0 -1.27 0.15 21
DS 0 -1.27 0 -5.08 0.15 21
DS 0 -5.08 -3.81 -5.08 0.15 21
$PAD
Sh "1" R 1.5 7.62 0 0 0
Dr 0 0 0
At SMD N 00888000
Ne 0 ""
Po -5.08 -12.7
$EndPAD
$PAD
Sh "2" R 1.5 7.62 0 0 0
Dr 0 0 0
At SMD N 00888000
Ne 0 ""
Po -2.54 -12.7
$EndPAD
$PAD
Sh "3" R 1.5 7.62 0 0 0
Dr 0 0 0
At SMD N 00888000
Ne 0 ""
Po 0 -12.7
$EndPAD
$PAD
Sh "4" R 1.5 7.62 0 0 0
Dr 0 0 0
At SMD N 00888000
Ne 0 ""
Po 2.54 -12.7
$EndPAD
$PAD
Sh "5" R 1.5 7.62 0 0 0
Dr 0 0 0
At SMD N 00888000
Ne 0 ""
Po 5.08 -12.7
$EndPAD
$PAD
Sh "6" R 1.5 7.62 0 0 0
Dr 0 0 0
At SMD N 00888000
Ne 0 ""
Po 7.62 -12.7
$EndPAD
$PAD
Sh "7" R 1.5 7.62 0 0 0
Dr 0 0 0
At SMD N 00888000
Ne 0 ""
Po 7.62 11.43
$EndPAD
$PAD
Sh "8" R 1.5 7.62 0 0 0
Dr 0 0 0
At SMD N 00888000
Ne 0 ""
Po 5.08 11.43
$EndPAD
$PAD
Sh "9" R 1.5 7.62 0 0 0
Dr 0 0 0
At SMD N 00888000
Ne 0 ""
Po 2.54 11.43
$EndPAD
$PAD
Sh "10" R 1.5 7.62 0 0 0
Dr 0 0 0
At SMD N 00888000
Ne 0 ""
Po 0 11.43
$EndPAD
$PAD
Sh "11" R 1.5 7.62 0 0 0
Dr 0 0 0
At SMD N 00888000
Ne 0 ""
Po -2.54 11.43
$EndPAD
$PAD
Sh "12" R 1.5 7.62 0 0 0
Dr 0 0 0
At SMD N 00888000
Ne 0 ""
Po -5.08 11.43
$EndPAD
$EndMODULE 7dig_smd
$MODULE TO220_123_smd
Po 0 0 0 15 56247042 00000000 ~~
Li TO220_123_smd
Cd Transistor TO 220
Kw TR TO220 DEV
Sc 0
AR 
Op 0 0 0
T0 6.985 0 1.016 1.016 900 0.2032 N V 21 N "TO220"
T1 10.795 0 1.016 1.016 900 0.2032 N V 21 N "VAL*"
DS 0 -2.54 5.08 -2.54 0.3048 21
DS 0 0 5.08 0 0.3048 21
DS 0 2.54 5.08 2.54 0.3048 21
DS 5.08 5.08 20.32 5.08 0.3048 21
DS 20.32 5.08 20.32 -5.08 0.3048 21
DS 20.32 -5.08 5.08 -5.08 0.3048 21
DS 5.08 -5.08 5.08 5.08 0.3048 21
DS 12.7 3.81 12.7 -5.08 0.3048 21
DS 12.7 3.81 12.7 5.08 0.3048 21
$PAD
Sh "1" R 1.778 1.778 0 0 0
Dr 0 0 0
At SMD N 00888000
Ne 0 ""
Po 0 -2.54
$EndPAD
$PAD
Sh "4" R 8.89 8.89 0 0 0
Dr 0 0 0
At SMD N 00888000
Ne 0 ""
Po 16.51 0
$EndPAD
$PAD
Sh "2" R 1.778 1.778 0 0 0
Dr 0 0 0
At SMD N 00888000
Ne 0 ""
Po 0 0
$EndPAD
$PAD
Sh "3" R 1.778 1.778 0 0 0
Dr 0 0 0
At SMD N 00888000
Ne 0 ""
Po 0 2.54
$EndPAD
$SHAPE3D
Na "discret/to220_horiz.wrl"
Sc 1 1 1
Of 0 0 0
Ro 0 0 0
$EndSHAPE3D
$EndMODULE TO220_123_smd
$MODULE dip8_smd
Po 0 0 0 15 561F5E41 00000000 ~~
Li dip8_smd
Sc 0
AR 
Op 0 0 0
T0 -1.27 -3.81 1 1 0 0.15 N V 21 N "dip8_smd"
T1 -2.54 -1.27 1 1 0 0.15 N V 21 N "VAL**"
DS -6.35 -5.08 3.81 -5.08 0.15 21
DS 3.81 -5.08 3.81 1.27 0.15 21
DS 3.81 1.27 -6.35 1.27 0.15 21
DS -6.35 1.27 -6.35 -5.08 0.15 21
DS -6.35 -5.08 -5.08 -3.81 0.15 21
DS -5.08 -3.81 -5.08 0 0.15 21
DS -5.08 0 -6.35 1.27 0.15 21
$PAD
Sh "1" R 1.5 5.08 0 0 0
Dr 0 0 0
At SMD N 00888000
Ne 0 ""
Po -5.08 -8.89
$EndPAD
$PAD
Sh "2" R 1.5 5.08 0 0 0
Dr 0 0 0
At SMD N 00888000
Ne 0 ""
Po -2.54 -8.89
$EndPAD
$PAD
Sh "3" R 1.5 5.08 0 0 0
Dr 0 0 0
At SMD N 00888000
Ne 0 ""
Po 0 -8.89
$EndPAD
$PAD
Sh "4" R 1.5 5.08 0 0 0
Dr 0 0 0
At SMD N 00888000
Ne 0 ""
Po 2.54 -8.89
$EndPAD
$PAD
Sh "5" R 1.5 5.08 0 0 0
Dr 0 0 0
At SMD N 00888000
Ne 0 ""
Po 2.54 5.08
$EndPAD
$PAD
Sh "6" R 1.5 5.08 0 0 0
Dr 0 0 0
At SMD N 00888000
Ne 0 ""
Po 0 5.08
$EndPAD
$PAD
Sh "7" R 1.5 5.08 0 0 0
Dr 0 0 0
At SMD N 00888000
Ne 0 ""
Po -2.54 5.08
$EndPAD
$PAD
Sh "8" R 1.5 5.08 0 0 0
Dr 0 0 0
At SMD N 00888000
Ne 0 ""
Po -5.08 5.08
$EndPAD
$EndMODULE dip8_smd
$MODULE dip_smd_brige
Po 0 0 0 15 561F5EDF 00000000 ~~
Li dip_smd_brige
Sc 0
AR 
Op 0 0 0
T0 -6.35 -15.24 1 1 0 0.15 N V 21 N "dip_smd_brige"
T1 12.7 -13.97 1 1 0 0.15 N V 21 N "VAL**"
T2 1.27 3.81 1 1 0 0.15 N V 21 N "-"
T2 -3.81 3.81 1 1 0 0.15 N V 21 N "+"
DS -6.35 -1.27 -5.08 0 0.15 21
DS -5.08 0 -5.08 3.81 0.15 21
DS -5.08 3.81 -6.35 5.08 0.15 21
DS -6.35 -1.27 2.54 -1.27 0.15 21
DS 2.54 -1.27 2.54 5.08 0.15 21
DS 2.54 5.08 -6.35 5.08 0.15 21
DS -6.35 5.08 -6.35 -1.27 0.15 21
$PAD
Sh "1" R 1.5 5.08 0 0 0
Dr 0 0 0
At SMD N 00888000
Ne 0 ""
Po -5.08 -5.08
$EndPAD
$PAD
Sh "2" R 1.5 5.08 0 0 0
Dr 0 0 0
At SMD N 00888000
Ne 0 ""
Po 1.27 -5.08
$EndPAD
$PAD
Sh "3" R 1.5 5.08 0 0 0
Dr 0 0 0
At SMD N 00888000
Ne 0 ""
Po 1.27 8.89
$EndPAD
$PAD
Sh "4" R 1.5 5.08 0 0 0
Dr 0 0 0
At SMD N 00888000
Ne 0 ""
Po -5.08 8.89
$EndPAD
$EndMODULE dip_smd_brige
$MODULE mega8_dip
Po 0 0 0 15 561F5BFF 00000000 ~~
Li mega8_dip
Sc 0
AR 
Op 0 0 0
T0 -6.35 -5.08 1 1 0 0.15 N V 21 N "mega8_dip"
T1 -7.62 -2.54 1 1 0 0.15 N V 21 N "VAL**"
DS -17.78 -3.81 17.78 -3.81 0.15 21
DS 17.78 -3.81 17.78 2.54 0.15 21
DS 17.78 2.54 -17.78 2.54 0.15 21
DS -17.78 2.54 -17.78 -3.81 0.15 21
DS -17.78 -3.81 -16.51 -2.54 0.15 21
DS -16.51 -2.54 -16.51 1.27 0.15 21
DS -16.51 1.27 -17.78 2.54 0.15 21
$PAD
Sh "1" R 1.27 5.08 0 0 0
Dr 0 0 0
At SMD N 00888000
Ne 0 ""
Po -16.51 -7.62
$EndPAD
$PAD
Sh "2" R 1.27 5.08 0 0 0
Dr 0 0 0
At SMD N 00888000
Ne 0 ""
Po -13.97 -7.62
$EndPAD
$PAD
Sh "3" R 1.27 5.08 0 0 0
Dr 0 0 0
At SMD N 00888000
Ne 0 ""
Po -11.43 -7.62
$EndPAD
$PAD
Sh "4" R 1.27 5.08 0 0 0
Dr 0 0 0
At SMD N 00888000
Ne 0 ""
Po -8.89 -7.62
$EndPAD
$PAD
Sh "5" R 1.27 5.08 0 0 0
Dr 0 0 0
At SMD N 00888000
Ne 0 ""
Po -6.35 -7.62
$EndPAD
$PAD
Sh "6" R 1.27 5.08 0 0 0
Dr 0 0 0
At SMD N 00888000
Ne 0 ""
Po -3.81 -7.62
$EndPAD
$PAD
Sh "7" R 1.27 5.08 0 0 0
Dr 0 0 0
At SMD N 00888000
Ne 0 ""
Po -1.27 -7.62
$EndPAD
$PAD
Sh "8" R 1.27 5.08 0 0 0
Dr 0 0 0
At SMD N 00888000
Ne 0 ""
Po 1.27 -7.62
$EndPAD
$PAD
Sh "9" R 1.27 5.08 0 0 0
Dr 0 0 0
At SMD N 00888000
Ne 0 ""
Po 3.81 -7.62
$EndPAD
$PAD
Sh "10" R 1.27 5.08 0 0 0
Dr 0 0 0
At SMD N 00888000
Ne 0 ""
Po 6.35 -7.62
$EndPAD
$PAD
Sh "11" R 1.27 5.08 0 0 0
Dr 0 0 0
At SMD N 00888000
Ne 0 ""
Po 8.89 -7.62
$EndPAD
$PAD
Sh "12" R 1.27 5.08 0 0 0
Dr 0 0 0
At SMD N 00888000
Ne 0 ""
Po 11.43 -7.62
$EndPAD
$PAD
Sh "13" R 1.27 5.08 0 0 0
Dr 0 0 0
At SMD N 00888000
Ne 0 ""
Po 13.97 -7.62
$EndPAD
$PAD
Sh "14" R 1.27 5.08 0 0 0
Dr 0 0 0
At SMD N 00888000
Ne 0 ""
Po 16.51 -7.62
$EndPAD
$PAD
Sh "15" R 1.27 5.08 0 0 0
Dr 0 0 0
At SMD N 00888000
Ne 0 ""
Po 16.51 6.35
$EndPAD
$PAD
Sh "16" R 1.27 5.08 0 0 0
Dr 0 0 0
At SMD N 00888000
Ne 0 ""
Po 13.97 6.35
$EndPAD
$PAD
Sh "17" R 1.27 5.08 0 0 0
Dr 0 0 0
At SMD N 00888000
Ne 0 ""
Po 11.43 6.35
$EndPAD
$PAD
Sh "18" R 1.27 5.08 0 0 0
Dr 0 0 0
At SMD N 00888000
Ne 0 ""
Po 8.89 6.35
$EndPAD
$PAD
Sh "19" R 1.27 5.08 0 0 0
Dr 0 0 0
At SMD N 00888000
Ne 0 ""
Po 6.35 6.35
$EndPAD
$PAD
Sh "20" R 1.27 5.08 0 0 0
Dr 0 0 0
At SMD N 00888000
Ne 0 ""
Po 3.81 6.35
$EndPAD
$PAD
Sh "21" R 1.27 5.08 0 0 0
Dr 0 0 0
At SMD N 00888000
Ne 0 ""
Po 1.27 6.35
$EndPAD
$PAD
Sh "22" R 1.27 5.08 0 0 0
Dr 0 0 0
At SMD N 00888000
Ne 0 ""
Po -1.27 6.35
$EndPAD
$PAD
Sh "23" R 1.27 5.08 0 0 0
Dr 0 0 0
At SMD N 00888000
Ne 0 ""
Po -3.81 6.35
$EndPAD
$PAD
Sh "24" R 1.27 5.08 0 0 0
Dr 0 0 0
At SMD N 00888000
Ne 0 ""
Po -6.35 6.35
$EndPAD
$PAD
Sh "25" R 1.27 5.08 0 0 0
Dr 0 0 0
At SMD N 00888000
Ne 0 ""
Po -8.89 6.35
$EndPAD
$PAD
Sh "26" R 1.27 5.08 0 0 0
Dr 0 0 0
At SMD N 00888000
Ne 0 ""
Po -11.43 6.35
$EndPAD
$PAD
Sh "27" R 1.27 5.08 0 0 0
Dr 0 0 0
At SMD N 00888000
Ne 0 ""
Po -13.97 6.35
$EndPAD
$PAD
Sh "28" R 1.27 5.08 0 0 0
Dr 0 0 0
At SMD N 00888000
Ne 0 ""
Po -16.51 6.35
$EndPAD
$EndMODULE mega8_dip
$MODULE valcoder_smd
Po 0 0 0 15 561F5F5D 00000000 ~~
Li valcoder_smd
Sc 0
AR 
Op 0 0 0
T0 0 5.08 1 1 0 0.15 N V 21 N "valcoder_smd"
T1 -2.54 -3.81 1 1 0 0.15 N V 21 N "VAL**"
DS -5.08 -5.08 5.08 -5.08 0.15 21
DS 5.08 -5.08 5.08 6.35 0.15 21
DS 5.08 6.35 -5.08 6.35 0.15 21
DS -5.08 6.35 -5.08 -5.08 0.15 21
DC 0 0 1.27 -1.27 0.15 21
$PAD
Sh "1" R 1.5 7.62 0 0 0
Dr 0 0 0
At SMD N 00888000
Ne 0 ""
Po -2.54 -10.16
$EndPAD
$PAD
Sh "2" R 1.5 7.62 0 0 0
Dr 0 0 0
At SMD N 00888000
Ne 0 ""
Po 2.54 -10.16
$EndPAD
$PAD
Sh "3" R 1.5 7.62 0 0 0
Dr 0 0 0
At SMD N 00888000
Ne 0 ""
Po 2.54 11.43
$EndPAD
$PAD
Sh "4" R 1.5 7.62 0 0 0
Dr 0 0 0
At SMD N 00888000
Ne 0 ""
Po 0 11.43
$EndPAD
$PAD
Sh "5" R 1.5 7.62 0 0 0
Dr 0 0 0
At SMD N 00888000
Ne 0 ""
Po -2.54 11.43
$EndPAD
$PAD
Sh "" R 5.08 5.08 0 0 0
Dr 0.6 0 0
At HOLE N 00E0FFFF
Ne 0 ""
Po 8.89 0
$EndPAD
$PAD
Sh "" R 5.08 5.08 0 0 0
Dr 0.6 0 0
At HOLE N 00E0FFFF
Ne 0 ""
Po -8.89 0
$EndPAD
$EndMODULE valcoder_smd
$EndLIBRARY
