# 1 "main.c"
# 1 "/home/max/av/!мое/паяние/kicad/паяльная станция teatro/прошивка платы управления/m4exp//"
# 1 "<command-line>"
# 1 "main.c"
# 1 "/usr/lib/avr/include/avr/io.h" 1 3
# 99 "/usr/lib/avr/include/avr/io.h" 3
# 1 "/usr/lib/avr/include/avr/sfr_defs.h" 1 3
# 126 "/usr/lib/avr/include/avr/sfr_defs.h" 3
# 1 "/usr/lib/avr/include/inttypes.h" 1 3
# 37 "/usr/lib/avr/include/inttypes.h" 3
# 1 "/usr/lib/gcc/avr/4.8.1/include/stdint.h" 1 3 4
# 9 "/usr/lib/gcc/avr/4.8.1/include/stdint.h" 3 4
# 1 "/usr/lib/avr/include/stdint.h" 1 3 4
# 121 "/usr/lib/avr/include/stdint.h" 3 4
typedef signed int int8_t __attribute__((__mode__(__QI__)));
typedef unsigned int uint8_t __attribute__((__mode__(__QI__)));
typedef signed int int16_t __attribute__ ((__mode__ (__HI__)));
typedef unsigned int uint16_t __attribute__ ((__mode__ (__HI__)));
typedef signed int int32_t __attribute__ ((__mode__ (__SI__)));
typedef unsigned int uint32_t __attribute__ ((__mode__ (__SI__)));

typedef signed int int64_t __attribute__((__mode__(__DI__)));
typedef unsigned int uint64_t __attribute__((__mode__(__DI__)));
# 142 "/usr/lib/avr/include/stdint.h" 3 4
typedef int16_t intptr_t;




typedef uint16_t uintptr_t;
# 159 "/usr/lib/avr/include/stdint.h" 3 4
typedef int8_t int_least8_t;




typedef uint8_t uint_least8_t;




typedef int16_t int_least16_t;




typedef uint16_t uint_least16_t;




typedef int32_t int_least32_t;




typedef uint32_t uint_least32_t;







typedef int64_t int_least64_t;






typedef uint64_t uint_least64_t;
# 213 "/usr/lib/avr/include/stdint.h" 3 4
typedef int8_t int_fast8_t;




typedef uint8_t uint_fast8_t;




typedef int16_t int_fast16_t;




typedef uint16_t uint_fast16_t;




typedef int32_t int_fast32_t;




typedef uint32_t uint_fast32_t;







typedef int64_t int_fast64_t;






typedef uint64_t uint_fast64_t;
# 273 "/usr/lib/avr/include/stdint.h" 3 4
typedef int64_t intmax_t;




typedef uint64_t uintmax_t;
# 10 "/usr/lib/gcc/avr/4.8.1/include/stdint.h" 2 3 4
# 38 "/usr/lib/avr/include/inttypes.h" 2 3
# 77 "/usr/lib/avr/include/inttypes.h" 3
typedef int32_t int_farptr_t;



typedef uint32_t uint_farptr_t;
# 127 "/usr/lib/avr/include/avr/sfr_defs.h" 2 3
# 100 "/usr/lib/avr/include/avr/io.h" 2 3
# 348 "/usr/lib/avr/include/avr/io.h" 3
# 1 "/usr/lib/avr/include/avr/iom8.h" 1 3
# 636 "/usr/lib/avr/include/avr/iom8.h" 3
       
# 637 "/usr/lib/avr/include/avr/iom8.h" 3

       
       
       
       
       
       
       
       
       
       
       
       
       
       
       
       
       
       
# 349 "/usr/lib/avr/include/avr/io.h" 2 3
# 610 "/usr/lib/avr/include/avr/io.h" 3
# 1 "/usr/lib/avr/include/avr/portpins.h" 1 3
# 611 "/usr/lib/avr/include/avr/io.h" 2 3

# 1 "/usr/lib/avr/include/avr/common.h" 1 3
# 613 "/usr/lib/avr/include/avr/io.h" 2 3

# 1 "/usr/lib/avr/include/avr/version.h" 1 3
# 615 "/usr/lib/avr/include/avr/io.h" 2 3






# 1 "/usr/lib/avr/include/avr/fuse.h" 1 3
# 248 "/usr/lib/avr/include/avr/fuse.h" 3
typedef struct
{
    unsigned char low;
    unsigned char high;
} __fuse_t;
# 622 "/usr/lib/avr/include/avr/io.h" 2 3


# 1 "/usr/lib/avr/include/avr/lock.h" 1 3
# 625 "/usr/lib/avr/include/avr/io.h" 2 3
# 2 "main.c" 2
# 1 "/usr/lib/avr/include/avr/interrupt.h" 1 3
# 3 "main.c" 2
# 1 "lib_7seg_4dig_cc.h" 1
# 9 "lib_7seg_4dig_cc.h"
# 1 "bits4lib.h" 1




typedef struct Bits_t
{
 uint8_t bit0 :1;
 uint8_t bit1 :1;
 uint8_t bit2 :1;
 uint8_t bit3 :1;
 uint8_t bit4 :1;
 uint8_t bit5 :1;
 uint8_t bit6 :1;
 uint8_t bit7 :1;
}Bits;
# 10 "lib_7seg_4dig_cc.h" 2
# 25 "lib_7seg_4dig_cc.h"
void init_lib_7seg_4dig_cc(void);

void init_lib_7seg_4dig_cc(void) {

  (*(volatile uint8_t *)((0x17) + 0x20)) |= 0b01000000;
  (*(volatile uint8_t *)((0x14) + 0x20)) |= 0b00111111;
  (*(volatile uint8_t *)((0x11) + 0x20)) |= 0b00011111;


  (*(volatile uint8_t *)((0x33) + 0x20)) = (0<<2)|(1<<1)|(0<<0);
  (*(volatile uint8_t *)((0x39) + 0x20)) |= (1<<0);
  (*(volatile uint8_t *)((0x32) + 0x20)) = 0;
  __asm__ __volatile__ ("sei" ::: "memory");
}




extern int volatile lib_7seg_4dig__cur_dig_num = 0;
extern int volatile lib_7seg_4dig__display = 32;

void __vector_9 (void) __attribute__ ((signal,used, externally_visible)) ; void __vector_9 (void)
{
  (*(volatile uint8_t *)((0x32) + 0x20)) = 0;


  lib_7seg_4dig__cur_dig_num++;
  if (lib_7seg_4dig__cur_dig_num == 4) {lib_7seg_4dig__cur_dig_num = 0;}

  char razr_4 = lib_7seg_4dig__display % 10;
  char razr_3 = (lib_7seg_4dig__display % 100) / 10;
  char razr_2 = (lib_7seg_4dig__display % 1000) / 100;
  char razr_1 = (lib_7seg_4dig__display) / 1000;



  if (lib_7seg_4dig__cur_dig_num == 0) {
    lib_7seg_4dig__set_char(razr_1);
  }
  if (lib_7seg_4dig__cur_dig_num == 1) {
    lib_7seg_4dig__set_char(razr_2);
  }
  if (lib_7seg_4dig__cur_dig_num == 2) {
    lib_7seg_4dig__set_char(razr_3);
  }
  if (lib_7seg_4dig__cur_dig_num == 3) {
    lib_7seg_4dig__set_char(razr_4);
  }

  lib_7seg_4dig__set_digit();
# 86 "lib_7seg_4dig_cc.h"
}

void lib_7seg_4dig__set_char(char a_char);
void lib_7seg_4dig__dot_enable();
void lib_7seg_4dig__set_digit();

void lib_7seg_4dig__set_char(char a_char) {
  if (a_char == 0) {
    (*((volatile Bits*)&(*(volatile uint8_t *)((0x15) + 0x20)))).bit3 = 1; (*((volatile Bits*)&(*(volatile uint8_t *)((0x15) + 0x20)))).bit4 = 1; (*((volatile Bits*)&(*(volatile uint8_t *)((0x15) + 0x20)))).bit1 = 1; (*((volatile Bits*)&(*(volatile uint8_t *)((0x15) + 0x20)))).bit2 = 1;
    (*((volatile Bits*)&(*(volatile uint8_t *)((0x12) + 0x20)))).bit2 = 1; (*((volatile Bits*)&(*(volatile uint8_t *)((0x12) + 0x20)))).bit1 = 1; (*((volatile Bits*)&(*(volatile uint8_t *)((0x12) + 0x20)))).bit4 = 0; (*((volatile Bits*)&(*(volatile uint8_t *)((0x12) + 0x20)))).bit3 = 0;
  }
  if (a_char == 1) {
    (*((volatile Bits*)&(*(volatile uint8_t *)((0x15) + 0x20)))).bit3 = 0; (*((volatile Bits*)&(*(volatile uint8_t *)((0x15) + 0x20)))).bit4 = 1; (*((volatile Bits*)&(*(volatile uint8_t *)((0x15) + 0x20)))).bit1 = 1; (*((volatile Bits*)&(*(volatile uint8_t *)((0x15) + 0x20)))).bit2 = 0;
    (*((volatile Bits*)&(*(volatile uint8_t *)((0x12) + 0x20)))).bit2 = 0; (*((volatile Bits*)&(*(volatile uint8_t *)((0x12) + 0x20)))).bit1 = 0; (*((volatile Bits*)&(*(volatile uint8_t *)((0x12) + 0x20)))).bit4 = 0; (*((volatile Bits*)&(*(volatile uint8_t *)((0x12) + 0x20)))).bit3 = 0;
  }
  if (a_char == 2) {
    (*((volatile Bits*)&(*(volatile uint8_t *)((0x15) + 0x20)))).bit3 = 1; (*((volatile Bits*)&(*(volatile uint8_t *)((0x15) + 0x20)))).bit4 = 1; (*((volatile Bits*)&(*(volatile uint8_t *)((0x15) + 0x20)))).bit1 = 0; (*((volatile Bits*)&(*(volatile uint8_t *)((0x15) + 0x20)))).bit2 = 1;
    (*((volatile Bits*)&(*(volatile uint8_t *)((0x12) + 0x20)))).bit2 = 1; (*((volatile Bits*)&(*(volatile uint8_t *)((0x12) + 0x20)))).bit1 = 0; (*((volatile Bits*)&(*(volatile uint8_t *)((0x12) + 0x20)))).bit4 = 1; (*((volatile Bits*)&(*(volatile uint8_t *)((0x12) + 0x20)))).bit3 = 0;
  }
  if (a_char == 3) {
    (*((volatile Bits*)&(*(volatile uint8_t *)((0x15) + 0x20)))).bit3 = 1; (*((volatile Bits*)&(*(volatile uint8_t *)((0x15) + 0x20)))).bit4 = 1; (*((volatile Bits*)&(*(volatile uint8_t *)((0x15) + 0x20)))).bit1 = 1; (*((volatile Bits*)&(*(volatile uint8_t *)((0x15) + 0x20)))).bit2 = 1;
    (*((volatile Bits*)&(*(volatile uint8_t *)((0x12) + 0x20)))).bit2 = 0; (*((volatile Bits*)&(*(volatile uint8_t *)((0x12) + 0x20)))).bit1 = 0; (*((volatile Bits*)&(*(volatile uint8_t *)((0x12) + 0x20)))).bit4 = 1; (*((volatile Bits*)&(*(volatile uint8_t *)((0x12) + 0x20)))).bit3 = 0;
  }
  if (a_char == 4) {
    (*((volatile Bits*)&(*(volatile uint8_t *)((0x15) + 0x20)))).bit3 = 0; (*((volatile Bits*)&(*(volatile uint8_t *)((0x15) + 0x20)))).bit4 = 1; (*((volatile Bits*)&(*(volatile uint8_t *)((0x15) + 0x20)))).bit1 = 1; (*((volatile Bits*)&(*(volatile uint8_t *)((0x15) + 0x20)))).bit2 = 0;
    (*((volatile Bits*)&(*(volatile uint8_t *)((0x12) + 0x20)))).bit2 = 0; (*((volatile Bits*)&(*(volatile uint8_t *)((0x12) + 0x20)))).bit1 = 1; (*((volatile Bits*)&(*(volatile uint8_t *)((0x12) + 0x20)))).bit4 = 1; (*((volatile Bits*)&(*(volatile uint8_t *)((0x12) + 0x20)))).bit3 = 0;
  }
  if (a_char == 5) {
    (*((volatile Bits*)&(*(volatile uint8_t *)((0x15) + 0x20)))).bit3 = 1; (*((volatile Bits*)&(*(volatile uint8_t *)((0x15) + 0x20)))).bit4 = 0; (*((volatile Bits*)&(*(volatile uint8_t *)((0x15) + 0x20)))).bit1 = 1; (*((volatile Bits*)&(*(volatile uint8_t *)((0x15) + 0x20)))).bit2 = 1;
    (*((volatile Bits*)&(*(volatile uint8_t *)((0x12) + 0x20)))).bit2 = 0; (*((volatile Bits*)&(*(volatile uint8_t *)((0x12) + 0x20)))).bit1 = 1; (*((volatile Bits*)&(*(volatile uint8_t *)((0x12) + 0x20)))).bit4 = 1; (*((volatile Bits*)&(*(volatile uint8_t *)((0x12) + 0x20)))).bit3 = 0;
  }
  if (a_char == 6) {
    (*((volatile Bits*)&(*(volatile uint8_t *)((0x15) + 0x20)))).bit3 = 1; (*((volatile Bits*)&(*(volatile uint8_t *)((0x15) + 0x20)))).bit4 = 0; (*((volatile Bits*)&(*(volatile uint8_t *)((0x15) + 0x20)))).bit1 = 1; (*((volatile Bits*)&(*(volatile uint8_t *)((0x15) + 0x20)))).bit2 = 1;
    (*((volatile Bits*)&(*(volatile uint8_t *)((0x12) + 0x20)))).bit2 = 1; (*((volatile Bits*)&(*(volatile uint8_t *)((0x12) + 0x20)))).bit1 = 1; (*((volatile Bits*)&(*(volatile uint8_t *)((0x12) + 0x20)))).bit4 = 1; (*((volatile Bits*)&(*(volatile uint8_t *)((0x12) + 0x20)))).bit3 = 0;
  }
  if (a_char == 7) {
    (*((volatile Bits*)&(*(volatile uint8_t *)((0x15) + 0x20)))).bit3 = 1; (*((volatile Bits*)&(*(volatile uint8_t *)((0x15) + 0x20)))).bit4 = 1; (*((volatile Bits*)&(*(volatile uint8_t *)((0x15) + 0x20)))).bit1 = 1; (*((volatile Bits*)&(*(volatile uint8_t *)((0x15) + 0x20)))).bit2 = 0;
    (*((volatile Bits*)&(*(volatile uint8_t *)((0x12) + 0x20)))).bit2 = 0; (*((volatile Bits*)&(*(volatile uint8_t *)((0x12) + 0x20)))).bit1 = 0; (*((volatile Bits*)&(*(volatile uint8_t *)((0x12) + 0x20)))).bit4 = 0; (*((volatile Bits*)&(*(volatile uint8_t *)((0x12) + 0x20)))).bit3 = 0;
  }
  if (a_char == 8) {
    (*((volatile Bits*)&(*(volatile uint8_t *)((0x15) + 0x20)))).bit3 = 1; (*((volatile Bits*)&(*(volatile uint8_t *)((0x15) + 0x20)))).bit4 = 1; (*((volatile Bits*)&(*(volatile uint8_t *)((0x15) + 0x20)))).bit1 = 1; (*((volatile Bits*)&(*(volatile uint8_t *)((0x15) + 0x20)))).bit2 = 1;
    (*((volatile Bits*)&(*(volatile uint8_t *)((0x12) + 0x20)))).bit2 = 1; (*((volatile Bits*)&(*(volatile uint8_t *)((0x12) + 0x20)))).bit1 = 1; (*((volatile Bits*)&(*(volatile uint8_t *)((0x12) + 0x20)))).bit4 = 1; (*((volatile Bits*)&(*(volatile uint8_t *)((0x12) + 0x20)))).bit3 = 0;
  }
  if (a_char == 9) {
    (*((volatile Bits*)&(*(volatile uint8_t *)((0x15) + 0x20)))).bit3 = 1; (*((volatile Bits*)&(*(volatile uint8_t *)((0x15) + 0x20)))).bit4 = 1; (*((volatile Bits*)&(*(volatile uint8_t *)((0x15) + 0x20)))).bit1 = 1; (*((volatile Bits*)&(*(volatile uint8_t *)((0x15) + 0x20)))).bit2 = 1;
    (*((volatile Bits*)&(*(volatile uint8_t *)((0x12) + 0x20)))).bit2 = 0; (*((volatile Bits*)&(*(volatile uint8_t *)((0x12) + 0x20)))).bit1 = 1; (*((volatile Bits*)&(*(volatile uint8_t *)((0x12) + 0x20)))).bit4 = 1; (*((volatile Bits*)&(*(volatile uint8_t *)((0x12) + 0x20)))).bit3 = 0;
  }
  if (a_char == 'o') {
    (*((volatile Bits*)&(*(volatile uint8_t *)((0x15) + 0x20)))).bit3 = 1; (*((volatile Bits*)&(*(volatile uint8_t *)((0x15) + 0x20)))).bit4 = 1; (*((volatile Bits*)&(*(volatile uint8_t *)((0x15) + 0x20)))).bit1 = 0; (*((volatile Bits*)&(*(volatile uint8_t *)((0x15) + 0x20)))).bit2 = 0;
    (*((volatile Bits*)&(*(volatile uint8_t *)((0x12) + 0x20)))).bit2 = 0; (*((volatile Bits*)&(*(volatile uint8_t *)((0x12) + 0x20)))).bit1 = 1; (*((volatile Bits*)&(*(volatile uint8_t *)((0x12) + 0x20)))).bit4 = 1; (*((volatile Bits*)&(*(volatile uint8_t *)((0x12) + 0x20)))).bit3 = 0;
  }
}

void lib_7seg_4dig__dot_enable() {
  (*((volatile Bits*)&(*(volatile uint8_t *)((0x12) + 0x20)))).bit3 = 1;
}

void lib_7seg_4dig__set_digit() {
  if (lib_7seg_4dig__cur_dig_num == 0) {
    (*((volatile Bits*)&(*(volatile uint8_t *)((0x18) + 0x20)))).bit6 = 1;
    (*((volatile Bits*)&(*(volatile uint8_t *)((0x12) + 0x20)))).bit0 = 0;
    (*((volatile Bits*)&(*(volatile uint8_t *)((0x15) + 0x20)))).bit5 = 0;
    (*((volatile Bits*)&(*(volatile uint8_t *)((0x15) + 0x20)))).bit0 = 0;
  }
  if (lib_7seg_4dig__cur_dig_num == 1) {
    (*((volatile Bits*)&(*(volatile uint8_t *)((0x18) + 0x20)))).bit6 = 0;
    (*((volatile Bits*)&(*(volatile uint8_t *)((0x12) + 0x20)))).bit0 = 1;
    (*((volatile Bits*)&(*(volatile uint8_t *)((0x15) + 0x20)))).bit5 = 0;
    (*((volatile Bits*)&(*(volatile uint8_t *)((0x15) + 0x20)))).bit0 = 0;
  }
  if (lib_7seg_4dig__cur_dig_num == 2) {
    (*((volatile Bits*)&(*(volatile uint8_t *)((0x18) + 0x20)))).bit6 = 0;
    (*((volatile Bits*)&(*(volatile uint8_t *)((0x12) + 0x20)))).bit0 = 0;
    (*((volatile Bits*)&(*(volatile uint8_t *)((0x15) + 0x20)))).bit5 = 1;
    (*((volatile Bits*)&(*(volatile uint8_t *)((0x15) + 0x20)))).bit0 = 0;
  }
  if (lib_7seg_4dig__cur_dig_num == 3) {
    (*((volatile Bits*)&(*(volatile uint8_t *)((0x18) + 0x20)))).bit6 = 0;
    (*((volatile Bits*)&(*(volatile uint8_t *)((0x12) + 0x20)))).bit0 = 0;
    (*((volatile Bits*)&(*(volatile uint8_t *)((0x15) + 0x20)))).bit5 = 0;
    (*((volatile Bits*)&(*(volatile uint8_t *)((0x15) + 0x20)))).bit0 = 1;
  }
}
# 4 "main.c" 2


define(m4_bit, 7)

define(m4_port, (*(volatile uint8_t *)((0x18) + 0x20)))

define(any_port, m4_port)

int main(void)
{

 (*(volatile uint8_t *)((0x17) + 0x20)) = (1<<m4_bit);


 any_port = (1<<m4_bit);

  return 0;
}
